<?xml version="1.0" encoding="UTF-8"?>
<svg id="Calque_1" data-name="Calque 1" xmlns="http://www.w3.org/2000/svg" version="1.1" viewBox="0 0 850.39 566.93">
  <defs>
    <style>
      .cls-1 {
        fill: #f8f5e6;
      }

      .cls-1, .cls-2, .cls-3, .cls-4, .cls-5, .cls-6, .cls-7, .cls-8, .cls-9, .cls-10, .cls-11, .cls-12, .cls-13, .cls-14 {
        stroke-width: 0px;
      }

      .cls-2 {
        fill: #43463e;
      }

      .cls-3 {
        fill: #3e3633;
      }

      .cls-4 {
        fill: #f4f1c5;
      }

      .cls-5 {
        fill: #d3cfa0;
      }

      .cls-6 {
        fill: #443c35;
      }

      .cls-7 {
        fill: #e7c15a;
      }

      .cls-8 {
        fill: #4b4436;
      }

      .cls-9 {
        fill: #faf7c5;
      }

      .cls-10 {
        fill: #faf7c7;
      }

      .cls-11 {
        fill: #dc8808;
      }

      .cls-12 {
        fill: #fbf8c7;
      }

      .cls-13 {
        fill: #493629;
      }

      .cls-14 {
        fill: #423630;
      }

      .cls-15 {
        isolation: isolate;
      }
    </style>
  </defs>
  <g class="cls-15">
    <g id="background">
      <rect class="cls-2" y="0" width="850.39" height="566.93"/>
    </g>
    <g>
      <path class="cls-3" d="M472.15,67.62c3.9-1.74,8.05-2.51,12.24-3.17,6.4-.18,12.74.25,18.97,1.8.25.05.5.1.75.14.52.11,1.04.23,1.56.34,4.84,1.29,9.23,3.52,13.37,6.3,1.59,1.65,3.19,3.3,4.78,4.95.27.38.55.77.82,1.15,2.35,4.52,2.81,9.26,1.61,14.19-.3,1.25.16,1.65,1.42,1.32,3.2-.86,6.44-1.13,9.72-.53,5.06.87,9.01,3.85,13.01,6.76,1.17,1.15,2.34,2.3,3.51,3.44.29.38.58.76.88,1.13,1,1.77,2.08,3.47,3.51,4.92,1.27,2.53,2.47,5.08,3.17,7.84.21,2.1.45,4.2.63,6.3.37,4.25-.43,8.44-.74,12.66,0,0,0,0,0,0-.09.25-.18.51-.27.76-.19.88-.37,1.77-.56,2.65-1.48,4.35-3.26,8.56-5.51,12.57l-.1.02s-.02.1-.02.11c-.91.33-.92,1.27-1.3,1.95-.27.27-.54.54-.81.81-1.13,1.19-2.25,2.38-3.38,3.57,0,0-.04.02-.04.02-.13.11-.25.23-.38.34,0,0-.01.02-.01.02-1.07.68-2.21,1.26-3,2.32-2.18,1.5-4.58,2.57-7.04,3.49-.42.21-.98.2-1.25.7,1.32.97,1.41.99,3.62.94,6.57-.13,13.13-.03,19.6,1.38,1.3.28,2.51,1.05,3.93.77.27.15.54.3.81.45,2.7,1.42,5.41,2.83,8.11,4.25.26.15.51.29.77.44,1.67,1.54,3.34,3.07,5.01,4.61.16.25.33.5.49.75.77.77,1.04,1.98,2.17,2.43,0,0,0,0,0,0,1.16,2.4,2.45,4.74,3.91,6.97,0,.11.02.22.07.31.56,1.63,1.08,3.27,1.68,4.88.55,1.48.57,3.18,1.77,4.4-.06,1.06-.25,2.13.34,3.12.74,4.95,1.32,9.93,1.1,14.93-.31,7.02-.21,14.03-.24,21.05-.04,10.96-.96,21.85-2.63,32.68-.59,3.81-1.32,7.59-1.99,11.39-.17,1.29-1.06,2.46-.6,3.84-.69.34-.68,1.03-.84,1.64-.48,1.86-.92,3.73-1.46,5.57-.87,2.96.49,5.67.84,8.5.03.22.25.5.46.59,1.66.7,2.87,2.15,4.59,2.74,0,0-.01,0-.01,0,.87,1.2,2.01,2.13,3.11,3.1,2.02,2.57,3.88,5.23,4.67,8.47.24,1.94.47,3.87.08,5.82-.1.5-.05,1.03.59,1.22,0,0,.01.02.01.01.79.88,1.58,1.76,2.37,2.64,0,0,0,0,0,0,1.43,2.7,2.86,5.4,4.29,8.1.14.26.29.52.43.77.31.98.62,1.96.94,2.93.95,2.88,1.77,5.8,2.13,8.8.94,7.91.69,15.69-2.73,23.09,0,0,0,0,0,0-.1.12-.2.24-.3.35-1.52,2.47-3.2,4.77-5.95,6-.12,0-.18.06-.19.18,0,0-.1.14-.1.14-.47.19-.96.36-1.42.57-3.8,1.72-7.65,2.65-11.89,1.54-1.69-.44-3.65-.9-5.29.49-7.11,3.95-13.97,3.26-20.52-1.25-1.5-1.04-2.48-1.1-4.05-.08-2.46,1.6-5.26,1.7-8.02.58-.89-.36-1.74-.8-2.61-1.2-2.5-2.88-5.87-4.86-8.15-7.97-.07-.09-.16-.15-.27-.19-.55-3.33-3.07-4.51-5.86-5.41,0,0,0,0,0,0-1.3-2.05-2.84-3.94-3.87-6.15-2.11-8.89,1.1-16.45,5.98-23.54,1.94-2.81,2.02-2.73-1.46-3.16-4.28-.53-8.52-1.29-12.84-1.63-4.18-.34-7.57,1.3-10.67,3.71-1.37,1.07-1.99,2.86-2.67,4.43-5.23,12.16-15.02,17.79-27.62,19.01-11.24,1.09-22.53.68-33.78-.21-6.42-.51-6.45-.69-9.39,5.14-3.94,7.82-5.45,16.04-3.8,24.73,1.32,6.94,6.99,12.02,14.06,12.55,3.93.29,7.85-.12,11.77-.44,1.26-.1,1.87-.86,2.49-1.85,2.79-4.47,6.67-7.17,12.14-6.74,3.59.28,6.72,1.9,9.24,4.41,1.33,1.33,2.38,1.09,3.71.32,6.05-3.52,12.63-4.67,19.53-4.23,8.18.53,13.64,5.21,17.61,11.94.96,1.62,1.99,3.27,2.45,5.16.12.73.31,1.44.83,2-.02.09,0,.18.04.26.06.57.04,1.17.19,1.72,1.5,5.46,1.7,11.01,1.09,16.61-.38,3.44-.79,6.87-1.19,10.31-.7,3.34-1.39,6.68-2.09,10.03-1.25,1.89-1.48,4.15-2.26,6.2-.65,1.67-1.29,3.33-1.94,5-.87,1.05-1.23,2.35-1.8,3.55-2.02,4.62-5.03,8.63-7.83,12.77-.98,1.24-1.98,2.46-2.94,3.71-.37.47-.75,1.13.24,1.24,2.06.23,4.05,1.22,6.19.64.88.3,1.71.79,2.69.57,3.68,1.05,7.49,1.48,11.23,2.21,1.67.32,3.34.63,5,.95,5.08,1.36,10.15,2.77,15.09,4.6.25.02.5.05.75.07,1.08,1.36,2.8,1.71,4.19,2.57,3.11,1.93,3.95,4.31,2.49,7.55-3.58,3.26-7.82,5.23-12.45,6.46-3.35.89-6.7,1.77-10.05,2.66-.13.04-.25.07-.38.11-.7.12-1.41.17-2.09.36-4.02,1.11-8.31,1.03-12.22,2.68-2.46.38-4.92.77-7.37,1.15-2.15-.26-4.24-.02-6.28.7-2.12-.38-3.99,1.1-6.09.82-.39-.31-.77-.28-1.16,0,0,0,0,0,0,0-.7.02-1.42-.02-2.11.06-7.51.91-15.06,1.49-22.59,2.11-3.76.31-7.56.23-11.3.91-.25,0-.49,0-.74.01-1.22.02-2.46-.06-3.67.08-1.22.14-2.61-.44-3.65.69-3.11.03-6.23.05-9.34.08-7.36.16-14.72.31-22.08.48-.24,0-.49.14-.73.22h0c-5.93,0-11.86,0-17.79,0-6.83,0-13.66.02-20.49.03-.38-.01-.77-.03-1.15-.04-.31-.08-.62-.21-.93-.22-7.3-.17-14.61-.33-21.91-.5-1.27-.02-2.55-.05-3.82-.07-5.16-.78-10.38-.75-15.57-1.06-13.55-.83-27.06-2.07-40.53-3.73-3.23-.4-6.42-1.38-9.73-.95-1.03-.14-2-.74-3.1-.43-.18-.17-.34-.46-.54-.5-4.44-.86-8.88-1.7-13.32-2.52-1.92-.35-3.85-.65-5.78-.97-2.32-.74-4.65-1.48-6.97-2.23-3.1-1.31-6.19-2.62-9.29-3.94-1.18-.42-1.7-1.61-2.66-2.29-1.39-2.09-1.3-4.14.18-6.14,0,0,.09-.1.09-.1.12-.04.21-.12.26-.23.09-.12.18-.25.28-.37,1.25-.59,2.57-1.09,3.4-2.31,0,0-.01.01-.01.01,2.81-.79,5.44-2.04,8.14-3.13,2.45-.59,4.79-1.61,7.3-1.98,2.06-.5,4.13-1,6.19-1.49.25-.05.51-.1.76-.15.69-.09,1.4-.11,2.07-.27.83-.2,2.18.09,2.33-.85.19-1.16-1.32-1.06-2.03-1.59-1.04-.9-2.08-1.8-3.11-2.69-1.71-2.29-3.82-4.16-6.14-5.8l-.09.04s.09-.03.09-.03c-.54-1.61-1.84-2.53-3.14-3.45,0,0,0,0,0,0-2.58-3.48-5.15-6.97-7.73-10.45,0,0,.01-.01.01-.01-.54-1.54-1.11-3.07-2.41-4.18,0,0,0,0,0,0-.12-.13-.24-.26-.37-.4-1.36-3.15-2.78-6.28-4.05-9.46-.78-1.94-1.6-3.89-1.82-6.01-.14-2.32-1.12-4.41-1.86-6.57-.39-2.07-.77-4.14-1.16-6.21.28-.41.19-.85.14-1.3-.97-7.96-.85-15.88.57-23.78.3-1.69,1.11-3.29.84-5.07.54-1.77,1.07-3.54,1.61-5.31.81-2.05,1.96-3.92,3.09-5.8.69-.54,1.46-1,1.57-2v.03c1.73-1.63,3.51-3.2,4.96-5.09.79-.72,1.68-1.31,2.68-1.7,2.63-1.45,5.42-2.56,8.2-3.67.45-.31.96-.41,1.5-.4,3.59-.58,7.18-1.07,10.83-.56,1.49.21,3.01.17,4.51.24,1.12.62,2.24,1.24,3.59,1.04.11.04.23.06.35.08,1.25,1.39,3.04,1.65,4.68,2.22.23.15.46.3.7.45.78.87,1.7,1.57,2.75,2.07,1.31,1.2,2.62,2.4,3.93,3.59.44.4.81.92,1.49.95.33,1.74,2.21,2.53,2.63,4.21.23,1.2.39,2.44,1.63,3.11.98,2.28,2.21,4.46,2.6,6.97.03.12.08.23.13.34.62,1.83.46,3.92,1.91,5.46.03.37.05.74.08,1.12-.14.77-.17,1.54.07,2.3.91,6.05.98,12.18,1.52,18.26.39,4.41.83,8.84,2.25,13.09.17.51.34,1.03.51,1.54.3.77.48,1.63,1.36,2.01,0,0,0,0,0,0,.5,1.71,1.65,2.86,3.17,3.69.93.36,1.48,1.53,2.7,1.28,3.01,1.76,6.57,1.3,8.61-1.1,2.16-1.28,1.16-3.27.98-4.98-.1-.93-.26-1.88-.33-2.83.97-1.41,1.36-3.06,1.89-4.65.04-.22.08-.43.11-.65,1.62-1.59,3.25-3.18,4.87-4.78.42-.29.83-.57,1.25-.86,1.85-.67,3.6-1.59,5.56-1.99.83-.17,1.35-.88,1.54-1.78.45-2.06.94-4.11,1.42-6.16.53-1.37,1.04-2.74,1.19-4.22,1.64-2.05,2.07-4.56,2.7-7,0,0,0,0,0,0,1.47-3.11,2.69-6.31,3.6-9.63.29-.29.37-.65.35-1.04,1-1.59,1.95-3.2,1.91-5.18.12-.03.22-.09.31-.17.64-1.4,1.36-2.77,1.9-4.2,1.37-3.6,3.35-6.95,4.34-10.7,0,0-.02-.02-.02-.02.63-.35.74-1.02,1-1.59,3.64-8.2,7.28-16.4,10.93-24.6.76-1.72.63-1.91-1.51-2.06,0,0-.02,0-.02,0-6.15-1.31-12.31-2.61-18.46-3.92-.67-.64-1.51-.74-2.38-.75,0,0-.02,0-.02,0-.52-.61-1.22-.72-1.96-.68-.75-.19-1.51-.38-2.26-.57-.24-.1-.48-.21-.72-.31-.45-.39-.92-.74-1.54-.8-1.85-1.36-3.62-2.87-5.9-3.53-.03-.12-.11-.2-.23-.23-.58-.53-1.16-1.05-1.74-1.58-1.04-1.51-2.41-2.69-3.85-3.8-.06-.07-.14-.11-.23-.13l-.48-.83c-.02-.1-.06-.18-.13-.25.02-.78-.37-1.28-1.07-1.58-.23-.4-.46-.81-.68-1.21-.14-1.66-.36-3.31-1.55-4.62-.16-2.05-.32-4.11-.47-6.16-.03-1.29-.06-2.58-.09-3.88,0-1.68,0-3.36.01-5.04.05-.12.05-.24.03-.36.14-1.42.24-2.85-.01-4.27.02-.4.04-.8.06-1.2,1.3-1.55.75-3.51,1.13-5.26.8-3.72.37-4.02-3.28-2.72-.12.04-.21.13-.32.2-.47.04-.94.08-1.41.12-2.05.11-4.11.31-6.16.31-5.95.02-11.81-.57-17.43-2.67-.37-.03-.74-.07-1.1-.1-.56-.85-1.59-.99-2.35-1.53-.9-.63-1.79-1.26-2.69-1.89-.19-.9-.97-1.36-1.58-1.85-2.05-1.63-3.15-4.15-5.38-5.59-.13-.56-.33-1.08-.79-1.46-.24-.52-.43-1.07-.74-1.54-1.04-1.55-1.49-3.51-3.15-4.64-1.16-1.03-1.16-2.74-2.22-3.83-.2-.77-.4-1.54-.6-2.3-.6-1.61-1.13-3.26-1.81-4.83-.92-2.14-1.27-4.52-2.7-6.44-.15-.5-.31-1-.46-1.5-.12-.9-.25-1.81-.37-2.71-.34-2.14-.62-4.3-1.46-6.34.19-1.02-.66-1.89-.38-2.92.13-2.1,0-4.18-.44-6.24h0q.15-3.86-3.63-4.68c-.06-.01-.12-.01-.19-.02-.31-.5-.74-.52-1.23-.32-.5-.16-.99-.32-1.49-.48-.76-1.43-2.25-2.15-3.24-3.36-.63-1.5-1.15-3.06-2.19-4.36,0-.46,0-.93,0-1.39.96-.61.85-1.79,1.36-2.65,1.19-1.99,1.01-2.28-1.4-3.1-.17-.17-.34-.35-.51-.52-1.04-1.2-2.12-2.38-3.12-3.61-1.98-2.42-3.33-5.25-3.92-8.25-.48-2.41-.15-4.98-.18-7.48.17-1.53.34-3.06.51-4.6.55-1.06.39-2.02-.3-2.98-.87-1.22-1.66-2.49-2.48-3.74-.01-.33-.11-.62-.41-.8.02-.09.02-.18-.01-.26.1-.95-.39-1.73-.73-2.56-1.99-4.82-1.54-9.2,2.08-13.19,1.32-1.46,3.14-2.16,4.48-3.52,0,0,0,.01,0,.01,3-.24,5.98-.76,9-.45.87.09,1.16-.66,1.48-1.3.99-2.03,2.39-3.78,3.62-5.65,1.17-1.77,3.34-1.87,4.48-3.45.94-.08,1.81-.38,2.63-.83,2.42-.21,4.84-.44,7.28-.06,1.05.16,2.03.93,3.18.43.11.05.23.09.34.13.37.91.84.3,1.15.01,1.29-1.19,2.54-2.43,3.8-3.66.18-.22.37-.44.55-.66.55-.16,1.13-.25,1.64-.48,4.6-2.11,9.11-2.22,13.53.51.29.18.58.61.97.12.67.7,1.34,1.4,2.01,2.1-.06.32-.02.61.27.82.8,1.93,1.61,3.85,2.41,5.78,1.03,3.03,1.51,6.18,2.09,9.3.08.25.16.5.23.75-.02.12,0,.24.04.36.28,1.5-.65,3.21.77,4.51.6.6,1,1.42,1.89,1.69.53.76,1.01,1.58,1.94,1.95.74.69.85,1.86,1.82,2.37.94,2.56,1.87,5.11,2.81,7.67.23,2.84.1,5.67,0,8.51-.5,3.09-1.9,5.75-3.84,8.16-.43.07-.66.34-.76.74-.07.05-.1.12-.11.21-1.5,1.09-2.74,2.42-3.86,3.88-2.83,2.93-6.32,4.97-9.67,7.18-1.1.72-1.08,1.32-.58,2.34,1.3,2.65,1.26,5.28-.13,7.94-1.04,2-2.7,3.56-4.62,4.17-3.7,1.17-3.87,3.72-3.53,6.75,0,0,.02,0,.02,0-.96,6.53.4,12.68,3.01,18.64.95,3.13,2.74,5.81,4.69,8.35.77,1,1.7,2.12,3.17,2.32.11.05.22.1.32.15.35.92,1.14,1.2,1.99,1.41.13.04.27.08.4.12,1.08.62,2.27.83,3.47,1.03,1.56.22,3.11.33,4.63-.24,1.12.06,2.19-.08,3.13-.76.13,0,.25,0,.37-.05,2.26-.8,4.6-1.46,6.22-3.43.31.01.6-.01.8-.31,1.45-.78,2.87-1.65,4.38-2.31,1.45-.64,2.3-1.56,2.29-3.18.37-.34.24-.79.25-1.21.17-.63.34-1.26.5-1.89.68-1.22.82-2.58,1-3.93.13-.15.27-.29.4-.44,1.39-3.52,1.79-7.28,2.78-10.9.3-1.09.68-2.2.35-3.37.42-2.81,1.34-5.56,1.22-8.45.96-1.12,1.01-2.5,1.16-3.86.69-.72.23-1.57.28-2.37.27-.37.39-.76.47-1.22.5-3.03,1.03-6.06,1.56-9.09.76-1.24.7-2.63.7-4.01h0c.38-.59.39-1.25.35-1.91.69-5.6,1.58-11.16,2.28-16.76,1.14-9.18,2.38-18.35,4.21-27.43.15-.75.34-1.61-.35-2.18-2.66-2.2-5.5-4.13-8.61-5.64,0,0-.06,0-.06,0-.6-1.15-1.32-2.22-2.39-3,0,0,.02.01.02.01-.14-.91-.85-1.5-1.24-2.28-1.7-4.62-2.66-9.38-2.85-14.3,0-.9,0-1.81,0-2.71.05-1.16.09-2.32.14-3.48,0-.24.02-.48.02-.72.89-4.27,1.78-8.54,2.68-12.82,1.07-1.71,1.71-3.68,3.12-5.19.43-.04.23-.4.31-.62,0,0,.04-.05.04-.05,1.05-.2,1.5-1.06,2.01-1.85.12-.06.23-.13.35-.19.4,0,.61-.23.69-.61.21-.88,1.02-1.07,1.67-1.44,3.06-.88,5.99-2.15,9.31-2.21,5.35-.09,10.23,1.7,15.18,3.27,2.65.84,2.86.73,2.26-1.97-.99-4.44-1.17-8.89-.56-13.4.56-4.16,1.89-8.11,3.07-12.11.65-3.26,2.54-5.97,3.96-8.89.22-.11.53-.15.63-.33,2.43-3.93,5.72-7.08,9.04-10.23,1.61-1.52,3.66-2.44,5.13-4.09,2.95-1.45,6.05-2.53,9.18-3.54,1.59.34,2.95-.73,4.51-.7,2.75.05,5.5,0,8.25-.02,4.98.8,9.75,2.48,14.68,3.5,1.86,1.41,3.99,2.25,6.15,3.04,1.86,1.35,3.67,2.74,5.39,4.29,3.09,2.77,5.49,6.01,7.48,9.6,1.33,2.63,2.68,5.25,3.67,8.04.22.62.31,1.7,1.09,1.63.85-.08,1.27-.98,1.24-1.91.08-.1.15-.21.18-.33,1.93-1.81,3.86-3.62,5.78-5.43.12-.04.24-.08.36-.12,1.32-.54,2.5-1.31,3.63-2.18ZM538.98,326.79c1.92-1.69,3.84-3.37,5.75-5.06,1.03-.47,1.79-1.17,2.12-2.26-.54-.44-.98-.14-1.39-.06-7.79,1.47-15.65,1.26-23.51.96-1.59-.06-2.68-.74-2.63-2.4.05-1.76,1.3-2.15,2.85-2.07,2.32.13,4.63.23,6.95.26,5.42.08,10.82-.15,16.16-1.24.91-.18,1.53-.43,1.68-1.49.6-4.44,3.42-7.31,6.8-9.89,1.36-1.04,3.82-1.08,3.98-3.14.14-1.73-.58-3.53-.95-5.29-.12-.57-.3-1.12-.48-1.67-1-3.1-2.21-6.09-4.41-9.21-1.33,9.07-5.56,15.48-14.3,17.76-8.13,2.12-15.92,1.65-22.36-5.13-.29,2.53-.53,4.88-.85,7.23-.97,7.03-2.37,13.96-4.26,20.81-.13.49-1.15,1.98.69,1.44,4.91-1.45,9.83-.95,14.75-.25,3.7.53,7.36,1.29,11.11,1.37.85.02,1.68.12,2.28-.67ZM508.82,256.22c2.01-1.14,4.01-2.32,6.05-3.42.67-.36.84-.86.92-1.54,1.14-8.95,2.22-17.91,3.01-26.89.98-11.17,1.92-22.34,4.06-33.38,1.51-7.78,2.73-15.62,3.26-23.54.04-.65.47-1.61-.39-1.9-1.62-.56-3.22-1.65-5-1.23-6.58,1.58-12.66-.03-18.54-2.78-1.51-.7-1.88-.57-2.01,1.14-.47,6.29-2.3,12.14-6.15,17.23-2.23,2.95-4.96,5.24-8.69,6.05-6.78,1.48-13.75-2.91-15.77-10.46-.82-3.07-1.82-4.9-5.19-5.7-3.68-.88-5.9-3.97-7.6-7.28-.39-.77-.69-1.51-1.84-.83-5.36,3.13-11.16,3.76-17.18,2.82-1.17-.18-1.66.14-2.22,1.15-2.69,4.85-6.21,9.03-10.76,12.23-4.37,3.07-9.11,3.05-13.54.07-4.95-3.32-8.37-7.79-9.88-13.6-.38-1.46-.75-1.95-2.27-1.08-1.96,1.13-4.14,1.81-6.39,2.08-7.03.84-12.13-2.11-15.52-8.15-.8-1.42-1.41-1.44-2.57-.52-1.1.88-2.31,1.66-3.55,2.33-2.74,1.48-5.59,2.86-8.82,1.94-1.38-.39-1.76-.06-1.99,1.24-1.37,7.81-2.59,15.64-3.51,23.5-2.22,18.96-5.33,37.76-9.53,56.38-3.45,15.27-7.95,30.28-10.89,45.66-1.77,9.27-2.96,18.57-2.12,28.05.45,5.06,1.97,9.57,5.82,13.07,3.22,2.93,6.83,5.25,10.9,6.84,6.53,2.55,13.42,3.63,20.24,4.92,11.9,2.25,23.85,4.25,35.79,6.31,8.06,1.39,16.06,3.13,24.17,4.21,10.62,1.42,21.31,1.87,32.01,1.99,5.99.07,12,.16,17.9-1.19,6.48-1.48,12.44-3.9,16.41-9.66,3.42-4.96,6.25-10.23,8.11-15.97,3.15-9.73,4.77-19.76,5.87-29.9.32-2.99.62-5.99.97-9.37-2.41,1.13-4.6,1.55-6.84,1.73-3.52-.49-6.33-2.12-8.05-5.28-2.87-5.28-2.95-13.33,1.37-18.55,2.84-3.43,6.4-6.07,9.93-8.73ZM527.67,161.62c.63.65,1.3.64,1.91.74,7.05,1.17,12.89-1.48,17.66-6.31,8.87-8.97,11.91-20.01,10.87-32.43-.68-8.11-3.97-14.74-10.4-19.71-4.14-3.2-8.37-6.27-13.99-6.31-2.84-.02-5.42,1.01-8.09,1.7-2.78.71-4.16-.47-3.79-3.3.25-1.91.74-3.79,1.07-5.7.94-5.38-.69-9.79-5.04-13.14-.92-.71-1.86-1.4-2.86-1.99-10.96-6.5-22.8-8.16-35.21-5.99-5.7,1-10.5,3.84-13.99,8.58-1.03,1.4-1.88,2.93-2.77,4.41-.67,1.1-1.49,2.03-2.88,1.94-1.46-.1-1.98-1.28-2.42-2.46-.35-.97-.68-1.95-1-2.92-2.37-7.09-5.93-13.41-11.67-18.36-5.15-4.44-11.43-6.29-17.83-7.94-12.69-3.27-23.79.04-32.45,9.38-10.15,10.94-14.58,24.1-11.61,39.2.4,2.02,1.47,4.36-.41,6.04-1.84,1.64-3.91.21-5.84-.36-4.01-1.19-7.94-2.7-12.1-3.32-7.25-1.08-13.8,2.64-16.37,9.44-3.47,9.18-4.14,18.58-1.64,28.11,1.45,5.54,5.81,8.55,10.56,10.86,1.4.68,2.33,1.24,2.89,2.67,1,2.56,2.77,3.35,5.42,2.61,1.56-.44,2.99-1.19,4.38-2.01,3.84-2.26,6.57-5.55,8.62-9.44.66-1.25,1.62-2.01,2.95-1.25,1.36.77,1.1,2.04.41,3.21-.72,1.22-1.46,2.43-2.21,3.64-.39.63-.53,1.23-.28,2,2.27,6.78,8.72,9.94,15.46,7.54,3.51-1.25,6.5-3.39,9.49-5.53,1.06-.76,2.13-1.06,3.05.14.93,1.2.33,2.17-.66,2.99-.25.21-.51.41-.79.55-1.57.79-1.68,2-1.29,3.58,1.2,4.75,3.7,8.6,7.61,11.54,4.18,3.14,7.27,3.01,11.34-.27,5.92-4.76,9.49-10.93,11.22-18.24.31-1.29.9-2.26,2.33-1.99,1.41.27,1.7,1.41,1.5,2.7-.12.76-.17,1.55-.41,2.28-.54,1.65-.07,2.32,1.72,2.45,6.69.5,12.46-1.43,17.25-6.17.95-.94,2.05-1.62,3.2-.55,1.14,1.05.73,2.21-.34,3.16-.78.69-.98,1.53-.51,2.44,1.98,3.81,4.45,6.99,9.28,7.11,1.73.04,2.66,1.03,3.04,2.69.42,1.82.81,3.66,1.43,5.41,1.3,3.68,3.66,6.42,7.67,7.15,3.93.72,6.82-1.22,9.21-4.12,4.42-5.34,5.98-11.59,5.86-18.37-.03-1.4-.52-2.63-1.49-3.68-1.02-1.09-1.74-2.39-2.33-3.76-.53-1.24-.68-2.51.76-3.14,1.31-.57,2.18.25,2.74,1.43.92,1.96,2.15,3.71,3.93,4.94,9.67,6.69,19.43,7.66,29.16.42,1.03-.77,2-1.63,3.04-2.38.94-.68,1.91-.79,2.75.2.83.98.63,1.97-.23,2.74-1.09.99-2.28,1.89-3.47,2.77-1.11.82-2.28,1.57-3.47,2.37ZM330.77,454.43c1.1,3.46,2.16,6.5,2.62,9.68.2,1.37,0,2.67-1.73,2.91-1.61.23-2.15-.85-2.38-2.18-.39-2.23-.9-4.42-1.65-6.56-1.31-3.76-3.53-6.56-7.38-8.15-5.92-2.45-9.62-7.02-11.2-13.21-1.47-5.77-2-11.69-2.29-17.61-.41-8.39-1.12-16.69-4.38-24.6-5.53-13.42-15.53-20.05-29.42-19.21-4.37.26-8.32,1.8-12.34,4.22.96.31,1.55.52,2.15.69,3.86,1.12,6.9,3.4,9.26,6.62,4.16,5.66,4.98,12.33,5.63,19.02.11,1.16-.59,2-1.81,2.12-1.2.11-1.96-.56-2.19-1.73-.2-1.01-.33-2.03-.47-3.06-.37-2.82-.74-5.63-1.69-8.32-1.4-3.99-3.53-7.47-7.31-9.65-3.63-2.08-8.22-1.43-10.62,1.44-.32.38-.76.93-.68,1.31.13.63.85.37,1.33.36,2.78-.06,5.14,1.01,7.28,2.69,4.27,3.34,6.67,7.81,7.65,13.04,1.12,5.95,2.12,11.93,3.09,17.91,2.14,13.09,6.03,25.45,14.77,35.82.87,1.03,1.24,2.2.02,3.24-1.21,1.03-2.27.51-3.18-.54-1.6-1.86-3.06-3.82-4.41-5.87-6-9.04-8.98-19.2-10.91-29.73-1.3-7.1-2.08-14.28-3.82-21.3-.86-3.48-2.5-6.45-5.24-8.82-4.69-4.06-9.69-2.55-11.39,3.39-1.86,6.49-1.99,13.09-1.38,19.75.7,7.7,1.52,15.38,3.95,22.8,3.39,10.31,9.33,19.04,16.45,27.06,11.13,12.55,24.54,21.49,40.81,26.05,6.84,1.92,13.83,2.16,20.82,2.84,8.38.82,16.16-.61,23.51-4.64.49-.27,1.24-.41,1.2-1.1-.04-.66-.79-.76-1.28-1.02-.51-.27-1.06-.45-1.61-.65-4.56-1.61-9.32-1.97-14.1-2.03-9.71-.12-18.42-3.37-26.64-8.24-1.23-.73-2.04-1.75-1.14-3.18.84-1.35,2.06-1.03,3.24-.41.28.15.56.32.84.48,8.12,4.76,16.8,7.3,26.3,7.34,6.13.03,12.25.83,17.59,4.37.77.51,1.49,1.1,2.36.13.81-.92.3-1.67-.23-2.42-2.07-2.9-4.89-4.69-8.33-5.58-2.13-.55-4.33-.63-6.49-.97-1.27-.2-2.01-.91-1.89-2.23.13-1.35,1.08-1.85,2.31-1.81,6.45.23,12.41,1.74,16.84,6.86,1.12,1.29,1.69.8,2.14-.42,2.6-7.09,3.03-14.2.07-21.31-.88-2.12-2.44-3.22-4.83-3.11-2.35.11-4.6-.48-6.8-1.28-1.16-.43-1.89-1.19-1.55-2.5.37-1.43,1.48-1.66,2.74-1.41.82.16,1.61.45,2.43.62,5.67,1.16,10.82.43,14.74-4.3,3.35-4.05,3.24-9.75-.09-12.83-1.05-.97-1.73-1.29-2.52.37-1.1,2.34-2.66,4.39-4.53,6.21-4.45,4.33-15.37,4.28-17.85-3.77-.69-2.24-.83-4.56-.74-6.89.04-1,.78-2.45,0-2.91-1.06-.61-2.29.45-3.33,1.05-.83.48-1.58,1.11-2.33,1.72-3.48,2.87-4.49,6.42-3.05,10.73.78,2.34,1.79,4.55,3.07,6.65.67,1.1.77,2.27-.48,3.04-1.21.75-2.24.25-3-.83-.48-.68-.87-1.43-1.32-2.13-.28-.43-.58-.92-1.22-.71-.63.2-1.24.56-1.44,1.19-.21.63.47.82.86,1.12.25.19.54.34.82.51,3.98,2.34,6.57,5.92,8.74,9.84.62,1.13.61,2.27-.67,3.01-1.2.69-2.11.15-2.82-.83-.45-.62-.78-1.33-1.22-1.97-1.6-2.33-3.12-4.73-6.25-6.18ZM421.16,482.46c-.1.76.22,1.01.47,1.3,1.55,1.78,3.46,3.06,5.57,4.08,8.33,4.02,16.85,7.55,26.06,8.87,5.96.86,11.97.15,17.92-.57,8.62-1.04,16.42-3.67,22.84-10.09,17.95-17.96,27.58-39.37,27.62-64.87.01-7.7-2.15-14.76-7.14-20.77-1.08-1.3-2.15-2.71-4.25-3.21.77,2.59,1.46,4.99,1.8,7.45.35,2.55.73,5.11.44,7.7-.15,1.31-.78,2.25-2.22,2.15-1.33-.09-1.83-1.04-1.87-2.27-.02-.71.03-1.42-.02-2.13-.33-4.98-.88-9.9-3.91-14.14-.62-.86-1.3-1.59-2.48-1.61-5.58-.12-10.88.96-15.89,3.46-1.22.61-1.67,1.52-1.45,2.83.21,1.27.48,2.54.56,3.82.07,1.1-.56,1.82-1.68,2.01-1.03.18-1.77-.23-2.16-1.19-.19-.47-.33-.98-.44-1.48-1.08-4.84-4.1-7.92-8.73-9.46-3.45-1.15-7.35.4-8.99,3.58,1.05.15,2.06.27,3.05.45,6.69,1.22,10.23,6.46,8.62,13.06-1.6,6.56-5.53,11.15-12.18,12.97-1.79.49-1.63,1.06-.82,2.28,2.82,4.24,6.96,4.92,10.88,1.67,3.45-2.86,5.5-6.6,6.43-10.96.31-1.43.78-2.75,2.6-2.4,1.84.35,1.74,1.8,1.49,3.2-.99,5.5-3.82,9.93-7.97,13.56-.72.63-1.39,1.12-.95,2.23,1.14,2.89.94,5.81.11,8.73-.31,1.1-.36,1.66,1.16,1.37,4.45-.83,8.95-1.01,13.47-.54,4.25.44,8.4,1.32,12.36,2.96,1.1.46,1.83,1.24,1.36,2.58-.49,1.39-1.52,1.62-2.8,1.26-.25-.07-.5-.14-.74-.23-6.77-2.61-13.78-3.09-20.93-2.32-.98.11-1.97.2-2.91,1.2,1.5.58,2.74,1.07,3.99,1.54,6.03,2.26,11.6,5.28,16.26,9.81.94.91,1.53,2.01.43,3.21-1.09,1.2-2.17.75-3.21-.14-.49-.42-1-.82-1.49-1.23-4.52-3.85-9.68-6.57-15.21-8.64-4.63-1.73-9.41-1.93-14.28-1.59-6.88.48-13.79-.54-20.67.15-8.72.89-21.57,7.82-23.62,20.52-.3,1.89.2,3.1,1.84,3.98,11.39,6.09,23.43,9.68,36.44,9.58,2.97-.02,5.93-.03,8.9.01,1.32.02,2.27.63,2.26,2.08,0,1.35-.9,2.01-2.13,2.01-7.85-.01-15.7.57-23.49-1.23-6.91-1.6-13.7-3.5-20.3-6.61ZM449.88,425.72c-11,.37-20.93-3.04-30.11-8.83-5.14-3.24-9.01-7.65-11.3-13.35-1.9-4.71-2.67-9.64-3.09-14.68-.95-11.25.13-22.27,3.42-33.06,1.37-4.48,1.44-4.36-3.08-5.26-1.66-.33-2.27.2-2.86,1.61-2.27,5.41-4.79,10.71-7.58,15.86-4.85,8.96-9.38,18.07-13.18,27.52-4.12,10.22-7.56,20.69-10.82,31.21-1.01,3.26-1.04,3.25,1.69,5.38.4.31.77.69,1.08,1.09,3.43,4.45,3.46,9.25,1.4,14.23-1.48,3.57-4.21,5.94-7.54,7.72-.76.41-1.72.71-1.16,1.99,2.26,5.18,3.1,10.61,2.68,16.23-.09,1.26.52,1.57,1.62,1.51,1.74-.1,3.47-.21,5.21-.22,11.54-.06,23.08-.11,34.62-.1,1.53,0,2.11-.51,2.38-2.01,1.83-10.17,7.99-17.15,16.87-21.76,6.35-3.29,13.34-3.7,20.37-3.03,4.59.44,9.13.32,13.65-.61,4.32-.9,7.55-5.73,6.67-10.07-.26-1.27-.78-2.41-2.3-2.46-5.24-.16-8.87-2.71-11.07-7.38-.62-1.31-1.54-1.7-2.94-1.59-1.54.13-3.09.03-4.64.03ZM584.9,307.21c-.23,2.48-.27,4.49-.64,6.44-1.43,7.55-10.76,11.51-17.16,7.27-4.75-3.15-7.51-7.66-8.57-13.26-.13-.67.15-2.26-1.45-1.29-6.57,3.97-8.12,9.92-3.78,15.76,1.84,2.47,4.21,4.34,6.93,5.75.46.24.94.43,1.39.67,1.15.62,1.83,1.49,1.24,2.83-.61,1.39-1.75,1.38-2.93.87-3.66-1.59-6.88-3.81-9.34-6.99-1.01-1.31-1.84-1.55-3.11-.34-1.78,1.68-3.74,3.17-5.53,4.83-6,5.58-10.44,12.09-11.8,20.34-.54,3.29-.2,6.45,2.1,9.11.32.37.6.99,1.18.83.58-.16.53-.83.62-1.32.68-3.63,2.99-6.21,5.59-8.58.86-.79,1.89-.96,2.79-.14.97.88.9,1.95.07,2.92-.71.83-1.5,1.6-2.22,2.42-2.83,3.27-3.13,6.6-.94,10.32,1.46,2.46,3.26,4.64,5.52,6.4,1.58,1.23,3.24,2.38,5.22,2.85,2.8.67,4.93-1.29,4.34-3.94-.28-1.24-.27-2.37,1.16-2.86,1.42-.48,2.17.34,2.69,1.52.13.29.23.6.4.88,2.72,4.68,6.69,7.16,12.2,7.03,5.55-.14,9.67-2.4,11.74-7.78.21-.54.41-1.09.67-1.6.6-1.15,1.45-1.86,2.81-1.25,1.26.57,1.36,1.62.92,2.77-.46,1.2-.9,2.42-1.48,3.57-.62,1.22-.15,1.5,1.01,1.7,8.06,1.36,14.76-3.25,16.63-11.41,2.96-12.91.21-24.64-7.19-35.45-.72-1.06-1.25-1.26-2.21-.29-2.53,2.56-5.71,3.91-9.16,4.71-1.25.29-2.56.39-3.03-1.19-.48-1.64.56-2.34,1.96-2.72,1.81-.49,3.61-1.02,5.22-1.99,2.91-1.74,4.89-4.14,4.38-7.73-.73-5.15-4.15-8.47-8.25-11.68ZM572.83,270.79c.1-.47.18-.71.21-.95,2.22-18.09,2.9-36.23,1.37-54.4-.64-7.61-2.21-15.09-5.98-21.85-4.73-8.49-11.28-14.68-21.45-15.92-1.53-.19-2.35-1.12-2.18-2.64.19-1.67,1.4-1.95,2.86-1.76,10.11,1.34,17.41,6.93,22.9,15.21,5.48,8.26,7.4,17.63,8.23,27.28,1.74,20.19.7,40.31-2.12,60.35-.09.64-.27,1.27,0,1.9,1.32,3.05,2.64,6.09,3.96,9.15.59-.23.46-.76.56-1.16,3.01-12.04,4.77-24.26,5.48-36.64.58-10.04.24-20.1.55-30.15.26-8.7-.57-17.24-3.74-25.44-3.72-9.63-10-16.73-19.97-20.16-6.32-2.18-12.87-2.54-19.47-2.29-4.55.17-9,.25-11.82-4.28-.36-.58-1.02-.55-1.58-.48-.7.09-.58.74-.62,1.23-.08.96-.13,1.93-.23,2.89-.66,6.54-1.49,13.05-2.82,19.5-.11.52-.51,1.21.08,1.6.47.31.96-.23,1.41-.43,2.07-.91,4.17-1.73,6.39-2.14,8.43-1.55,15.84.36,21.37,7.14,3.72,4.55,4.09,10.27,3.79,15.84-.62,11.65-1.09,23.32-2.95,34.86-.54,3.34-.44,6.03,2.94,7.69.33.16.56.53.84.8,4.67,4.42,8.15,9.77,11.98,15.27ZM258.98,191.27c-.95,2.11-1.29,6.29-.76,9.01,1.47,7.68,8.34,13.56,16.2,13.85,1.29.05,2.66.09,2.59,1.81-.06,1.68-1.46,1.7-2.72,1.72-1.5.02-3-.13-4.37-.68-1.7-.68-2.55.16-3.24,1.46-.92,1.73-.14,3.13,1.01,4.37,1.99,2.15,4.51,3.45,7.32,4.1,6.18,1.43,12.39,1.25,18.61.25,3.94-.64,7.64-1.86,10.77-4.43,1.98-1.63,2.46-3.9,1.48-6.08-.59-1.31-1.38-1.85-2.89-1.26-3.5,1.35-7.24,1.8-10.86,2.74-1.03.27-2.01.12-2.37-1.03-.39-1.22.26-1.99,1.43-2.3,1.5-.39,3-.78,4.51-1.06,10.9-1.97,19.25-7.97,26.07-16.4.98-1.22,1.67-2.6,2.09-4.1,2.02-7.13-.48-13.05-5.06-18.33-2.94-3.39-6.46-4.59-10.89-2.64-5.44,2.4-11.16,3.97-17.08,4.74-1.08.14-2.14.48-3.18.81-3.96,1.25-5.24,3.75-4.01,7.75,2.29,7.44,11.44,10.33,18.03,5.7,1.96-1.38,3.66-3.05,5.36-4.72.77-.75,1.72-1.03,2.58-.22.86.81.68,1.77-.08,2.57-1.02,1.07-2.05,2.14-3.15,3.12-5.82,5.16-12.22,6.66-19.37,2.9-.9-.48-1.45-.17-2.01.44-2.14,2.33-4.19,4.72-4.9,7.95-.23,1.06-.91,1.73-2.1,1.49-1.13-.22-1.39-1.14-1.3-2.07.09-.88.36-1.77.71-2.59,1.15-2.7,2.95-4.97,4.92-7.11.36-.4,1.02-.73.53-1.44-.66-.98-1.34-1.95-2.13-3.08-.37,1.06-.62,1.86-.93,2.64-1.93,4.82-5.22,7.16-9.62,6.83-2.25-.17-4.2-1.14-6.06-2.35-1.88-1.22-3.44-2.84-5.14-4.34ZM555.95,212.56c0-1.8.12-3.62-.02-5.41-.36-4.55-1.91-8.53-5.81-11.28-6.68-4.7-16.26-4.01-22.83.88-1.19.89-1.71,2.2-1.97,3.65-1.12,6.23-1.53,12.53-2.13,18.82-.94,9.75-1.93,19.49-2.97,29.23-.17,1.58.16,1.97,1.71,1.44,3.18-1.09,6.44-1.84,9.78-2.25,6.31-.77,12.59-1.07,18.71,1.19,2.35.87,2.38.85,2.72-1.61,1.56-11.5,2.36-23.07,2.82-34.65ZM530.36,299.01c8.63,0,14.39-3.92,16.68-10.87.77-2.33,1.12-4.75,1.6-7.15.23-1.15-.3-1.94-1.07-2.72-4.48-4.49-11.27-5.82-17.14-3.21-4.87,2.17-8.79,5.78-13.09,8.81-.42.3-.7.72-.82,1.26-.94,4.22,2.44,10.92,6.39,12.62,2.6,1.12,5.38,1.12,7.46,1.26ZM263.2,164.97c-7.35.12-11.47,5.5-8.95,12.08,2.37,6.17,6.19,11.43,11.52,15.42,5.03,3.76,9.16,2.34,11.09-3.63.08-.24.14-.49.2-.74.53-2.13.02-3.74-1.8-5.24-4.9-4.04-8.08-9.18-8.53-15.63-.13-1.87-.76-2.37-2.38-2.26-.38.03-.77,0-1.16,0ZM270.26,166.75c0,4.72,4.03,11.67,8.07,14.07,1.04.62,1.53.58,1.89-.68.83-2.91,2.9-4.64,5.74-5.47,1.54-.45,3.1-.83,4.67-1.19.73-.17,1.3-.33.78-1.23-2.95-5.02-2.69-10.48-2.18-15.96.1-1.08-.13-1.61-1.19-2-8.66-3.12-17.77,3.24-17.77,12.45ZM292.38,160.75c.04,3.7.27,7.33,2.55,10.51.73,1.02,1.42,1.36,2.56.96,2.79-.98,5.6-1.91,8.39-2.9,2.23-.8,2.76-1.72,2.37-4.06-.18-1.09-.63-2.08-1.3-2.98-.85-1.13-1.68-2.28-2.47-3.46-.56-.84-.62-1.75.24-2.42.91-.71,1.9-.53,2.55.36,2.16,2.94,4.73,5.69,4.54,9.74-.08,1.83,1.49,1.33,2.38,1.43,1.25.14.73-.99.66-1.54-.54-4.29-1.42-8.52-3.04-12.53-2.03-5.01-7-7.11-12.06-5.24-5.42,2-7.46,5.36-7.38,12.12Z"/>
      <path class="cls-11" d="M508.82,256.22c-3.53,2.67-7.09,5.3-9.93,8.73-4.32,5.22-4.24,13.26-1.37,18.55,1.72,3.16,4.53,4.8,8.05,5.28.06,2.27-.41,4.49-.71,6.71-1.33,9.97-2.77,19.92-6.99,29.19-1.97,4.34-4.14,8.6-7.49,12.07-4.11,4.27-9.45,6.14-15.12,7.12-8.39,1.44-16.85.72-25.28.57-14.36-.26-28.42-2.97-42.48-5.58-12.53-2.33-25.15-4.17-37.62-6.79-6.63-1.4-13.21-2.87-18.88-6.89-3.52-2.49-6.65-5.29-8-9.58-2.06-6.54-1.79-13.28-1.09-19.92,1.43-13.62,5.01-26.83,8.44-40.04,3.76-14.47,6.88-29.07,9.09-43.85,1.47-9.87,2.71-19.78,3.98-29.68.18-1.39.63-2.02,2.06-1.69.5.11,1.04.08,1.53.23,8.12,2.49,16.27,4.9,24.34,7.54,4.65,1.52,9.12,3.58,13.89,4.69,13.26,3.09,26.74,4.79,40.3,5.87,13.82,1.1,27.69,1.01,41.54,1.26,8.9.16,17.62-.64,26.11-3.43,2.54-.84,2.57-.75,2.08,1.88-.87,4.62-1.45,9.29-1.97,13.96-1.09,9.79-1.63,19.64-2.9,29.42-.62,4.78-1.06,9.59-1.58,14.39ZM429.83,273.52c.04,1.26.47,2.51-.58,3.66-8.53,9.31-21.56,12.07-33.28,7.13-1.99-.84-2.8-2-2.62-4.1.28-3.41-1.16-6.28-3.13-8.9-.8-1.06-1.92-2.05-3.25-.93-1.19,1.01-.61,2.16.27,3.2,1.68,1.99,2.54,4.26,2.41,6.93-.15,3.06-1.75,4.29-4.71,3.48-.74-.2-1.47-.48-2.22-.63-.89-.18-1.7-.01-2.08.94-.4,1.01.01,1.75.89,2.28,2.13,1.29,4.44,1.72,6.86,1.13,2.95-.72,3.1-.66,2.91,2.45-.07,1.15-.28,2.3-.54,3.43-.53,2.32-1.21,4.61-1.69,6.94-1.36,6.54,1.57,11.85,7.74,13.58,4.89,1.36,9.82,1.25,14.58-.81,7.54-3.26,12.31-9.27,16.06-16.27,2.63-4.91,4.41-10.14,5.82-15.5.36-1.35.9-1.79,2.31-1.24,3.06,1.19,6.17,1.09,9.25-.05,1.36-.5,2.65-1.24,2.06-2.92-.58-1.66-2.02-1.3-3.24-.74-1.65.76-3.36.85-5.11.65-2.37-.26-4.71-2.03-5.04-3.9-.42-2.33,1.11-3.68,2.74-4.92,1.32-1,2.88-1.39,4.45-1.78,1.05-.26,1.76-.83,1.58-2.04-.17-1.2-1.02-1.59-2.08-1.59-4.06.01-11.38,4.58-10.36,10.53ZM452.06,205.08c-7.88-.06-15.05,6.92-15.98,15.56-1.01,9.37.66,18.48,2.72,27.54.85,3.73,1.24,2.82-2.24,4.24-.06.02-.13.02-.19.04-2.65.98-4.81,2.69-6.76,4.68-.81.83-.97,1.91-.15,2.8.89.97,1.88.5,2.76-.17.56-.43,1.09-.9,1.63-1.35,4.34-3.62,9.35-4.39,14.73-3.37,4.84.92,8.29,3.59,10.09,8.29.37.96,1.19,1.89,2.42,1.3,1.17-.56,1.28-1.63.86-2.82-1.14-3.2-3.06-5.82-5.84-7.74-1.26-.88-1.68-1.92-1.75-3.4-.28-6.39,1.58-12.32,3.69-18.22,1.77-4.95,4.08-9.73,4.46-15.11.48-6.74-3.67-12.42-10.46-12.25ZM409.94,214.43c-.14-2.13-.61-4.56-2.46-6.51-3.24-3.4-8.82-3.89-13.32-.99-5.12,3.29-7.43,8.23-7.64,14.16-.27,7.52.79,14.9,2.81,22.14.49,1.75.13,2.58-1.68,3.06-2.68.71-4.82,2.37-6.67,4.4-.64.71-.73,1.53-.04,2.26.71.75,1.51.59,2.26.03.36-.27.68-.59,1.01-.9,5.97-5.71,19.38-5.03,22.27,3.76.32.98,1.06,1.6,2.08,1.19,1.1-.44,1.1-1.42.75-2.46-.86-2.59-2.31-4.77-4.57-6.28-1.58-1.05-2.06-2.37-2.07-4.22-.05-5.67,1.7-10.9,3.65-16.09,1.61-4.27,3.52-8.45,3.63-13.56ZM372.08,193.34c-.24-.96.56-2.57-1.5-2.81-1.94-.23-2.67.81-2.87,2.53-.11.96-.35,1.9-.44,2.86-1.19,12.84-3.43,25.5-6.55,38-1.59,6.36-3.48,12.64-5.27,18.94-.42,1.49-.18,2.62,1.42,3.01,1.73.42,2.62-.58,3.06-2.16,1.65-5.87,3.4-11.71,4.95-17.61,2.25-8.53,3.84-17.21,5.19-25.92.86-5.53,1.73-11.07,2.02-16.84ZM344.62,296.2c-.1,11.54,3.8,19.64,12.12,25.47,3.35,2.35,7.04,3.97,11.18,4.32,1.41.12,2.16-.67,2.37-1.98.22-1.33-.5-2.02-1.74-2.34-1.68-.43-3.42-.75-4.99-1.43-10.04-4.35-15.56-14.11-14.47-25.01.58-5.8,2.06-11.36,3.8-16.88.45-1.42.24-2.65-1.26-3.18-1.54-.54-2.56.11-3.07,1.71-2.15,6.76-3.9,13.59-3.94,19.31ZM418.23,251.75c.24,4.3-1.35,7.81-3.85,10.99-1.17,1.49-2.6,1.8-4.27.97-1.09-.55-2.14-1.18-3.23-1.73-3.58-1.79-6.7-.78-8.62,2.74-.72,1.32-1.17,2.75-1.4,4.2-.89,5.62.73,11.97,8.62,12.64,7.33.62,12.64-3.11,17.1-8.4.7-.83.67-1.99-.3-2.77-.96-.78-1.81-.27-2.56.44-1.21,1.14-2.35,2.38-3.64,3.43-3.51,2.85-7.4,4.34-12,3.14-1.74-.45-2.86-1.51-3.32-3.16-.73-2.64-.5-5.24.85-7.67.82-1.48,2.02-1.91,3.57-1.12,1.26.65,2.48,1.38,3.77,1.95,3.16,1.39,6.19.66,8.3-2.05,2.53-3.25,4.24-6.89,4.65-11.04.15-1.54.26-3.1-.06-4.62-.21-1.01-.79-1.81-1.98-1.73-1.24.08-1.56.97-1.6,2.02-.03.64,0,1.29,0,1.78ZM455.76,337.61c8.22.25,15.65-1.62,22.75-4.86,4.57-2.09,8.67-4.97,12.35-8.4,1.27-1.18,1.27-2.58.04-3.43-1.15-.8-2.28-.62-3.3.37-2.18,2.1-4.64,3.86-7.25,5.36-11.15,6.37-23.01,8.13-35.53,5.13-1.6-.38-2.73.01-3.12,1.63-.38,1.57.55,2.33,2.01,2.72,4.07,1.07,8.19,1.69,12.05,1.49ZM500.24,252.54c-.09.97.77,1.96,2.2,2.05,1.53.1,2.25-1.13,2.42-2.5,1.04-8.42,2.02-16.84,3.04-25.26.19-1.55-.43-2.59-1.94-2.78-1.54-.2-2.37.77-2.58,2.24-.15,1.02-.2,2.05-.32,3.07-.91,7.53-1.84,15.05-2.83,23.18ZM363.9,267.11c-.03,4,2.74,6.94,6.6,6.98,3.91.04,6.85-2.78,6.94-6.65.09-3.96-2.9-7.06-6.81-7.07-3.69,0-6.69,3.01-6.72,6.74ZM465.72,275.71c-3.72-.08-6.97,3.03-7.04,6.72-.07,3.62,3.05,6.88,6.65,6.95,3.82.07,7-2.94,7.07-6.68.07-3.84-2.86-6.91-6.67-6.99ZM487.14,218.45c3.34-.03,5.74-2.57,5.66-5.98-.08-3.25-2.56-5.64-5.82-5.61-3.24.02-5.82,2.52-5.86,5.67-.04,3.3,2.65,5.95,6.02,5.92ZM496.9,299.3c-.94.12-1.74.48-2.02,1.62-.74,2.98-1.53,5.94-2.28,8.92-.28,1.11-.67,2.21-.43,3.4.21,1.08,1.02,1.49,1.94,1.5.94,0,1.95-.09,2.26-1.31.97-3.71,1.99-7.41,2.92-11.14.42-1.69-.63-2.97-2.39-3ZM403.34,321.99c1.61-.03,3.09-.14,4.4-.95.69-.43,1.14-1.07.87-1.96-.28-.92-.96-1.5-1.87-1.31-3.74.77-7.12-.13-10.41-1.86-.98-.52-2.05-.49-2.66.68-.64,1.23-.06,2.15,1.01,2.74,2.73,1.51,5.65,2.47,8.67,2.66ZM461.63,295.15c.03-2.38-1.39-3.85-3.75-3.87-1.94-.02-3.74,1.69-3.81,3.6-.08,2.28,1.49,3.94,3.77,4,2.19.05,3.77-1.5,3.79-3.73ZM364.89,277.13c-2.39-.02-3.85,1.31-3.88,3.53-.03,2.17,1.72,3.97,3.84,3.97,1.96,0,3.71-1.84,3.73-3.9.01-1.98-1.62-3.58-3.69-3.6ZM496.2,227.95c-.05-1.89-1.62-3.35-3.54-3.3-1.99.06-3.3,1.51-3.23,3.55.06,1.84,1.57,3.27,3.4,3.22,1.96-.05,3.43-1.56,3.38-3.47ZM374.37,282.74c1.75-.02,3.25-1.43,3.3-3.09.04-1.7-1.55-3.21-3.38-3.21-2.05,0-3.24,1.18-3.23,3.21,0,2.03,1.17,3.12,3.31,3.09ZM508.04,208.84c.14-2.05-1.16-3.58-3.11-3.66-1.94-.08-3.46,1.27-3.63,3.24-.16,1.8,1.41,3.51,3.29,3.6,1.84.09,3.33-1.28,3.45-3.18ZM467.54,291.99c-1.97,0-3.45,1.47-3.4,3.39.04,1.55,1.56,3.02,3.16,3.05,2.01.03,3.41-1.22,3.44-3.09.03-1.87-1.37-3.34-3.21-3.35ZM463.84,304.08c-.03-1.66-1.3-2.83-3.01-2.78-1.56.05-2.63,1.3-2.55,2.99.07,1.58,1.23,2.78,2.65,2.73,1.7-.05,2.94-1.31,2.91-2.94ZM371.79,289.27c-.02-1.69-1.09-2.74-2.78-2.73-1.62.01-2.73,1.19-2.68,2.85.05,1.62,1.22,2.68,2.91,2.62,1.57-.06,2.57-1.13,2.55-2.74Z"/>
      <path class="cls-12" d="M527.67,161.62c1.19-.81,2.35-1.55,3.47-2.37,1.19-.88,2.38-1.77,3.47-2.77.86-.78,1.06-1.76.23-2.74-.84-.99-1.81-.87-2.75-.2-1.04.75-2.01,1.61-3.04,2.38-9.72,7.24-19.49,6.27-29.16-.42-1.78-1.23-3.01-2.98-3.93-4.94-.55-1.18-1.42-2.01-2.74-1.43-1.44.63-1.3,1.89-.76,3.14.59,1.37,1.31,2.67,2.33,3.76.97,1.05,1.46,2.27,1.49,3.68.12,6.78-1.44,13.03-5.86,18.37-2.39,2.89-5.28,4.84-9.21,4.12-4.01-.74-6.36-3.47-7.67-7.15-.62-1.75-1.02-3.59-1.43-5.41-.38-1.66-1.32-2.65-3.04-2.69-4.83-.12-7.3-3.3-9.28-7.11-.47-.91-.27-1.75.51-2.44,1.07-.95,1.48-2.11.34-3.16-1.15-1.06-2.25-.39-3.2.55-4.79,4.74-10.56,6.67-17.25,6.17-1.79-.13-2.26-.81-1.72-2.45.24-.73.29-1.52.41-2.28.21-1.29-.09-2.44-1.5-2.7-1.42-.27-2.02.7-2.33,1.99-1.74,7.31-5.3,13.48-11.22,18.24-4.08,3.28-7.16,3.41-11.34.27-3.91-2.94-6.41-6.79-7.61-11.54-.4-1.57-.28-2.78,1.29-3.58.28-.14.55-.35.79-.55.98-.83,1.58-1.79.66-2.99-.92-1.19-1.99-.9-3.05-.14-2.99,2.14-5.98,4.28-9.49,5.53-6.75,2.4-13.2-.76-15.46-7.54-.26-.77-.11-1.37.28-2,.75-1.21,1.49-2.41,2.21-3.64.68-1.17.95-2.43-.41-3.21-1.34-.76-2.29,0-2.95,1.25-2.06,3.89-4.79,7.17-8.62,9.44-1.39.82-2.81,1.58-4.38,2.01-2.65.74-4.42-.06-5.42-2.61-.56-1.44-1.49-1.99-2.89-2.67-4.76-2.31-9.11-5.32-10.56-10.86-2.49-9.52-1.83-18.93,1.64-28.11,2.57-6.8,9.12-10.52,16.37-9.44,4.16.62,8.09,2.12,12.1,3.32,1.93.57,4,2,5.84.36,1.88-1.68.8-4.02.41-6.04-2.98-15.11,1.45-28.26,11.61-39.2,8.67-9.34,19.76-12.65,32.45-9.38,6.4,1.65,12.68,3.5,17.83,7.94,5.74,4.95,9.31,11.27,11.67,18.36.33.98.65,1.96,1,2.92.43,1.18.96,2.36,2.42,2.46,1.39.09,2.21-.84,2.88-1.94.9-1.49,1.75-3.02,2.77-4.41,3.49-4.75,8.29-7.59,13.99-8.58,12.4-2.17,24.24-.52,35.21,5.99.99.59,1.94,1.28,2.86,1.99,4.35,3.35,5.98,7.76,5.04,13.14-.33,1.9-.82,3.79-1.07,5.7-.37,2.84,1.01,4.01,3.79,3.3,2.67-.69,5.25-1.72,8.09-1.7,5.62.04,9.85,3.11,13.99,6.31,6.43,4.97,9.72,11.6,10.4,19.71,1.03,12.42-2,23.46-10.87,32.43-4.78,4.83-10.61,7.48-17.66,6.31-.61-.1-1.28-.1-1.91-.74ZM484.01,128.69c-.36.36-.75.7-1.09,1.08-2.12,2.35-2.53,5.58-1.06,8.42,1.39,2.68,4.45,4.33,7.34,3.96,3.18-.41,5.58-2.56,6.41-5.6,1.09-3.98-1.71-9.76-8.35-9.16-.02-.18-.12-.45-.04-.54.85-.95,1.32-1.92.44-3.11-.94-1.26-2.15-.92-3.34-.55-5.65,1.8-9.44,5.61-11.68,11.01-.48,1.16-.63,2.47.81,3.19,1.29.65,2.77-.06,3.33-1.64.97-2.72,2.88-4.7,5.01-6.5.61-.52,1.3-1.14,2.23-.56ZM403.17,124.48c-.07-12.4,5.65-21.11,16.97-25.73,9.62-3.92,18.52-2.67,26.54,4.04,2.45,2.05,4.14,4.72,5.75,7.46.95,1.63,2.71,1.7,3.53.25.52-.93.1-1.74-.33-2.55-5.6-10.45-14.35-15.37-26.17-15.19-14.62.22-27.07,10.47-29.61,24.57-.61,3.38-.72,6.79-.45,10.2.09,1.22.59,2.38,2.11,2.24,1.36-.13,1.69-1.2,1.68-2.41,0-.97,0-1.93,0-2.9ZM487.48,116.73c-8.98-.09-15.36,4.07-18.97,12.33-1.43,3.27-2.17,6.73-2.94,10.2-.3,1.36-.24,2.52,1.39,2.82,1.6.3,2.11-.73,2.4-2.09.82-3.85,1.84-7.63,3.7-11.15,1.62-3.06,3.78-5.67,7.08-6.81,7.38-2.56,14.36-1.8,20.55,3.28,3.16,2.6,5.13,6.07,6.78,9.75.54,1.21,1.37,2.24,2.82,1.62,1.43-.62,1.32-1.92.79-3.15-4.83-11.21-12.28-16.54-23.61-16.8ZM422.65,60.35c-5.48.03-9.94,4.49-9.93,9.96,0,5.42,4.53,9.9,10,9.9,5.49,0,9.87-4.41,9.88-9.97.01-5.49-4.45-9.92-9.95-9.89ZM390.81,124.67c.23,1.02,0,2.51,1.76,2.83,1.67.31,2.77-.72,2.79-2.81.02-2.58.11-5.13.87-7.63,2.3-7.57,6.16-14.09,12.54-18.99,2.52-1.93,5.32-3.35,8.07-4.87,1.06-.59,1.71-1.52,1.13-2.72-.58-1.19-1.65-1.57-2.94-1.03-.3.12-.58.27-.88.4-8.48,3.71-14.62,9.9-18.95,17.97-2.79,5.19-4.03,10.82-4.4,16.85ZM487.33,70.64c-.83.08-2.18.19-3.51.36-6.91.88-12.95,3.64-18.01,8.45-.97.92-1.07,2.08-.15,3.11.87.97,1.91.95,2.93.16.25-.2.48-.43.73-.64,5.41-4.71,11.74-7.17,18.88-7.09,5.5.06,10.63,1.73,15.21,4.85,1.22.83,2.33,1.17,3.34-.21.9-1.23.48-2.55-1.04-3.57-5.4-3.62-11.42-5.22-18.37-5.43ZM387.42,85.4c-.24,1.68.31,2.52,1.39,2.9,1.11.39,1.99-.1,2.64-1.06.38-.57.42-1.19.45-1.84.58-12.09,9.42-22.83,21.07-25.55,1.51-.35,2.86-.82,2.45-2.73-.42-1.95-1.98-1.73-3.41-1.48-3.08.54-5.96,1.8-8.55,3.43-9.86,6.19-15.34,15.11-16.03,26.35ZM348.95,126.35c-.21,1.62.11,3.41.44,5.17.83,4.36,2.7,8.3,5.27,11.89.91,1.27,2.26,1.71,3.53.76,1.3-.97.85-2.24-.02-3.4-1-1.34-1.98-2.69-2.64-4.25-3.85-9.13-2.92-17.69,3.02-25.66,1.18-1.59,1.15-3.05-.15-3.84-1.57-.96-2.5.11-3.34,1.25-3.93,5.31-6.33,11.15-6.13,18.08ZM427.74,128.33c-4.28.05-8.47,3.99-12.03,8.87-.58.79-.44,1.75.41,2.41.81.63,1.71.72,2.46-.01,1.1-1.08,2.07-2.29,3.14-3.4,3.49-3.62,7.73-4.76,12.53-3.5,3.22.85,5.12,3.05,5.64,6.39.22,1.37-.04,2.69-.13,4.04-.09,1.24.32,2.25,1.65,2.42,1.35.18,1.98-.77,2.21-1.94.51-2.57.46-5.12-.49-7.6-1.87-4.89-6.66-7.69-15.4-7.69ZM367.42,133.07c4.65.08,8.56-3.68,8.65-8.32.09-4.63-3.89-8.7-8.51-8.71-4.6-.01-8.47,3.84-8.51,8.47-.04,4.68,3.67,8.48,8.37,8.55ZM536.97,127.95c-.02.26-.04.51-.05.77-.02,1.23.37,2.2,1.77,2.29,1.37.09,1.98-.77,2.11-2,.08-.76.11-1.55.04-2.31-.91-9.59-11.23-15.22-19.82-10.81-2.5,1.28-4.27,3.26-5.39,5.83-.44,1.01-.3,1.97.68,2.52.9.5,1.88.45,2.59-.48.27-.36.49-.75.74-1.13,2.49-3.75,6.21-5.08,10.58-3.76,4.09,1.23,6.78,4.84,6.76,9.08ZM431.73,121.69c-6.71.06-12.12,2.15-16.42,6.84-1.02,1.11-1.26,2.29-.16,3.42,1.1,1.12,2.24.62,3.26-.22.45-.37.81-.83,1.24-1.21,3.24-2.88,6.95-4.6,11.36-4.53,3.73.05,7.07,1.22,10.03,3.48,1.28.98,2.62,1.27,3.75-.12,1.3-1.6-.15-2.52-1.16-3.29-3.63-2.76-7.74-4.27-11.9-4.36ZM506.42,111.35c4-.04,7.28-3.39,7.18-7.35-.1-3.78-3.37-7.01-7.14-7.03-3.9-.03-7.36,3.42-7.3,7.28.06,3.86,3.41,7.14,7.26,7.1ZM411.31,160.37c-1.57.05-2.44,1.13-2.38,2.8.17,4.3,4.84,7.78,9.11,6.99,4.41-.82,7.31-3.58,9.72-7.05.96-1.39-.09-3.33-1.74-3.31-1.16,0-1.84.88-2.45,1.7-1.08,1.48-2.3,2.79-3.9,3.69-3.08,1.73-5.86.45-6.43-3-.2-1.25-.84-1.82-1.93-1.82ZM492.14,103.54c.24,3.59,1.32,6.56,3.73,8.94,1.33,1.31,2.75,1.42,3.72.29,1.12-1.29.5-2.27-.52-3.32-3.9-4-3.31-9.54,1.37-12.53,1.36-.87,1.82-1.85.96-3.18-.87-1.35-2.12-1.3-3.37-.48-3.82,2.48-5.5,6.15-5.89,10.28ZM475.53,100.41c1.14,0,1.81-.57,2.15-1.48.33-.88.02-1.64-.69-2.24-.77-.66-1.72-.83-2.68-.94-6.95-.81-11.93,4.46-12.2,10.03-.09,1.81.57,3.04,2.05,3.12,1.8.1,2.26-1.13,2.4-2.61.41-4.48,3.5-6.86,7.94-6.09.38.07.75.15,1.03.21ZM400.34,80.22c-3.52-.08-6.49,2.76-6.54,6.24-.04,3.41,2.75,6.3,6.19,6.42,3.46.12,6.46-2.75,6.54-6.27.08-3.39-2.76-6.32-6.19-6.39ZM489.51,171.25c0-3.46-2.66-6.14-6.08-6.14-3.41,0-6.1,2.73-6.08,6.15.02,3.4,2.78,6.1,6.18,6.05,3.32-.05,5.98-2.75,5.97-6.06ZM428.88,108.45c-3.4-.13-6.26,2.5-6.38,5.88-.12,3.32,2.64,6.24,5.98,6.32,3.29.08,6.22-2.71,6.31-6.02.09-3.24-2.61-6.05-5.91-6.18ZM510.72,157.29c.79-.13,1.68-.23,2.56-.41,1.94-.41,2.79-1.37,2.39-2.81-.47-1.67-1.69-1.76-3.21-1.51-4.06.67-6.64-.64-8.83-4.27-.7-1.16-1.65-1.94-3.01-1.14-1.33.79-1.44,2.01-.75,3.35,2.24,4.4,6.12,6.18,10.86,6.79ZM477.37,83.33c-.02,3.35,2.64,6.05,5.96,6.05,3.19,0,5.93-2.69,5.99-5.87.06-3.29-2.62-6.1-5.9-6.17-3.23-.07-6.03,2.7-6.05,6ZM540.33,157.7s.44,0,.78-.14c4.61-2.05,8.16-5.3,10.63-9.69.55-.98.1-1.92-.78-2.51-1.06-.71-2.21-.56-2.92.47-2.42,3.52-5.54,6.22-9.29,8.21-.95.51-1.16,1.32-.84,2.3.33.98,1.02,1.44,2.42,1.36ZM473.94,161.61c1.03,0,2.05.01,3.04-.35,1.34-.48,2.71-1.03,2.11-2.8-.53-1.56-1.83-1.76-3.33-1.35-3.17.88-5.33-.21-6.48-3.38-.52-1.44-1.24-2.28-2.82-1.72-1.55.55-1.61,1.83-1.29,3.19.93,3.87,4.38,6.39,8.75,6.4ZM391.99,158.46c1.28.12,2.43-.33,3.57-.75,1.09-.4,2.1-1.11,1.61-2.41-.47-1.24-1.42-2.25-3-1.63-2.9,1.14-4.97-.07-6.68-2.29-.76-.99-1.53-1.84-2.85-.91-1.31.93-1.59,2.12-.72,3.51,1.86,3,4.76,4.12,8.07,4.48ZM546.95,131.78c-2.83-.01-5.12,2.26-5.17,5.12-.04,2.88,2.33,5.28,5.25,5.29,2.8,0,5.11-2.31,5.15-5.17.04-2.96-2.23-5.23-5.23-5.24ZM391.49,144.57c.02,2.79,2.29,5.01,5.07,4.96,2.68-.05,4.93-2.29,4.96-4.93.03-2.86-2.29-5.18-5.14-5.12-2.86.06-4.92,2.2-4.9,5.09ZM473.77,101.43c-2.59-.03-4.71,1.98-4.79,4.55-.08,2.46,2.1,4.72,4.6,4.78,2.56.06,4.67-2,4.71-4.59.04-2.68-1.88-4.71-4.51-4.74ZM442.19,82.92c.04,2.55,2.2,4.68,4.71,4.62,2.51-.05,4.64-2.28,4.58-4.78-.06-2.56-2.2-4.64-4.74-4.6-2.54.04-4.6,2.19-4.56,4.76ZM524.71,147.95c.08-2.15-1.51-3.84-3.63-3.88-2.15-.04-3.82,1.56-3.85,3.69-.03,2.08,1.47,3.67,3.56,3.78,2.14.11,3.85-1.46,3.93-3.59ZM545.13,111.26c-.02-1.84-1.5-3.26-3.36-3.23-1.78.04-3.18,1.42-3.21,3.18-.03,1.9,1.33,3.26,3.26,3.28,1.9.02,3.33-1.38,3.31-3.24ZM530.97,127.72c0-1.67-1.5-3.19-3.18-3.22-1.69-.02-3.2,1.43-3.24,3.14-.04,1.83,1.42,3.3,3.26,3.29,1.68,0,3.16-1.51,3.16-3.22ZM450.04,129.66c-.05,1.75,1.35,3.22,3.12,3.27,1.77.05,3.26-1.35,3.3-3.08.04-1.77-1.34-3.2-3.11-3.24-1.83-.04-3.25,1.27-3.3,3.05Z"/>
      <path class="cls-7" d="M330.77,454.43c3.13,1.44,4.66,3.85,6.25,6.18.44.64.77,1.35,1.22,1.97.71.98,1.63,1.52,2.82.83,1.29-.74,1.3-1.88.67-3.01-2.18-3.93-4.76-7.51-8.74-9.84-.28-.16-.57-.31-.82-.51-.39-.3-1.07-.49-.86-1.12.21-.63.82-.98,1.44-1.19.64-.21.94.28,1.22.71.45.7.84,1.45,1.32,2.13.76,1.07,1.78,1.57,3,.83,1.25-.77,1.16-1.94.48-3.04-1.28-2.1-2.29-4.31-3.07-6.65-1.43-4.31-.42-7.86,3.05-10.73.74-.61,1.5-1.24,2.33-1.72,1.04-.6,2.27-1.66,3.33-1.05.79.46.04,1.9,0,2.91-.08,2.33.05,4.65.74,6.89,2.48,8.05,13.4,8.1,17.85,3.77,1.88-1.82,3.43-3.88,4.53-6.21.78-1.66,1.46-1.34,2.52-.37,3.33,3.08,3.44,8.78.09,12.83-3.92,4.73-9.08,5.46-14.74,4.3-.82-.17-1.61-.45-2.43-.62-1.27-.25-2.37-.03-2.74,1.41-.34,1.31.4,2.08,1.55,2.5,2.19.81,4.44,1.39,6.8,1.28,2.39-.11,3.95.99,4.83,3.11,2.96,7.11,2.52,14.22-.07,21.31-.44,1.21-1.02,1.7-2.14.42-4.44-5.12-10.4-6.62-16.84-6.86-1.24-.05-2.18.46-2.31,1.81-.13,1.32.62,2.03,1.89,2.23,2.16.35,4.36.42,6.49.97,3.44.89,6.25,2.68,8.33,5.58.53.75,1.05,1.5.23,2.42-.86.97-1.59.38-2.36-.13-5.34-3.54-11.46-4.34-17.59-4.37-9.5-.04-18.18-2.58-26.3-7.34-.28-.16-.55-.33-.84-.48-1.18-.62-2.39-.94-3.24.41-.9,1.44-.08,2.45,1.14,3.18,8.22,4.88,16.93,8.12,26.64,8.24,4.77.06,9.53.42,14.1,2.03.55.19,1.1.38,1.61.65.49.26,1.24.36,1.28,1.02.04.69-.71.84-1.2,1.1-7.35,4.02-15.12,5.45-23.51,4.64-6.99-.68-13.98-.92-20.82-2.84-16.26-4.56-29.67-13.51-40.81-26.05-7.12-8.02-13.07-16.75-16.45-27.06-2.44-7.42-3.25-15.09-3.95-22.8-.61-6.65-.48-13.25,1.38-19.75,1.7-5.94,6.7-7.44,11.39-3.39,2.74,2.37,4.38,5.34,5.24,8.82,1.74,7.02,2.52,14.21,3.82,21.3,1.93,10.54,4.91,20.69,10.91,29.73,1.36,2.04,2.81,4.01,4.41,5.87.91,1.05,1.96,1.57,3.18.54,1.22-1.03.85-2.2-.02-3.24-8.73-10.37-12.63-22.72-14.77-35.82-.98-5.98-1.97-11.96-3.09-17.91-.98-5.23-3.38-9.7-7.65-13.04-2.15-1.68-4.5-2.74-7.28-2.69-.48.01-1.21.27-1.33-.36-.08-.38.36-.93.68-1.31,2.4-2.87,6.99-3.52,10.62-1.44,3.78,2.17,5.91,5.65,7.31,9.65.94,2.69,1.32,5.51,1.69,8.32.13,1.02.26,2.05.47,3.06.24,1.16.99,1.84,2.19,1.73,1.22-.11,1.92-.96,1.81-2.12-.65-6.7-1.47-13.36-5.63-19.02-2.36-3.22-5.39-5.5-9.26-6.62-.6-.17-1.18-.38-2.15-.69,4.03-2.42,7.98-3.96,12.34-4.22,13.89-.84,23.88,5.79,29.42,19.21,3.26,7.91,3.97,16.2,4.38,24.6.29,5.93.81,11.84,2.29,17.61,1.58,6.19,5.28,10.76,11.2,13.21,3.85,1.59,6.08,4.39,7.38,8.15.74,2.14,1.26,4.33,1.65,6.56.23,1.33.77,2.41,2.38,2.18,1.72-.25,1.92-1.54,1.73-2.91-.45-3.18-1.52-6.22-2.62-9.68ZM308.43,469.87c1.11.05,1.84-.41,2.14-1.39.39-1.27-.26-2.1-1.31-2.69-4.4-2.48-7.99-5.85-10.88-9.98-3.63-5.18-5.91-10.99-7.98-16.9-.5-1.43-1.26-2.76-3.07-2.07-1.72.66-1.3,2.12-.87,3.46,1.09,3.38,2.31,6.71,3.82,9.91,3.44,7.28,8.09,13.61,14.91,18.14,1.02.68,2.09,1.27,3.24,1.52Z"/>
      <path class="cls-9" d="M508.82,256.22c.52-4.8.95-9.61,1.58-14.39,1.28-9.78,1.81-19.62,2.9-29.42.52-4.67,1.1-9.34,1.97-13.96.49-2.63.46-2.72-2.08-1.88-8.49,2.79-17.21,3.59-26.11,3.43-13.85-.25-27.72-.16-41.54-1.26-13.56-1.08-27.03-2.77-40.3-5.87-4.78-1.11-9.25-3.18-13.89-4.69-8.07-2.64-16.22-5.05-24.34-7.54-.49-.15-1.03-.11-1.53-.23-1.44-.32-1.89.31-2.06,1.69-1.27,9.9-2.51,19.81-3.98,29.68-2.2,14.78-5.33,29.38-9.09,43.85-3.43,13.21-7.01,26.42-8.44,40.04-.7,6.64-.97,13.38,1.09,19.92,1.35,4.29,4.48,7.09,8,9.58,5.67,4.01,12.25,5.49,18.88,6.89,12.48,2.63,25.09,4.46,37.62,6.79,14.06,2.61,28.12,5.32,42.48,5.58,8.43.15,16.89.88,25.28-.57,5.67-.97,11.01-2.84,15.12-7.12,3.34-3.47,5.51-7.74,7.49-12.07,4.22-9.27,5.65-19.23,6.99-29.19.3-2.23.77-4.44.71-6.71,2.24-.18,4.44-.6,6.84-1.73-.35,3.38-.65,6.38-.97,9.37-1.1,10.13-2.72,20.17-5.87,29.9-1.86,5.74-4.69,11.01-8.11,15.97-3.97,5.75-9.93,8.17-16.41,9.66-5.9,1.35-11.91,1.26-17.9,1.19-10.7-.12-21.39-.57-32.01-1.99-8.11-1.08-16.11-2.81-24.17-4.21-11.94-2.06-23.89-4.06-35.79-6.31-6.82-1.29-13.72-2.37-20.24-4.92-4.07-1.59-7.68-3.91-10.9-6.84-3.85-3.5-5.37-8.01-5.82-13.07-.84-9.48.35-18.77,2.12-28.05,2.94-15.39,7.44-30.4,10.89-45.66,4.21-18.62,7.31-37.42,9.53-56.38.92-7.87,2.15-15.7,3.51-23.5.23-1.3.61-1.63,1.99-1.24,3.23.92,6.07-.46,8.82-1.94,1.24-.67,2.45-1.45,3.55-2.33,1.16-.93,1.77-.9,2.57.52,3.38,6.04,8.49,8.99,15.52,8.15,2.26-.27,4.44-.95,6.39-2.08,1.52-.87,1.89-.39,2.27,1.08,1.51,5.81,4.93,10.28,9.88,13.6,4.43,2.98,9.18,3,13.54-.07,4.56-3.2,8.07-7.38,10.76-12.23.56-1.01,1.05-1.33,2.22-1.15,6.02.94,11.83.31,17.18-2.82,1.15-.67,1.44.07,1.84.83,1.7,3.31,3.92,6.4,7.6,7.28,3.37.8,4.37,2.63,5.19,5.7,2.02,7.55,8.98,11.94,15.77,10.46,3.73-.81,6.46-3.1,8.69-6.05,3.85-5.09,5.69-10.94,6.15-17.23.13-1.71.5-1.84,2.01-1.14,5.89,2.75,11.97,4.35,18.54,2.78,1.77-.43,3.37.67,5,1.23.86.3.43,1.25.39,1.9-.53,7.92-1.74,15.76-3.26,23.54-2.15,11.03-3.08,22.2-4.06,33.38-.79,8.99-1.87,17.94-3.01,26.89-.09.68-.25,1.18-.92,1.54-2.04,1.1-4.04,2.27-6.05,3.42ZM372.73,172.63c.02,3.72,2.99,6.67,6.64,6.59,3.49-.08,6.38-2.99,6.41-6.46.04-3.7-2.9-6.68-6.57-6.66-3.65.02-6.49,2.89-6.48,6.53ZM504.31,188.29c.03-2.75-2.26-5.07-5.01-5.07-2.76,0-5.03,2.27-5.04,5.03,0,2.82,2.17,5,5,5.02,2.81.01,5.01-2.16,5.04-4.98ZM448.87,171.31c.03-2.86-2.06-5.07-4.87-5.14-2.71-.07-5.11,2.22-5.16,4.93-.05,2.77,2.17,5.06,4.94,5.11,2.86.04,5.06-2.07,5.08-4.89ZM419.25,183.31c-2.49.01-4.55,2.06-4.56,4.54-.01,2.65,1.97,4.73,4.53,4.75,2.51.02,4.73-2.16,4.72-4.64,0-2.57-2.12-4.67-4.69-4.65ZM508.35,174.88c2.07.05,3.85-1.61,3.94-3.67.1-2.13-1.65-3.95-3.82-3.97-2.07-.02-3.8,1.67-3.83,3.75-.03,2.08,1.65,3.85,3.71,3.89ZM469.23,190.5c0-2.08-1.75-3.84-3.8-3.82-2.05.01-3.85,1.83-3.79,3.84.06,2.08,1.81,3.73,3.91,3.69,2.01-.04,3.68-1.73,3.68-3.71ZM516.3,181.79c-1.67.03-3.19,1.59-3.18,3.28.01,1.72,1.51,3.18,3.24,3.16,1.73-.02,3.21-1.52,3.19-3.23-.02-1.66-1.62-3.24-3.25-3.21ZM398.26,174.14c-1.85,0-3.18,1.31-3.2,3.13-.02,1.75,1.41,3.19,3.18,3.2,1.75,0,3.19-1.42,3.2-3.18,0-1.79-1.37-3.16-3.18-3.16ZM448.03,184.63c.04-1.74-1.38-3.15-3.19-3.18-1.79-.02-3.22,1.36-3.23,3.13-.01,1.72,1.47,3.23,3.17,3.23,1.73,0,3.21-1.44,3.25-3.18ZM463.08,180.16c1.83,0,3.22-1.34,3.24-3.11.02-1.76-1.39-3.16-3.18-3.17-1.81-.01-3.19,1.33-3.21,3.12-.02,1.82,1.33,3.17,3.15,3.16Z"/>
      <path class="cls-7" d="M421.16,482.46c6.6,3.11,13.39,5.01,20.3,6.61,7.78,1.8,15.64,1.22,23.49,1.23,1.24,0,2.13-.66,2.13-2.01,0-1.46-.94-2.07-2.26-2.08-2.96-.04-5.93-.04-8.9-.01-13.01.1-25.05-3.49-36.44-9.58-1.64-.88-2.15-2.09-1.84-3.98,2.05-12.7,14.9-19.63,23.62-20.52,6.88-.7,13.79.32,20.67-.15,4.88-.34,9.65-.14,14.28,1.59,5.53,2.07,10.69,4.79,15.21,8.64.49.42,1,.81,1.49,1.23,1.04.89,2.12,1.34,3.21.14,1.1-1.21.51-2.3-.43-3.21-4.66-4.52-10.23-7.55-16.26-9.81-1.25-.47-2.5-.96-3.99-1.54.94-1,1.93-1.1,2.91-1.2,7.15-.77,14.15-.29,20.93,2.32.24.09.49.16.74.23,1.28.36,2.31.13,2.8-1.26.48-1.34-.26-2.13-1.36-2.58-3.96-1.64-8.11-2.52-12.36-2.96-4.52-.47-9.02-.29-13.47.54-1.53.29-1.48-.27-1.16-1.37.83-2.92,1.03-5.84-.11-8.73-.44-1.1.23-1.6.95-2.23,4.15-3.63,6.98-8.06,7.97-13.56.25-1.41.35-2.85-1.49-3.2-1.81-.35-2.29.97-2.6,2.4-.93,4.36-2.98,8.09-6.43,10.96-3.92,3.25-8.07,2.57-10.88-1.67-.82-1.23-.97-1.79.82-2.28,6.65-1.81,10.58-6.4,12.18-12.97,1.61-6.6-1.93-11.84-8.62-13.06-1-.18-2-.3-3.05-.45,1.64-3.18,5.53-4.73,8.99-3.58,4.63,1.54,7.65,4.62,8.73,9.46.11.5.25,1,.44,1.48.39.96,1.13,1.37,2.16,1.19,1.12-.19,1.75-.91,1.68-2.01-.08-1.28-.36-2.55-.56-3.82-.21-1.31.23-2.22,1.45-2.83,5.01-2.5,10.31-3.58,15.89-3.46,1.18.03,1.86.75,2.48,1.61,3.03,4.24,3.58,9.16,3.91,14.14.05.71,0,1.42.02,2.13.04,1.23.54,2.18,1.87,2.27,1.44.1,2.07-.85,2.22-2.15.3-2.59-.08-5.15-.44-7.7-.34-2.47-1.03-4.86-1.8-7.45,2.1.51,3.17,1.91,4.25,3.21,5,6.02,7.16,13.07,7.14,20.77-.04,25.51-9.67,46.91-27.62,64.87-6.41,6.42-14.21,9.05-22.84,10.09-5.95.72-11.96,1.42-17.92.57-9.21-1.32-17.73-4.85-26.06-8.87-2.11-1.02-4.02-2.3-5.57-4.08-.24-.28-.57-.53-.47-1.3ZM517.12,431.73c0-1.19-.31-2.2-1.7-2.35-1.4-.15-2.17.6-2.39,1.95-.06.38-.1.77-.15,1.15-.6,4.48-1.46,8.92-3.05,13.15-4.77,12.72-11.35,24.13-23.3,31.57-1.09.68-1.38,1.73-.74,2.85.67,1.17,1.77,1.24,2.86.67,1.14-.6,2.25-1.27,3.29-2.02,7.24-5.18,12.31-12.21,16.61-19.85,4.75-8.42,7.45-17.51,8.57-27.12Z"/>
      <path class="cls-7" d="M584.9,307.21c4.11,3.21,7.53,6.53,8.25,11.68.51,3.59-1.47,5.99-4.38,7.73-1.62.97-3.42,1.5-5.22,1.99-1.4.38-2.44,1.09-1.96,2.72.47,1.58,1.78,1.47,3.03,1.19,3.45-.8,6.63-2.15,9.16-4.71.96-.97,1.48-.76,2.21.29,7.4,10.81,10.15,22.53,7.19,35.45-1.87,8.15-8.57,12.76-16.63,11.41-1.16-.2-1.63-.48-1.01-1.7.58-1.14,1.02-2.37,1.48-3.57.44-1.15.35-2.2-.92-2.77-1.36-.61-2.21.1-2.81,1.25-.27.51-.47,1.06-.67,1.6-2.07,5.38-6.18,7.64-11.74,7.78-5.51.13-9.48-2.35-12.2-7.03-.16-.28-.27-.59-.4-.88-.52-1.18-1.27-2-2.69-1.52-1.43.49-1.44,1.62-1.16,2.86.6,2.65-1.54,4.61-4.34,3.94-1.98-.48-3.64-1.62-5.22-2.85-2.27-1.76-4.07-3.94-5.52-6.4-2.19-3.71-1.89-7.05.94-10.32.72-.83,1.51-1.59,2.22-2.42.83-.97.89-2.04-.07-2.92-.9-.82-1.93-.65-2.79.14-2.6,2.38-4.91,4.95-5.59,8.58-.09.49-.04,1.16-.62,1.32-.58.16-.86-.47-1.18-.83-2.29-2.66-2.64-5.82-2.1-9.11,1.37-8.25,5.81-14.77,11.8-20.34,1.79-1.67,3.75-3.16,5.53-4.83,1.28-1.2,2.1-.97,3.11.34,2.45,3.18,5.67,5.4,9.34,6.99,1.18.51,2.32.52,2.93-.87.59-1.34-.09-2.22-1.24-2.83-.45-.24-.93-.44-1.39-.67-2.72-1.42-5.09-3.28-6.93-5.75-4.34-5.84-2.79-11.79,3.78-15.76,1.6-.97,1.32.62,1.45,1.29,1.05,5.6,3.81,10.11,8.57,13.26,6.4,4.24,15.73.28,17.16-7.27.37-1.95.4-3.96.64-6.44ZM573.05,364.74c3.74.01,6.96,0,10.16-.47,4.85-.72,9.44-2.1,13.27-5.33,1.12-.94,2.24-2.08.96-3.58-1.21-1.42-2.42-.54-3.52.36-2.43,2.02-5.24,3.26-8.3,3.93-5.65,1.25-11.37,1.25-17.11.91-5.66-.33-11.26-1.25-16.9-1.78-1.27-.12-2.57-.04-2.75,1.65-.18,1.73.99,2.19,2.41,2.35,7.42.83,14.8,2.16,21.78,1.96Z"/>
      <path class="cls-10" d="M572.83,270.79c-3.83-5.5-7.31-10.85-11.98-15.27-.28-.27-.51-.63-.84-.8-3.38-1.66-3.48-4.35-2.94-7.69,1.86-11.53,2.33-23.21,2.95-34.86.3-5.57-.07-11.28-3.79-15.84-5.53-6.78-12.94-8.7-21.37-7.14-2.22.41-4.33,1.23-6.39,2.14-.45.2-.94.74-1.41.43-.59-.39-.19-1.08-.08-1.6,1.32-6.45,2.15-12.96,2.82-19.5.1-.96.14-1.93.23-2.89.04-.49-.07-1.14.62-1.23.56-.07,1.21-.1,1.58.48,2.82,4.53,7.27,4.45,11.82,4.28,6.6-.25,13.15.11,19.47,2.29,9.97,3.43,16.25,10.53,19.97,20.16,3.17,8.2,4.01,16.74,3.74,25.44-.31,10.05.03,20.11-.55,30.15-.71,12.38-2.47,24.6-5.48,36.64-.1.4.03.94-.56,1.16-1.32-3.06-2.65-6.1-3.96-9.15-.27-.63-.09-1.27,0-1.9,2.82-20.04,3.86-40.15,2.12-60.35-.83-9.65-2.75-19.02-8.23-27.28-5.49-8.27-12.79-13.87-22.9-15.21-1.45-.19-2.66.08-2.86,1.76-.18,1.52.65,2.45,2.18,2.64,10.17,1.24,16.72,7.44,21.45,15.92,3.77,6.76,5.34,14.24,5.98,21.85,1.53,18.17.84,36.31-1.37,54.4-.03.24-.1.48-.21.95ZM584.05,197.73c-.17-.59-.33-1.34-.61-2.06-1.89-4.97-4.46-9.57-8.19-13.39-2.46-2.53-5.2-4.79-8.39-6.41-1.19-.61-2.13-.28-2.79.81-.65,1.06-.36,1.97.6,2.69.31.23.63.44.96.65,5.61,3.68,9.96,8.46,12.67,14.65.59,1.35,1.05,2.76,1.68,4.09.53,1.11,1.56,1.25,2.65.99.95-.23,1.31-.95,1.41-2.03Z"/>
      <path class="cls-7" d="M258.98,191.27c1.7,1.5,3.26,3.12,5.14,4.34,1.86,1.21,3.81,2.18,6.06,2.35,4.4.33,7.69-2.01,9.62-6.83.31-.77.56-1.57.93-2.64.78,1.13,1.46,2.1,2.13,3.08.49.71-.17,1.05-.53,1.44-1.97,2.14-3.77,4.41-4.92,7.11-.35.82-.62,1.71-.71,2.59-.09.92.17,1.85,1.3,2.07,1.19.24,1.86-.43,2.1-1.49.71-3.23,2.76-5.62,4.9-7.95.56-.61,1.11-.92,2.01-.44,7.15,3.77,13.55,2.26,19.37-2.9,1.11-.98,2.13-2.05,3.15-3.12.77-.8.94-1.76.08-2.57-.86-.82-1.81-.54-2.58.22-1.7,1.67-3.4,3.34-5.36,4.72-6.59,4.63-15.74,1.74-18.03-5.7-1.23-3.99.06-6.5,4.01-7.75,1.04-.33,2.1-.67,3.18-.81,5.92-.76,11.64-2.34,17.08-4.74,4.43-1.95,7.95-.75,10.89,2.64,4.58,5.27,7.07,11.2,5.06,18.33-.43,1.5-1.11,2.89-2.09,4.1-6.82,8.43-15.17,14.44-26.07,16.4-1.52.27-3.02.66-4.51,1.06-1.17.3-1.82,1.07-1.43,2.3.36,1.15,1.33,1.29,2.37,1.03,3.61-.94,7.36-1.38,10.86-2.74,1.5-.58,2.29-.05,2.89,1.26.98,2.18.5,4.45-1.48,6.08-3.13,2.57-6.83,3.79-10.77,4.43-6.22,1-12.44,1.18-18.61-.25-2.81-.65-5.33-1.95-7.32-4.1-1.14-1.24-1.93-2.64-1.01-4.37.69-1.3,1.54-2.14,3.24-1.46,1.37.55,2.87.7,4.37.68,1.26-.02,2.66-.04,2.72-1.72.06-1.72-1.3-1.76-2.59-1.81-7.86-.29-14.73-6.17-16.2-13.85-.52-2.72-.19-6.9.76-9.01ZM285.28,218.69c1.09-.04,1.94-.44,2.1-1.59.15-1.09-.56-1.71-1.53-1.89-1.39-.25-2.8-.42-4.2-.48-.93-.04-1.58.54-1.68,1.52-.1.97.36,1.64,1.33,1.81,1.33.24,2.66.42,3.99.62Z"/>
      <path class="cls-10" d="M538.98,326.79c-.6.79-1.43.69-2.28.67-3.75-.08-7.42-.84-11.11-1.37-4.92-.7-9.84-1.19-14.75.25-1.84.54-.82-.96-.69-1.44,1.89-6.84,3.29-13.78,4.26-20.81.32-2.35.56-4.7.85-7.23,6.45,6.79,14.24,7.25,22.36,5.13,8.74-2.28,12.97-8.69,14.3-17.76,2.2,3.12,3.4,6.11,4.41,9.21.18.55.36,1.11.48,1.67.36,1.76,1.09,3.56.95,5.29-.17,2.06-2.62,2.1-3.98,3.14-3.39,2.58-6.21,5.45-6.8,9.89-.14,1.05-.77,1.3-1.68,1.49-5.34,1.09-10.74,1.32-16.16,1.24-2.32-.03-4.64-.14-6.95-.26-1.55-.08-2.8.31-2.85,2.07-.04,1.66,1.04,2.34,2.63,2.4,7.86.3,15.72.52,23.51-.96.4-.08.85-.37,1.39.06-.33,1.09-1.1,1.78-2.12,2.26-2.63,0-5.26.03-7.89-.01-1.35-.02-2.59.24-2.79,1.72-.21,1.6.87,2.41,2.35,2.77.85.21,1.83-.13,2.57.58Z"/>
      <path class="cls-7" d="M263.2,164.97c.39,0,.77.02,1.16,0,1.62-.11,2.25.4,2.38,2.26.45,6.45,3.63,11.59,8.53,15.63,1.81,1.49,2.32,3.1,1.8,5.24-.06.25-.12.5-.2.74-1.94,5.97-6.07,7.39-11.09,3.63-5.33-3.99-9.15-9.25-11.52-15.42-2.52-6.58,1.6-11.96,8.95-12.08Z"/>
      <path class="cls-7" d="M270.26,166.75c0-9.21,9.11-15.57,17.77-12.45,1.06.38,1.29.92,1.19,2-.5,5.48-.77,10.94,2.18,15.96.53.9-.05,1.06-.78,1.23-1.57.36-3.13.74-4.67,1.19-2.84.83-4.9,2.56-5.74,5.47-.36,1.26-.85,1.29-1.89.68-4.04-2.4-8.07-9.35-8.07-14.07Z"/>
      <path class="cls-7" d="M292.38,160.75c-.08-6.76,1.97-10.12,7.38-12.12,5.06-1.87,10.03.22,12.06,5.24,1.63,4.01,2.5,8.24,3.04,12.53.07.55.59,1.68-.66,1.54-.9-.1-2.47.4-2.38-1.43.19-4.05-2.39-6.81-4.54-9.74-.65-.89-1.64-1.07-2.55-.36-.86.67-.8,1.58-.24,2.42.78,1.18,1.61,2.33,2.47,3.46.68.9,1.12,1.88,1.3,2.98.39,2.34-.13,3.26-2.37,4.06-2.79.99-5.6,1.92-8.39,2.9-1.15.4-1.84.06-2.56-.96-2.28-3.19-2.51-6.81-2.55-10.51Z"/>
      <path class="cls-5" d="M538.98,326.79c-.74-.7-1.72-.37-2.57-.58-1.48-.36-2.57-1.17-2.35-2.77.2-1.48,1.44-1.75,2.79-1.72,2.63.04,5.26.01,7.89.01-1.92,1.69-3.84,3.37-5.75,5.06Z"/>
      <path class="cls-14" d="M429.82,273.52c-1.01-5.95,6.3-10.51,10.36-10.53,1.06,0,1.91.39,2.08,1.59.17,1.22-.54,1.78-1.58,2.04-1.57.39-3.13.79-4.45,1.78-1.63,1.23-3.16,2.58-2.74,4.92.33,1.87,2.67,3.64,5.04,3.9,1.75.19,3.46.1,5.11-.65,1.22-.56,2.66-.92,3.24.74.59,1.68-.7,2.42-2.06,2.92-3.08,1.13-6.18,1.24-9.25.05-1.41-.55-1.95-.11-2.31,1.24-1.42,5.36-3.2,10.59-5.82,15.5-3.75,7.01-8.52,13.01-16.06,16.27-4.76,2.06-9.69,2.18-14.58.81-6.17-1.72-9.1-7.04-7.74-13.58.48-2.33,1.16-4.62,1.69-6.94.26-1.13.47-2.28.54-3.43.18-3.11.04-3.17-2.91-2.45-2.42.59-4.72.16-6.86-1.13-.88-.53-1.29-1.27-.89-2.28.38-.95,1.19-1.12,2.08-.94.75.15,1.48.43,2.22.63,2.96.82,4.56-.42,4.71-3.48.13-2.66-.74-4.93-2.41-6.93-.88-1.04-1.46-2.19-.27-3.2,1.33-1.13,2.46-.14,3.25.93,1.97,2.63,3.4,5.5,3.13,8.9-.17,2.1.63,3.26,2.62,4.1,11.72,4.94,24.74,2.18,33.28-7.13,1.05-1.15.62-2.4.58-3.66ZM402.98,311.25c3.84-.14,7.25-1.36,10.44-3.27,1.89-1.13,3.57-2.52,4.95-4.24.42-.53,1.05-1.21-.35-1.4-6.29-.84-11.87.68-16.57,5.01-.87.8-2.13,1.94-1.71,3.02.45,1.16,2.14.71,3.23.89Z"/>
      <path class="cls-14" d="M452.06,205.08c6.8-.17,10.95,5.51,10.46,12.25-.39,5.38-2.69,10.17-4.46,15.11-2.11,5.91-3.98,11.83-3.69,18.22.07,1.47.49,2.52,1.75,3.4,2.77,1.92,4.7,4.54,5.84,7.74.42,1.19.3,2.26-.86,2.82-1.23.59-2.05-.33-2.42-1.3-1.81-4.7-5.26-7.37-10.09-8.29-5.37-1.02-10.39-.25-14.73,3.37-.54.45-1.07.92-1.63,1.35-.88.68-1.87,1.14-2.76.17-.81-.89-.65-1.97.15-2.8,1.94-1.99,4.11-3.7,6.76-4.68.06-.02.13-.02.19-.04,3.48-1.42,3.09-.5,2.24-4.24-2.06-9.06-3.73-18.17-2.72-27.54.93-8.63,8.11-15.62,15.98-15.56ZM450.17,208.97c-.34.07-.53.08-.72.14-.37.12-.74.24-1.09.39-5.73,2.52-8.45,7.09-8.86,13.18-.47,7.06.35,14.01,1.95,20.89.48,2.07,1.04,4.11,1.61,6.16.22.8.88,1.2,1.64,1.02,1.05-.24.44-1.01.29-1.56-1.99-7.29-1.73-14.66-.79-22.05.15-1.22.77-1.8,2.01-1.87,1.41-.08,2.82-.27,4.22-.46.51-.07,1.09-.22,1.29-.74.24-.63-.39-.9-.76-1.2-1.16-.93-2.46-1.67-3.84-2.2-1.26-.48-1.62-1.06-1.13-2.45,1.04-2.95,2.48-5.65,4.39-8.11.21-.27.67-.53.35-.96-.12-.16-.45-.16-.56-.19Z"/>
      <path class="cls-14" d="M409.94,214.43c-.11,5.1-2.02,9.28-3.63,13.56-1.95,5.19-3.7,10.42-3.65,16.09.02,1.85.49,3.17,2.07,4.22,2.26,1.51,3.71,3.69,4.57,6.28.34,1.03.35,2.01-.75,2.46-1.01.41-1.76-.21-2.08-1.19-2.88-8.8-16.3-9.48-22.27-3.76-.33.31-.65.63-1.01.9-.75.56-1.55.72-2.26-.03-.69-.73-.61-1.55.04-2.26,1.84-2.03,3.99-3.7,6.67-4.4,1.81-.48,2.16-1.32,1.68-3.06-2.01-7.23-3.07-14.62-2.81-22.14.21-5.93,2.52-10.87,7.64-14.16,4.5-2.89,10.08-2.41,13.32.99,1.86,1.95,2.32,4.38,2.46,6.51ZM399.75,208.78c-.58-.41-.95-.29-1.33-.18-4.39,1.22-7.86,5.48-8.48,10.29-.61,4.77-.25,9.51.47,14.23.54,3.5,1.33,6.95,2.25,10.37.21.78.58,1.65,1.5,1.44,1.1-.26.38-1.14.24-1.72-1.58-6.23-1.33-12.5-.57-18.8.15-1.25.88-1.58,1.94-1.68,1.28-.13,2.56-.25,3.82-.51.99-.2,1.1-.81.31-1.47-1.05-.87-2.24-1.53-3.5-2.01-1.26-.48-1.38-1.23-.96-2.39,1-2.74,2.49-5.18,4.31-7.56Z"/>
      <path class="cls-1" d="M372.08,193.34c-.29,5.77-1.17,11.31-2.02,16.84-1.35,8.71-2.94,17.39-5.19,25.92-1.55,5.9-3.31,11.74-4.95,17.61-.44,1.58-1.33,2.57-3.06,2.16-1.6-.38-1.84-1.52-1.42-3.01,1.8-6.3,3.69-12.58,5.27-18.94,3.12-12.5,5.36-25.16,6.55-38,.09-.96.33-1.9.44-2.86.2-1.72.93-2.76,2.87-2.53,2.05.25,1.26,1.86,1.5,2.81Z"/>
      <path class="cls-1" d="M344.62,296.2c.04-5.72,1.8-12.55,3.94-19.31.51-1.6,1.53-2.26,3.07-1.71,1.5.53,1.71,1.76,1.26,3.18-1.75,5.52-3.23,11.07-3.8,16.88-1.09,10.9,4.43,20.66,14.47,25.01,1.58.68,3.32,1,4.99,1.43,1.24.32,1.96,1,1.74,2.34-.21,1.31-.97,2.1-2.37,1.98-4.14-.36-7.83-1.98-11.18-4.32-8.32-5.83-12.23-13.92-12.12-25.47Z"/>
      <path class="cls-13" d="M418.23,251.75c0-.49-.02-1.14,0-1.78.05-1.05.37-1.94,1.6-2.02,1.19-.08,1.77.73,1.98,1.73.32,1.52.22,3.08.06,4.62-.41,4.15-2.12,7.79-4.65,11.04-2.1,2.71-5.14,3.44-8.3,2.05-1.29-.57-2.51-1.31-3.77-1.95-1.55-.8-2.75-.36-3.57,1.12-1.35,2.43-1.58,5.03-.85,7.67.46,1.65,1.58,2.71,3.32,3.16,4.61,1.2,8.49-.29,12-3.14,1.29-1.05,2.43-2.29,3.64-3.43.75-.71,1.6-1.22,2.56-.44.97.78,1,1.94.3,2.77-4.45,5.29-9.77,9.03-17.1,8.4-7.89-.67-9.51-7.02-8.62-12.64.23-1.45.68-2.88,1.4-4.2,1.92-3.53,5.05-4.54,8.62-2.74,1.09.55,2.14,1.19,3.23,1.73,1.67.83,3.1.53,4.27-.97,2.5-3.18,4.09-6.69,3.85-10.99Z"/>
      <path class="cls-1" d="M455.76,337.61c-3.87.2-7.98-.42-12.05-1.49-1.45-.38-2.38-1.14-2.01-2.72.39-1.62,1.52-2.01,3.12-1.63,12.52,3.01,24.38,1.25,35.53-5.13,2.61-1.49,5.07-3.25,7.25-5.36,1.02-.99,2.15-1.16,3.3-.37,1.23.85,1.23,2.25-.04,3.43-3.69,3.43-7.78,6.31-12.35,8.4-7.09,3.24-14.53,5.11-22.75,4.86Z"/>
      <path class="cls-1" d="M500.24,252.54c.99-8.13,1.91-15.66,2.83-23.18.12-1.02.17-2.05.32-3.07.21-1.47,1.04-2.44,2.58-2.24,1.51.2,2.12,1.23,1.94,2.78-1.02,8.42-2,16.84-3.04,25.26-.17,1.37-.89,2.6-2.42,2.5-1.43-.09-2.29-1.08-2.2-2.05Z"/>
      <path class="cls-13" d="M363.9,267.11c.03-3.74,3.04-6.75,6.72-6.74,3.91,0,6.9,3.11,6.81,7.07-.09,3.88-3.03,6.7-6.94,6.65-3.85-.04-6.63-2.98-6.6-6.98ZM370.63,271.98c2.59.02,4.67-2,4.74-4.59.07-2.62-2.12-4.89-4.69-4.86-2.56.02-4.68,2.09-4.74,4.62-.06,2.67,2.03,4.82,4.69,4.83Z"/>
      <path class="cls-13" d="M465.72,275.71c3.81.08,6.74,3.15,6.67,6.99-.07,3.74-3.25,6.75-7.07,6.68-3.6-.07-6.72-3.33-6.65-6.95.07-3.69,3.33-6.8,7.04-6.72ZM460.76,282.4c-.03,2.74,2.17,4.98,4.85,4.94,2.55-.03,4.79-2.29,4.79-4.84,0-2.53-2.29-4.85-4.79-4.86-2.6-.01-4.83,2.17-4.85,4.76Z"/>
      <path class="cls-13" d="M487.14,218.45c-3.37.03-6.06-2.62-6.02-5.92.04-3.16,2.61-5.65,5.86-5.67,3.26-.02,5.74,2.37,5.82,5.61.08,3.41-2.32,5.95-5.66,5.98ZM490.46,212.7c.02-1.83-1.57-3.44-3.42-3.47-1.86-.03-3.43,1.52-3.45,3.41-.02,1.89,1.5,3.45,3.39,3.47,1.84.01,3.46-1.58,3.48-3.41Z"/>
      <path class="cls-1" d="M496.9,299.3c1.77.03,2.81,1.31,2.39,3-.93,3.72-1.95,7.42-2.92,11.14-.32,1.22-1.33,1.32-2.26,1.31-.93,0-1.73-.42-1.94-1.5-.24-1.19.16-2.29.43-3.4.74-2.98,1.54-5.94,2.28-8.92.28-1.14,1.08-1.5,2.02-1.62Z"/>
      <path class="cls-13" d="M403.34,321.99c-3.02-.19-5.93-1.15-8.67-2.66-1.07-.59-1.64-1.5-1.01-2.74.61-1.18,1.68-1.2,2.66-.68,3.29,1.73,6.67,2.63,10.41,1.86.91-.19,1.6.4,1.87,1.31.27.89-.18,1.53-.87,1.96-1.3.81-2.79.92-4.4.95Z"/>
      <path class="cls-8" d="M461.63,295.15c-.03,2.22-1.6,3.77-3.79,3.73-2.28-.05-3.85-1.72-3.77-4,.07-1.91,1.87-3.62,3.81-3.6,2.36.02,3.78,1.49,3.75,3.87ZM460.15,295.01c-.07-1.34-.88-2.19-2.29-2.18-1.29.01-2.15.75-2.18,2.17-.03,1.46.7,2.37,2.15,2.38,1.39,0,2.27-.75,2.32-2.37Z"/>
      <path class="cls-13" d="M364.89,277.13c2.07.02,3.7,1.61,3.69,3.6-.02,2.06-1.77,3.9-3.73,3.9-2.12,0-3.86-1.81-3.84-3.97.03-2.22,1.49-3.55,3.88-3.53ZM364.81,283.05c1.35-.07,2.12-.88,2.17-2.17.05-1.32-.71-2.15-2.09-2.24-1.27-.09-2.47,1.01-2.33,2.22.14,1.27.83,2.11,2.25,2.19Z"/>
      <path class="cls-13" d="M496.2,227.95c.05,1.91-1.42,3.42-3.38,3.47-1.83.05-3.33-1.38-3.4-3.22-.07-2.04,1.25-3.49,3.23-3.55,1.92-.06,3.5,1.41,3.54,3.3ZM492.9,226.04c-1.33.1-2.13.79-2.12,1.95.01,1.1.69,2.02,1.93,2.01,1.18,0,1.96-.71,1.97-1.93.01-1.21-.74-1.85-1.79-2.02Z"/>
      <path class="cls-8" d="M374.37,282.74c-2.14.03-3.3-1.06-3.31-3.09,0-2.03,1.18-3.21,3.23-3.21,1.83,0,3.42,1.51,3.38,3.21-.04,1.66-1.55,3.06-3.3,3.09ZM374.34,277.93c-1.05.07-1.7.61-1.72,1.65-.02.96.56,1.55,1.51,1.63,1.05.09,1.74-.49,1.81-1.51.07-1.04-.6-1.6-1.6-1.77Z"/>
      <path class="cls-13" d="M508.04,208.84c-.13,1.89-1.61,3.26-3.45,3.18-1.88-.09-3.45-1.8-3.29-3.6.17-1.97,1.69-3.32,3.63-3.24,1.95.08,3.25,1.6,3.11,3.66ZM504.62,206.5c-.98.28-1.83.84-1.82,2.06,0,1.21.73,1.95,1.94,1.96,1.22,0,1.93-.76,1.93-1.96,0-1.2-.77-1.84-2.05-2.06Z"/>
      <path class="cls-13" d="M467.54,291.99c1.83,0,3.24,1.47,3.21,3.35-.03,1.87-1.43,3.12-3.44,3.09-1.6-.03-3.12-1.49-3.16-3.05-.05-1.92,1.42-3.39,3.4-3.39ZM469.6,295.21c-.16-1.16-.73-2.07-2.02-2.09-1.34-.02-2.18.77-2.16,2.14.02,1.26.81,2.06,2.07,2.05,1.25,0,1.96-.79,2.11-2.1Z"/>
      <path class="cls-8" d="M463.84,304.08c.03,1.64-1.21,2.89-2.91,2.94-1.42.04-2.58-1.15-2.65-2.73-.08-1.7.99-2.95,2.55-2.99,1.71-.05,2.97,1.12,3.01,2.78ZM462.59,304.08c-.22-.83-.59-1.48-1.55-1.41-.98.07-1.54.58-1.46,1.62.08.95.71,1.35,1.58,1.3.88-.06,1.34-.65,1.43-1.5Z"/>
      <path class="cls-13" d="M371.79,289.27c.02,1.61-.98,2.69-2.55,2.74-1.69.06-2.86-1-2.91-2.62-.05-1.66,1.06-2.84,2.68-2.85,1.69-.01,2.76,1.04,2.78,2.73ZM370.67,289.42c0-1.03-.54-1.63-1.48-1.68-.95-.06-1.59.5-1.63,1.47-.04.95.45,1.58,1.46,1.63.99.04,1.53-.48,1.65-1.42Z"/>
      <path class="cls-6" d="M403.17,124.48c0,.97,0,1.93,0,2.9.01,1.21-.32,2.28-1.68,2.41-1.51.14-2.01-1.02-2.11-2.24-.27-3.41-.16-6.82.45-10.2,2.55-14.11,14.99-24.35,29.61-24.57,11.82-.18,20.57,4.74,26.17,15.19.43.81.86,1.62.33,2.55-.81,1.45-2.57,1.37-3.53-.25-1.6-2.74-3.29-5.41-5.75-7.46-8.02-6.71-16.92-7.96-26.54-4.04-11.32,4.62-17.04,13.33-16.97,25.73Z"/>
      <path class="cls-6" d="M487.48,116.73c11.33.26,18.78,5.59,23.61,16.8.53,1.23.64,2.53-.79,3.15-1.45.63-2.28-.41-2.82-1.62-1.65-3.68-3.62-7.16-6.78-9.75-6.19-5.08-13.17-5.84-20.55-3.28-3.3,1.14-5.46,3.75-7.08,6.81-1.86,3.51-2.88,7.3-3.7,11.15-.29,1.36-.8,2.39-2.4,2.09-1.63-.3-1.69-1.45-1.39-2.82.76-3.46,1.51-6.92,2.94-10.2,3.6-8.26,9.98-12.41,18.97-12.33Z"/>
      <path class="cls-6" d="M422.65,60.35c5.51-.03,9.97,4.4,9.95,9.89-.01,5.56-4.39,9.97-9.88,9.97-5.48,0-10-4.48-10-9.9,0-5.46,4.45-9.93,9.93-9.96ZM422.57,76.08c3.27.07,5.98-2.53,6-5.78.01-3.12-2.58-5.78-5.76-5.88-3.2-.11-5.93,2.56-5.98,5.83-.05,3.18,2.49,5.76,5.74,5.83Z"/>
      <path class="cls-5" d="M390.81,124.67c.37-6.04,1.62-11.66,4.4-16.85,4.33-8.06,10.47-14.26,18.95-17.97.29-.13.58-.28.88-.4,1.29-.53,2.35-.16,2.94,1.03.58,1.2-.07,2.13-1.13,2.72-2.75,1.52-5.55,2.94-8.07,4.87-6.38,4.89-10.24,11.41-12.54,18.99-.76,2.5-.85,5.05-.87,7.63-.02,2.08-1.12,3.11-2.79,2.81-1.76-.32-1.53-1.81-1.76-2.83Z"/>
      <path class="cls-5" d="M487.33,70.64c6.96.21,12.97,1.81,18.37,5.43,1.53,1.02,1.94,2.34,1.04,3.57-1.01,1.38-2.12,1.04-3.34.21-4.58-3.12-9.71-4.79-15.21-4.85-7.15-.08-13.47,2.38-18.88,7.09-.24.21-.47.44-.73.64-1.02.79-2.06.81-2.93-.16-.92-1.03-.83-2.19.15-3.11,5.06-4.81,11.1-7.57,18.01-8.45,1.34-.17,2.68-.28,3.51-.36Z"/>
      <path class="cls-5" d="M387.42,85.4c.69-11.23,6.17-20.16,16.03-26.35,2.59-1.63,5.47-2.89,8.55-3.43,1.42-.25,2.99-.47,3.41,1.48.41,1.91-.94,2.38-2.45,2.73-11.65,2.73-20.49,13.46-21.07,25.55-.03.65-.07,1.27-.45,1.84-.65.97-1.53,1.45-2.64,1.06-1.08-.38-1.63-1.22-1.39-2.9Z"/>
      <path class="cls-5" d="M348.95,126.35c-.2-6.93,2.19-12.76,6.13-18.08.84-1.14,1.77-2.21,3.34-1.25,1.3.79,1.33,2.25.15,3.84-5.94,7.98-6.87,16.53-3.02,25.66.66,1.56,1.64,2.91,2.64,4.25.86,1.16,1.32,2.43.02,3.4-1.27.94-2.63.5-3.53-.76-2.57-3.6-4.45-7.53-5.27-11.89-.33-1.76-.65-3.55-.44-5.17Z"/>
      <path class="cls-6" d="M427.74,128.33c8.74,0,13.52,2.8,15.4,7.69.95,2.48,1,5.03.49,7.6-.23,1.17-.86,2.12-2.21,1.94-1.33-.18-1.74-1.19-1.65-2.42.09-1.34.34-2.67.13-4.04-.53-3.35-2.43-5.55-5.64-6.39-4.8-1.26-9.04-.12-12.53,3.5-1.07,1.11-2.05,2.32-3.14,3.4-.75.74-1.65.64-2.46.01-.85-.66-.99-1.62-.41-2.41,3.56-4.88,7.75-8.82,12.03-8.87Z"/>
      <path class="cls-6" d="M367.42,133.07c-4.7-.08-8.41-3.87-8.37-8.55.04-4.63,3.91-8.48,8.51-8.47,4.62.01,8.6,4.08,8.51,8.71-.09,4.64-4,8.39-8.65,8.32ZM367.46,119.63c-2.7.03-4.9,2.23-4.93,4.92-.03,2.75,2.27,5.07,5.01,5.06,2.79,0,5-2.25,4.99-5.05-.02-2.81-2.23-4.96-5.07-4.93Z"/>
      <path class="cls-6" d="M536.97,127.95c.02-4.24-2.67-7.85-6.76-9.08-4.37-1.31-8.09,0-10.58,3.76-.25.38-.47.77-.74,1.13-.71.93-1.69.99-2.59.48-.98-.55-1.12-1.51-.68-2.52,1.12-2.56,2.89-4.54,5.39-5.83,8.59-4.41,18.92,1.21,19.82,10.81.07.76.05,1.55-.04,2.31-.14,1.23-.75,2.09-2.11,2-1.4-.09-1.79-1.06-1.77-2.29,0-.26.03-.51.05-.77Z"/>
      <path class="cls-5" d="M431.73,121.69c4.17.09,8.28,1.6,11.9,4.36,1.01.77,2.46,1.68,1.16,3.29-1.13,1.39-2.47,1.1-3.75.12-2.96-2.26-6.3-3.42-10.03-3.48-4.41-.06-8.12,1.65-11.36,4.53-.43.38-.8.85-1.24,1.21-1.02.84-2.16,1.34-3.26.22-1.1-1.13-.86-2.31.16-3.42,4.3-4.69,9.71-6.78,16.42-6.84Z"/>
      <path class="cls-6" d="M487.26,127.38c6.64-.6,9.44,5.18,8.35,9.16-.83,3.04-3.22,5.19-6.41,5.6-2.9.37-5.96-1.28-7.34-3.96-1.46-2.83-1.06-6.07,1.06-8.42.34-.38.73-.72,1.09-1.08,1.08-.44,2.17-.87,3.25-1.31ZM488.45,139.12c2.46,0,4.39-1.98,4.36-4.45-.02-2.34-1.96-4.28-4.31-4.32-2.45-.04-4.47,1.93-4.47,4.36,0,2.47,1.95,4.42,4.41,4.41Z"/>
      <path class="cls-6" d="M506.42,111.35c-3.85.03-7.19-3.24-7.26-7.1-.06-3.86,3.39-7.3,7.3-7.28,3.76.03,7.04,3.26,7.14,7.03.1,3.95-3.18,7.31-7.18,7.35ZM506.34,108.43c2.22.04,4.19-1.84,4.29-4.09.1-2.34-1.82-4.35-4.18-4.36-2.41-.02-4.29,1.84-4.28,4.25,0,2.24,1.91,4.17,4.17,4.21Z"/>
      <path class="cls-5" d="M411.31,160.37c1.09,0,1.72.58,1.93,1.82.57,3.45,3.35,4.74,6.43,3,1.6-.9,2.82-2.21,3.9-3.69.6-.83,1.29-1.7,2.45-1.7,1.65-.01,2.71,1.93,1.74,3.31-2.41,3.46-5.31,6.23-9.72,7.05-4.27.79-8.94-2.69-9.11-6.99-.07-1.67.8-2.75,2.38-2.8Z"/>
      <path class="cls-5" d="M492.14,103.54c.39-4.14,2.08-7.81,5.89-10.28,1.25-.81,2.5-.86,3.37.48.86,1.33.4,2.31-.96,3.18-4.68,3-5.27,8.53-1.37,12.53,1.02,1.05,1.64,2.03.52,3.32-.97,1.12-2.39,1.02-3.72-.29-2.41-2.38-3.49-5.35-3.73-8.94Z"/>
      <path class="cls-5" d="M487.26,127.38c-1.08.44-2.17.87-3.25,1.31-.93-.58-1.62.04-2.23.56-2.13,1.8-4.04,3.78-5.01,6.5-.56,1.58-2.04,2.29-3.33,1.64-1.43-.72-1.29-2.03-.81-3.19,2.24-5.4,6.03-9.21,11.68-11.01,1.19-.38,2.4-.71,3.34.55.88,1.19.41,2.16-.44,3.11-.08.09.02.35.04.54Z"/>
      <path class="cls-5" d="M475.53,100.41c-.28-.06-.65-.15-1.03-.21-4.44-.77-7.53,1.61-7.94,6.09-.13,1.48-.6,2.71-2.4,2.61-1.48-.08-2.14-1.3-2.05-3.12.27-5.57,5.26-10.84,12.2-10.03.96.11,1.91.27,2.68.94.7.6,1.01,1.36.69,2.24-.34.91-1.02,1.47-2.15,1.48Z"/>
      <path class="cls-6" d="M400.34,80.22c3.43.08,6.27,3,6.19,6.39-.08,3.52-3.08,6.39-6.54,6.27-3.44-.12-6.23-3.01-6.19-6.42.04-3.48,3.01-6.32,6.54-6.24ZM400.03,90.32c2.05.07,3.84-1.66,3.88-3.74.03-2.01-1.63-3.73-3.61-3.75-2.09-.02-3.77,1.49-3.88,3.5-.11,2.05,1.58,3.92,3.61,3.99Z"/>
      <path class="cls-6" d="M489.51,171.25c0,3.31-2.65,6.01-5.97,6.06-3.4.05-6.16-2.65-6.18-6.05-.02-3.42,2.67-6.15,6.08-6.15,3.43,0,6.08,2.68,6.08,6.14ZM483.47,174.78c1.98,0,3.56-1.55,3.6-3.5.04-2.04-1.6-3.7-3.63-3.68-1.98.02-3.58,1.59-3.59,3.51-.01,2.09,1.55,3.67,3.63,3.66Z"/>
      <path class="cls-6" d="M428.88,108.45c3.3.13,6,2.94,5.91,6.18-.09,3.31-3.01,6.1-6.31,6.02-3.35-.08-6.11-3-5.98-6.32.12-3.38,2.98-6.01,6.38-5.88ZM432.21,114.53c.01-1.96-1.54-3.57-3.49-3.62-1.98-.05-3.74,1.66-3.73,3.62,0,1.87,1.67,3.58,3.54,3.65,1.94.07,3.66-1.64,3.68-3.65Z"/>
      <path class="cls-5" d="M510.72,157.29c-4.74-.61-8.62-2.4-10.86-6.79-.68-1.34-.58-2.56.75-3.35,1.36-.81,2.31-.03,3.01,1.14,2.19,3.63,4.77,4.94,8.83,4.27,1.52-.25,2.74-.16,3.21,1.51.41,1.44-.45,2.4-2.39,2.81-.88.18-1.77.29-2.56.41Z"/>
      <path class="cls-8" d="M477.37,83.33c.02-3.3,2.82-6.07,6.05-6,3.27.08,5.96,2.89,5.9,6.17-.06,3.19-2.8,5.88-5.99,5.87-3.33,0-5.98-2.7-5.96-6.05ZM486.8,83.48c.05-2.03-1.41-3.54-3.44-3.56-1.97-.02-3.56,1.54-3.57,3.48,0,1.84,1.52,3.42,3.38,3.5,1.94.08,3.58-1.46,3.63-3.42Z"/>
      <path class="cls-5" d="M540.33,157.7c-1.39.08-2.09-.37-2.42-1.36-.33-.98-.11-1.79.84-2.3,3.75-2,6.87-4.69,9.29-8.21.71-1.03,1.85-1.18,2.92-.47.88.59,1.33,1.53.78,2.51-2.47,4.39-6.02,7.63-10.63,9.69-.34.15-.75.14-.78.14Z"/>
      <path class="cls-5" d="M473.94,161.61c-4.37-.01-7.82-2.53-8.75-6.4-.33-1.36-.26-2.64,1.29-3.19,1.57-.56,2.3.28,2.82,1.72,1.15,3.17,3.31,4.26,6.48,3.38,1.5-.42,2.8-.22,3.33,1.35.6,1.77-.78,2.32-2.11,2.8-.99.36-2.02.34-3.04.35Z"/>
      <path class="cls-5" d="M391.99,158.46c-3.31-.36-6.21-1.48-8.07-4.48-.86-1.39-.58-2.58.72-3.51,1.31-.93,2.09-.09,2.85.91,1.71,2.23,3.78,3.43,6.68,2.29,1.58-.62,2.53.39,3,1.63.49,1.3-.52,2-1.61,2.41-1.14.42-2.29.87-3.57.75Z"/>
      <path class="cls-8" d="M546.95,131.78c3.01.01,5.27,2.28,5.23,5.24-.04,2.86-2.35,5.18-5.15,5.17-2.92,0-5.29-2.4-5.25-5.29.04-2.86,2.33-5.14,5.17-5.12ZM550.1,136.94c0-1.59-1.51-3.08-3.11-3.1-1.63-.01-3.04,1.44-3.03,3.12.01,1.72,1.37,3.08,3.05,3.06,1.65-.02,3.09-1.46,3.09-3.09Z"/>
      <path class="cls-8" d="M391.49,144.57c-.02-2.89,2.04-5.03,4.9-5.09,2.84-.06,5.17,2.26,5.14,5.12-.03,2.64-2.29,4.88-4.96,4.93-2.78.05-5.05-2.17-5.07-4.96ZM396.45,141.52c-1.64.03-2.92,1.3-2.93,2.93-.01,1.7,1.4,3.1,3.05,3.02,1.55-.07,2.91-1.51,2.87-3.05-.03-1.55-1.45-2.93-3-2.9Z"/>
      <path class="cls-8" d="M473.77,101.43c2.62.03,4.55,2.06,4.51,4.74-.04,2.59-2.15,4.65-4.71,4.59-2.5-.06-4.68-2.32-4.6-4.78.08-2.56,2.21-4.58,4.79-4.55ZM473.6,103.3c-1.41.05-2.67,1.36-2.66,2.76.01,1.5,1.38,2.85,2.82,2.79,1.44-.06,2.67-1.34,2.65-2.76-.02-1.56-1.31-2.84-2.81-2.79Z"/>
      <path class="cls-8" d="M442.19,82.92c-.04-2.57,2.02-4.72,4.56-4.76,2.54-.04,4.68,2.04,4.74,4.6.06,2.51-2.07,4.73-4.58,4.78-2.51.05-4.67-2.07-4.71-4.62ZM446.8,85.55c1.52,0,2.74-1.16,2.74-2.63,0-1.47-1.19-2.78-2.6-2.84-1.51-.07-2.84,1.23-2.83,2.78,0,1.5,1.19,2.68,2.68,2.69Z"/>
      <path class="cls-8" d="M524.71,147.95c-.08,2.14-1.79,3.71-3.93,3.59-2.09-.11-3.59-1.7-3.56-3.78.03-2.13,1.7-3.73,3.85-3.69,2.13.04,3.71,1.73,3.63,3.88ZM521.11,149.98c1.34-.15,2.11-.94,2.05-2.26-.06-1.32-.91-2.13-2.26-2.07-1.34.06-2.12.92-2.08,2.25.05,1.36.94,2,2.29,2.08Z"/>
      <path class="cls-8" d="M545.13,111.26c.02,1.86-1.41,3.26-3.31,3.24-1.94-.02-3.3-1.39-3.26-3.28.03-1.76,1.43-3.15,3.21-3.18,1.86-.04,3.34,1.39,3.36,3.23ZM541.89,109.35c-1.17.15-1.94.74-1.92,1.98.02,1.11.67,1.84,1.81,1.84,1.2,0,1.92-.65,1.92-1.92,0-1.18-.73-1.7-1.8-1.9Z"/>
      <path class="cls-8" d="M530.97,127.72c0,1.71-1.48,3.21-3.16,3.22-1.84,0-3.3-1.47-3.26-3.29.04-1.71,1.54-3.16,3.24-3.14,1.68.02,3.19,1.54,3.18,3.22ZM527.64,125.9c-1.06.13-1.79.77-1.76,1.85.03,1.18.82,1.88,2.03,1.8,1.13-.07,1.75-.81,1.69-1.92-.06-1.12-.79-1.68-1.96-1.73Z"/>
      <path class="cls-8" d="M450.04,129.66c.05-1.78,1.47-3.09,3.3-3.05,1.77.04,3.15,1.47,3.11,3.24-.04,1.73-1.53,3.12-3.3,3.08-1.77-.05-3.16-1.51-3.12-3.27ZM455.17,129.77c-.17-1.07-.74-1.8-1.85-1.83-1.12-.04-1.85.64-1.89,1.72-.05,1.17.61,1.92,1.87,1.91,1.18,0,1.65-.78,1.87-1.8Z"/>
      <path class="cls-13" d="M308.43,469.87c-1.14-.25-2.21-.84-3.24-1.52-6.82-4.52-11.47-10.85-14.91-18.14-1.51-3.2-2.74-6.54-3.82-9.91-.43-1.34-.85-2.8.87-3.46,1.81-.7,2.56.63,3.07,2.07,2.08,5.91,4.35,11.73,7.98,16.9,2.89,4.12,6.48,7.49,10.88,9.98,1.06.6,1.7,1.42,1.31,2.69-.3.98-1.02,1.45-2.14,1.39Z"/>
      <path class="cls-6" d="M372.73,172.63c-.02-3.64,2.83-6.51,6.48-6.53,3.67-.02,6.61,2.96,6.57,6.66-.04,3.46-2.93,6.38-6.41,6.46-3.65.08-6.62-2.87-6.64-6.59ZM383.11,172.69c.03-2.06-1.67-3.85-3.73-3.93-2.11-.08-4.02,1.73-4.04,3.83-.02,2.14,1.79,3.95,3.93,3.93,2.09-.02,3.8-1.72,3.83-3.83Z"/>
      <path class="cls-8" d="M504.31,188.29c-.03,2.83-2.23,5-5.04,4.98-2.83-.01-5.01-2.2-5-5.02,0-2.76,2.28-5.03,5.04-5.03,2.74,0,5.04,2.32,5.01,5.07ZM499.22,185.33c-1.6.03-2.93,1.38-2.9,2.96.03,1.58,1.37,2.93,2.93,2.96,1.66.02,3.05-1.41,2.99-3.07-.06-1.6-1.41-2.87-3.02-2.84Z"/>
      <path class="cls-8" d="M448.87,171.31c-.03,2.82-2.22,4.93-5.08,4.89-2.78-.04-4.99-2.34-4.94-5.11.05-2.71,2.45-5,5.16-4.93,2.81.08,4.9,2.28,4.87,5.14ZM443.93,168.24c-1.6-.04-2.95,1.29-2.97,2.93-.02,1.69,1.22,2.95,2.9,2.97,1.69.01,2.96-1.22,2.96-2.9,0-1.67-1.24-2.96-2.89-3Z"/>
      <path class="cls-8" d="M419.25,183.31c2.56-.01,4.68,2.09,4.69,4.65,0,2.48-2.21,4.66-4.72,4.64-2.56-.02-4.54-2.1-4.53-4.75.01-2.47,2.07-4.52,4.56-4.54ZM422.02,188.01c.05-1.4-1.25-2.76-2.67-2.8-1.5-.04-2.7,1.13-2.74,2.66-.04,1.54,1.08,2.73,2.6,2.76,1.46.03,2.76-1.18,2.81-2.63Z"/>
      <path class="cls-8" d="M508.35,174.88c-2.06-.05-3.74-1.82-3.71-3.89.03-2.07,1.76-3.77,3.83-3.75,2.17.02,3.92,1.84,3.82,3.97-.1,2.07-1.87,3.72-3.94,3.67ZM508.58,173.28c1.24-.17,2.12-.86,2.1-2.22-.02-1.43-.89-2.29-2.34-2.22-1.34.07-2.12.91-2.06,2.29.06,1.36.85,2.08,2.3,2.15Z"/>
      <path class="cls-8" d="M469.23,190.5c0,1.98-1.67,3.66-3.68,3.71-2.1.05-3.85-1.6-3.91-3.69-.06-2.01,1.73-3.83,3.79-3.84,2.05-.01,3.8,1.74,3.8,3.82ZM465.41,188.23c-1.18.16-2.08.78-2.13,2.15-.04,1.36.73,2.24,2.08,2.29,1.33.04,2.22-.78,2.27-2.11.05-1.32-.75-2.11-2.23-2.32Z"/>
      <path class="cls-8" d="M516.3,181.79c1.64-.03,3.24,1.55,3.25,3.21.02,1.71-1.46,3.21-3.19,3.23-1.73.02-3.23-1.44-3.24-3.16-.01-1.69,1.5-3.25,3.18-3.28ZM516.22,183.18c-1.04.19-1.75.77-1.74,1.89.02,1.13.76,1.79,1.83,1.79,1.19,0,1.94-.79,1.87-1.96-.06-1.06-.82-1.67-1.97-1.72Z"/>
      <path class="cls-8" d="M398.26,174.14c1.81,0,3.19,1.36,3.18,3.16,0,1.76-1.45,3.19-3.2,3.18-1.76,0-3.2-1.45-3.18-3.2.02-1.83,1.35-3.13,3.2-3.13ZM400.11,177.22c-.1-1.13-.8-1.75-1.89-1.77-1.15-.02-1.82.77-1.81,1.85,0,1.11.76,1.8,1.88,1.78,1.12-.01,1.75-.69,1.83-1.87Z"/>
      <path class="cls-8" d="M448.03,184.63c-.04,1.74-1.51,3.18-3.25,3.18-1.7,0-3.19-1.51-3.17-3.23.01-1.77,1.44-3.15,3.23-3.13,1.81.02,3.23,1.44,3.19,3.18ZM446.72,184.76c-.12-1.07-.59-1.89-1.72-1.98-1.21-.09-1.96.61-2.02,1.8-.06,1.14.67,1.78,1.77,1.84,1.13.07,1.73-.62,1.98-1.66Z"/>
      <path class="cls-8" d="M463.08,180.16c-1.82,0-3.17-1.35-3.15-3.16.02-1.79,1.4-3.13,3.21-3.12,1.79.01,3.19,1.41,3.18,3.17-.02,1.77-1.41,3.11-3.24,3.11ZM463.16,175.15c-1.04.12-1.85.64-1.9,1.75-.06,1.2.69,1.96,1.87,1.95,1.06,0,1.86-.65,1.84-1.8-.02-1.08-.66-1.76-1.81-1.91Z"/>
      <path class="cls-14" d="M517.12,431.73c-1.12,9.61-3.83,18.7-8.57,27.12-4.3,7.63-9.37,14.67-16.61,19.85-1.04.75-2.16,1.42-3.29,2.02-1.09.57-2.19.5-2.86-.67-.64-1.12-.36-2.17.74-2.85,11.95-7.44,18.53-18.86,23.3-31.57,1.59-4.23,2.44-8.67,3.05-13.15.05-.38.09-.77.15-1.15.22-1.35,1-2.1,2.39-1.95,1.39.15,1.71,1.17,1.7,2.35Z"/>
      <path class="cls-14" d="M573.05,364.74c-6.99.2-14.36-1.13-21.78-1.96-1.41-.16-2.59-.61-2.41-2.35.18-1.69,1.48-1.77,2.75-1.65,5.64.54,11.24,1.45,16.9,1.78,5.74.34,11.46.34,17.11-.91,3.06-.68,5.87-1.91,8.3-3.93,1.09-.91,2.3-1.78,3.52-.36,1.28,1.5.16,2.64-.96,3.58-3.83,3.23-8.42,4.6-13.27,5.33-3.2.48-6.42.49-10.16.47Z"/>
      <path class="cls-5" d="M584.05,197.73c-.1,1.08-.46,1.8-1.41,2.03-1.09.26-2.12.12-2.65-.99-.63-1.33-1.09-2.74-1.68-4.09-2.7-6.19-7.05-10.97-12.67-14.65-.32-.21-.65-.42-.96-.65-.96-.72-1.25-1.63-.6-2.69.67-1.09,1.6-1.42,2.79-.81,3.19,1.62,5.92,3.88,8.39,6.41,3.73,3.82,6.3,8.42,8.19,13.39.27.72.44,1.47.61,2.06Z"/>
      <path class="cls-13" d="M285.28,218.69c-1.32-.2-2.66-.37-3.99-.62-.97-.18-1.42-.84-1.33-1.81.1-.98.75-1.56,1.68-1.52,1.41.05,2.82.23,4.2.48.96.17,1.68.8,1.53,1.89-.16,1.15-1.01,1.55-2.1,1.59Z"/>
      <path class="cls-4" d="M402.98,311.25c-1.09-.18-2.78.27-3.23-.89-.42-1.08.84-2.21,1.71-3.02,4.7-4.33,10.28-5.85,16.57-5.01,1.4.19.77.87.35,1.4-1.38,1.72-3.06,3.11-4.95,4.24-3.2,1.91-6.61,3.13-10.44,3.27Z"/>
      <path class="cls-4" d="M450.17,208.97c.11.03.44.03.56.19.33.43-.14.69-.35.96-1.91,2.46-3.34,5.16-4.39,8.11-.49,1.39-.14,1.97,1.13,2.45,1.39.52,2.68,1.27,3.84,2.2.37.29.99.57.76,1.2-.2.52-.78.67-1.29.74-1.4.19-2.81.38-4.22.46-1.25.07-1.86.65-2.01,1.87-.94,7.39-1.2,14.76.79,22.05.15.55.76,1.31-.29,1.56-.75.17-1.42-.23-1.64-1.02-.57-2.05-1.13-4.09-1.61-6.16-1.6-6.87-2.43-13.82-1.95-20.89.41-6.09,3.13-10.65,8.86-13.18.35-.16.72-.28,1.09-.39.18-.06.38-.08.72-.14Z"/>
      <path class="cls-4" d="M399.75,208.78c-1.82,2.38-3.32,4.82-4.31,7.56-.42,1.16-.3,1.91.96,2.39,1.26.48,2.45,1.14,3.5,2.01.79.65.68,1.26-.31,1.47-1.25.26-2.54.37-3.82.51-1.06.11-1.79.43-1.94,1.68-.76,6.3-1.01,12.57.57,18.8.15.58.86,1.47-.24,1.72-.92.22-1.29-.65-1.5-1.44-.92-3.42-1.71-6.87-2.25-10.37-.73-4.72-1.09-9.46-.47-14.23.62-4.81,4.1-9.07,8.48-10.29.38-.1.74-.23,1.33.18Z"/>
      <path class="cls-4" d="M370.63,271.98c-2.66-.02-4.75-2.16-4.69-4.83.05-2.53,2.17-4.6,4.74-4.62,2.57-.02,4.76,2.25,4.69,4.86-.07,2.59-2.15,4.61-4.74,4.59Z"/>
      <path class="cls-4" d="M460.76,282.4c.02-2.58,2.25-4.77,4.85-4.76,2.5.01,4.79,2.34,4.79,4.86,0,2.55-2.24,4.8-4.79,4.84-2.68.03-4.88-2.21-4.85-4.94Z"/>
      <path class="cls-4" d="M490.46,212.7c-.02,1.83-1.64,3.43-3.48,3.41-1.89-.01-3.42-1.57-3.39-3.47.02-1.9,1.59-3.45,3.45-3.41,1.85.03,3.44,1.64,3.42,3.47Z"/>
      <path class="cls-4" d="M460.15,295.01c-.05,1.62-.92,2.38-2.32,2.37-1.45-.01-2.18-.92-2.15-2.38.03-1.42.89-2.16,2.18-2.17,1.41-.01,2.21.83,2.29,2.18Z"/>
      <path class="cls-4" d="M364.81,283.05c-1.42-.08-2.11-.92-2.25-2.19-.13-1.21,1.07-2.31,2.33-2.22,1.37.09,2.13.93,2.09,2.24-.05,1.29-.82,2.1-2.17,2.17Z"/>
      <path class="cls-4" d="M492.9,226.04c1.04.17,1.8.81,1.79,2.02-.01,1.23-.79,1.92-1.97,1.93-1.25.01-1.92-.9-1.93-2.01-.01-1.16.79-1.85,2.12-1.95Z"/>
      <path class="cls-4" d="M374.34,277.93c.99.17,1.67.73,1.6,1.77-.07,1.02-.77,1.6-1.81,1.51-.95-.08-1.53-.67-1.51-1.63.03-1.04.67-1.58,1.72-1.65Z"/>
      <path class="cls-4" d="M504.62,206.5c1.28.21,2.05.86,2.05,2.06,0,1.2-.72,1.96-1.93,1.96-1.21,0-1.94-.75-1.94-1.96,0-1.22.84-1.78,1.82-2.06Z"/>
      <path class="cls-4" d="M469.6,295.21c-.15,1.3-.87,2.09-2.11,2.1-1.26,0-2.05-.79-2.07-2.05-.02-1.37.82-2.16,2.16-2.14,1.29.02,1.86.93,2.02,2.09Z"/>
      <path class="cls-4" d="M462.59,304.08c-.1.85-.55,1.44-1.43,1.5-.87.06-1.5-.35-1.58-1.3-.09-1.04.48-1.55,1.46-1.62.96-.07,1.33.59,1.55,1.41Z"/>
      <path class="cls-4" d="M370.67,289.42c-.12.94-.66,1.46-1.65,1.42-1.01-.04-1.5-.68-1.46-1.63.04-.98.68-1.53,1.63-1.47.94.06,1.48.66,1.48,1.68Z"/>
      <path class="cls-4" d="M422.57,76.08c-3.25-.07-5.79-2.66-5.74-5.83.05-3.27,2.78-5.93,5.98-5.83,3.17.11,5.77,2.76,5.76,5.88-.02,3.24-2.72,5.85-6,5.78Z"/>
      <path class="cls-10" d="M367.46,119.63c2.84-.03,5.06,2.12,5.07,4.93.02,2.8-2.19,5.04-4.99,5.05-2.74,0-5.04-2.31-5.01-5.06.02-2.69,2.23-4.89,4.93-4.92Z"/>
      <path class="cls-4" d="M488.45,139.12c-2.46,0-4.41-1.94-4.41-4.41,0-2.43,2.02-4.4,4.47-4.36,2.34.04,4.28,1.98,4.31,4.32.02,2.47-1.91,4.44-4.36,4.45Z"/>
      <path class="cls-4" d="M506.34,108.43c-2.26-.04-4.17-1.97-4.17-4.21,0-2.41,1.87-4.27,4.28-4.25,2.36.02,4.28,2.03,4.18,4.36-.1,2.26-2.07,4.13-4.29,4.09Z"/>
      <path class="cls-4" d="M400.03,90.32c-2.03-.07-3.72-1.94-3.61-3.99.11-2.01,1.79-3.52,3.88-3.5,1.98.02,3.64,1.75,3.61,3.75-.03,2.07-1.83,3.8-3.88,3.74Z"/>
      <path class="cls-4" d="M483.47,174.78c-2.07,0-3.64-1.58-3.63-3.66,0-1.93,1.61-3.49,3.59-3.51,2.03-.02,3.67,1.64,3.63,3.68-.04,1.95-1.62,3.49-3.6,3.5Z"/>
      <path class="cls-4" d="M432.21,114.53c-.01,2.01-1.74,3.72-3.68,3.65-1.87-.07-3.53-1.78-3.54-3.65,0-1.96,1.75-3.67,3.73-3.62,1.94.05,3.5,1.66,3.49,3.62Z"/>
      <path class="cls-4" d="M486.8,83.48c-.05,1.96-1.69,3.5-3.63,3.42-1.86-.08-3.39-1.66-3.38-3.5,0-1.94,1.61-3.5,3.57-3.48,2.03.02,3.49,1.53,3.44,3.56Z"/>
      <path class="cls-4" d="M550.1,136.94c0,1.62-1.44,3.07-3.09,3.09-1.68.02-3.04-1.34-3.05-3.06-.01-1.68,1.39-3.13,3.03-3.12,1.6.01,3.1,1.5,3.11,3.1Z"/>
      <path class="cls-4" d="M396.45,141.52c1.54-.02,2.96,1.35,3,2.9.03,1.55-1.32,2.99-2.87,3.05-1.65.07-3.06-1.33-3.05-3.02.01-1.63,1.28-2.91,2.93-2.93Z"/>
      <path class="cls-4" d="M473.6,103.3c1.5-.05,2.8,1.23,2.81,2.79.01,1.42-1.22,2.71-2.65,2.76-1.44.06-2.81-1.29-2.82-2.79-.01-1.4,1.25-2.71,2.66-2.76Z"/>
      <path class="cls-4" d="M446.8,85.55c-1.5,0-2.68-1.19-2.68-2.69,0-1.55,1.32-2.85,2.83-2.78,1.41.06,2.61,1.37,2.6,2.84,0,1.47-1.23,2.64-2.74,2.63Z"/>
      <path class="cls-4" d="M521.11,149.98c-1.35-.07-2.25-.71-2.29-2.08-.04-1.33.73-2.19,2.08-2.25,1.35-.06,2.2.74,2.26,2.07.06,1.32-.71,2.12-2.05,2.26Z"/>
      <path class="cls-4" d="M541.89,109.35c1.07.21,1.8.72,1.8,1.9,0,1.26-.71,1.92-1.92,1.92-1.14,0-1.79-.73-1.81-1.84-.02-1.23.76-1.83,1.92-1.98Z"/>
      <path class="cls-4" d="M527.64,125.9c1.16.05,1.89.61,1.96,1.73.06,1.11-.56,1.85-1.69,1.92-1.21.08-1.99-.63-2.03-1.8-.03-1.09.7-1.72,1.76-1.85Z"/>
      <path class="cls-4" d="M455.17,129.77c-.22,1.02-.69,1.8-1.87,1.8-1.26,0-1.92-.74-1.87-1.91.04-1.08.78-1.76,1.89-1.72,1.11.04,1.68.77,1.85,1.83Z"/>
      <path class="cls-4" d="M383.11,172.69c-.03,2.1-1.74,3.81-3.83,3.83-2.14.02-3.95-1.79-3.93-3.93.02-2.1,1.93-3.91,4.04-3.83,2.06.08,3.76,1.87,3.73,3.93Z"/>
      <path class="cls-4" d="M499.22,185.33c1.61-.03,2.96,1.24,3.02,2.84.06,1.67-1.33,3.1-2.99,3.07-1.56-.02-2.91-1.38-2.93-2.96-.03-1.58,1.3-2.93,2.9-2.96Z"/>
      <path class="cls-4" d="M443.93,168.24c1.66.04,2.9,1.33,2.89,3,0,1.67-1.28,2.91-2.96,2.9-1.68-.01-2.92-1.28-2.9-2.97.02-1.64,1.36-2.97,2.97-2.93Z"/>
      <path class="cls-4" d="M422.02,188.01c-.05,1.45-1.35,2.66-2.81,2.63-1.52-.03-2.64-1.23-2.6-2.76.04-1.54,1.24-2.7,2.74-2.66,1.42.04,2.72,1.4,2.67,2.8Z"/>
      <path class="cls-4" d="M508.58,173.28c-1.45-.06-2.24-.79-2.3-2.15-.06-1.38.72-2.22,2.06-2.29,1.45-.08,2.32.79,2.34,2.22.02,1.36-.86,2.05-2.1,2.22Z"/>
      <path class="cls-4" d="M465.41,188.23c1.48.21,2.28,1,2.23,2.32-.05,1.34-.94,2.16-2.27,2.11-1.35-.04-2.13-.93-2.08-2.29.04-1.38.95-1.99,2.13-2.15Z"/>
      <path class="cls-4" d="M516.22,183.18c1.15.05,1.9.66,1.97,1.72.07,1.17-.68,1.96-1.87,1.96-1.07,0-1.82-.66-1.83-1.79-.02-1.12.69-1.7,1.74-1.89Z"/>
      <path class="cls-4" d="M400.11,177.22c-.07,1.17-.7,1.85-1.83,1.87-1.12.01-1.87-.67-1.88-1.78,0-1.08.66-1.87,1.81-1.85,1.09.02,1.78.64,1.89,1.77Z"/>
      <path class="cls-4" d="M446.72,184.76c-.24,1.04-.84,1.73-1.98,1.66-1.1-.07-1.83-.71-1.77-1.84.06-1.19.81-1.89,2.02-1.8,1.13.09,1.6.9,1.72,1.98Z"/>
      <path class="cls-4" d="M463.16,175.15c1.16.15,1.8.83,1.81,1.91.02,1.15-.79,1.79-1.84,1.8-1.18.01-1.93-.75-1.87-1.95.05-1.12.86-1.64,1.9-1.75Z"/>
    </g>
  </g>
</svg>