<?xml version="1.0" encoding="UTF-8"?>
<svg id="Calque_1" data-name="Calque 1" xmlns="http://www.w3.org/2000/svg" version="1.1" viewBox="0 0 425.2 425.2">
  <defs>
    <style>
      .cls-1 {
        fill: #fde4be;
      }

      .cls-1, .cls-2, .cls-3, .cls-4, .cls-5, .cls-6, .cls-7, .cls-8, .cls-9, .cls-10, .cls-11, .cls-12, .cls-13, .cls-14, .cls-15, .cls-16, .cls-17 {
        stroke-width: 0px;
      }

      .cls-2 {
        fill: #fe676c;
      }

      .cls-3 {
        fill: #fedf2f;
      }

      .cls-4 {
        fill: #fde4bf;
      }

      .cls-5 {
        fill: #feb541;
      }

      .cls-6 {
        fill: none;
      }

      .cls-7 {
        fill: #feb540;
      }

      .cls-8 {
        fill: #fe4654;
      }

      .cls-9 {
        fill: #fe636d;
      }

      .cls-10 {
        fill: #924d25;
      }

      .cls-11 {
        fill: #fe4754;
      }

      .cls-12 {
        fill: #fde5bf;
      }

      .cls-13 {
        fill: #fac601;
      }

      .cls-14 {
        fill: #fe636e;
      }

      .cls-15 {
        fill: #fec265;
      }

      .cls-16 {
        fill: #fbd69a;
      }

      .cls-17 {
        fill: #a15427;
      }
    </style>
  </defs>
  <path class="cls-6" d="M343.1,202.2c0,46.3,0,92.6,0,138.9,0,1.7-.3,2.1-2.1,2.1-85.7,0-171.3,0-257,0-1.7,0-2.1-.3-2.1-2.1,0-85.7,0-171.4,0-257,0-1.7.3-2.1,2.1-2.1,85.7,0,171.3,0,257,0,1.7,0,2.1.3,2.1,2.1,0,37.7,0,75.3,0,113-.8-3.3-1.4-6.6-2.4-9.8-5.1-17.3-15.4-31.1-29-42.5-6.6-5.6-13.7-10.5-21.5-14.3-2.2-1.6-4.6-2.7-7.1-3.7-2.9-1.6-5.8-3-9-3.7-6.3-2.9-12.9-4.6-19.5-6.3-8.4-2.1-16.8-3.5-25.4-4.2-1.6-.2-3.2-.5-4.8-.5-10.7-.3-21.5-.4-32.2.9-14.8,1.8-29.1,5.2-42.9,10.8-1.5,0-2.7,1-4,1.6-4.6,2.1-9.2,4.1-13.4,7-7.6,4.1-14.6,9.2-21,15-13.8,12.5-23.7,27.4-27.6,45.9-1.3,6.3-1.2,12.2,3.7,17.2,3,3.1,6.8,4.3,10.9,4.8-2.3,1.8-3.3,4.1-3.1,7.1.1,1.8.1,3.5,0,5.3-.2,3.1.9,5.6,3.4,7.4-7.3,1.9-10.8,6.3-10.9,13.8,0,2.6,0,5.2,0,7.9,0,7.3,3.3,11.6,10.4,13.7-6.5,2.7-10.4,7.5-10.2,14.6.2,6.2,1.6,12.3,4.5,17.8,2.8,5.3,7.2,8.8,13.1,10.3,2.7.7,5.5.8,8.3.8,10.4,0,20.8-.1,31.2-.2,1.8.6,3.5-.1,5.3-.1,11.6,0,23.2,0,34.8,0,43.4,0,86.8,0,130.2,0,8.6,0,15-3.8,19-11.3,2.1-3.9,2.9-8.3,3.7-12.6,1.7-9.8-1-15-9.7-19.4,4.9-1.2,8.7-3.9,9.7-8.9,1.2-5.7,1.2-11.7,0-17.4-1.3-5.9-6.1-8.8-13.3-9,2.6-2.1,3.5-4.8,3.2-8.1-.1-1.5-.1-3,0-4.6.3-3.2-.9-5.8-3.6-7.6,3.9,0,7.8.3,11.4-1.8,4.3-2.5,6.6-6.4,7.9-11Z"/>
  <path class="cls-15" d="M229.1,112.7c8.6.7,17.1,2.1,25.4,4.2,6.6,1.7,13.3,3.4,19.5,6.3-2.7,2.9-4.6,6.1-3.2,10.3,1.4,4.4,4.7,7.8,7.3,11.4,1.1,1.5,3.2,1.5,4.7-.2,1.3-1.5,2.6-3.1,3.3-5,2.3-2.6,4.3-5.4,4.1-9.1,7.8,3.8,14.9,8.7,21.5,14.3,13.6,11.5,24,25.2,29,42.5.9,3.2,1.6,6.5,2.4,9.8v5.1c-1.3,4.6-3.6,8.5-7.9,11-3.6,2.1-7.5,1.7-11.4,1.8-12.8,0-25.5,0-38.3,0-1.3,0-2.7,0-4,0-8.3,0-16.6,0-24.9,0-.3,0-.7,0-1,0-16.8,0-33.6,0-50.5,0-.3,0-.7,0-1,0-11.4,0-22.9,0-34.3,0-.8,0-1.5.2-2.3.4-.3-.1-.6-.4-.9-.4-10.2,0-20.5,0-30.7,0-.7,0-1.4,0-2,0-.5,0-1-.1-1.4-.2-.4-.7-1.2-.6-1.8-.9-6.8-3.1-10.6-9.8-9.4-17.2,2.6-16.5,10.1-30.5,21.2-42.7,7.2-7.9,15.6-14.3,24.6-19.9,3.6-2.2,7.2-4.4,11.2-5.9,0,2.4-.3,5,1.1,7.2,1.9,3,3.9,5.9,6,8.8,1.4,1.9,4,1.9,5.4,0,1.2-1.5,2.5-3,3.2-4.8.6-.8,1.2-1.6,1.8-2.5,3.6-5.4,2.8-10.5-2.3-14.3,0-.2,0-.4,0-.6.3-.3.5-.7.9-.8,9.5-3.3,19.1-5.6,29-7.3,1.9-.3,4.2.5,5.7-1.4ZM263.3,177.3c1.8-1.2,2.9-2.9,3.5-5,1.4-4.6-.7-8.1-3.5-11.4-.4-1.6-1.6-2.8-2.5-4.1-2.3-3.1-4.5-3.1-6.8,0-1.7,2.3-3.4,4.7-4.9,7.1-2.9,4.5-2,9.6,2.3,13.4,3,2.7,8.2,2.7,11.9,0ZM239.8,139.6c5.4-5.2,5.6-12,.5-16.4-3-2.7-6.5-3.2-10-1.5-3.4,1.6-5.6,4.2-5.8,8.2-.4,6.7,4.6,10.6,8,15.2.9,1.2,2.8.9,3.9-.2,1.4-1.5,2.9-3.1,3.4-5.2ZM217,177.3c1.8-1.2,2.9-2.8,3.5-4.8,1.6-4.7-.4-8.3-3.5-11.6-.5-1.8-1.7-3.1-2.8-4.5-2.1-2.6-4.1-2.7-6.1,0-1.7,2.4-3.4,4.9-5,7.3-1.9,2.7-2.4,5.7-1.4,8.9,1.9,6.3,10.5,8.9,15.3,4.7ZM171.1,160.9c-1.1-1.6-2.1-3.3-3.2-4.8-1.7-2.4-4.1-2.3-5.8,0-1.8,2.5-3.6,5.1-5.3,7.7-1.7,2.5-2.2,5.2-1.4,8.1,1.9,6.8,10.2,9.7,15.3,5.3,2-.8,2.8-2.6,3.5-4.3,1.8-4.7-.2-8.5-3-12Z"/>
  <path class="cls-15" d="M327.9,270.4c8.7,4.3,11.4,9.6,9.7,19.4-.7,4.3-1.6,8.7-3.7,12.6-4,7.5-10.4,11.3-19,11.3-43.4,0-86.8,0-130.2,0-11.6,0-23.2,0-34.8,0-1.8,0-3.5.7-5.3.1-.2-.8-.9-.6-1.4-.8-4.1-1.3-7.6-3.5-10.4-6.8-4.4-5.4-5.3-12-6.5-18.5-.9-4.7.4-8.7,3.2-12.5,1.5-2,3.7-2.9,5.5-4.3,3.2-.6,6.4-.4,9.6-.4,17.1,0,34.1,0,51.2,0,2.8,1.6,4.3,4.4,6.5,6.6,6,5.8,14.2,5.5,19.4-1.1,1.6-2,3.4-3.8,5.2-5.5,1.1,0,2.2,0,3.3,0,32.6,0,65.1,0,97.7,0Z"/>
  <path class="cls-5" d="M178.3,128.4c-4,1.5-7.6,3.7-11.2,5.9-9,5.6-17.4,12-24.6,19.9-11.1,12.2-18.7,26.2-21.2,42.7-1.2,7.4,2.6,14.1,9.4,17.2.6.3,1.4.2,1.8.9,0,.1,0,.3,0,.4-11.5,0-23,0-34.5,0-4.1-.5-7.9-1.7-10.9-4.8-4.9-5-5-10.9-3.7-17.2,3.9-18.5,13.8-33.4,27.6-45.9,6.4-5.8,13.4-10.9,21-15,1.7,4.2,4.4,7.7,7,11.3,2,2.8,4.1,2.7,6.1,0,1.7-2.3,3.3-4.7,4.9-7.1,2.4-3.6,2.5-7.3.3-11-.3-.6-1-1-.9-1.8,13.8-5.5,28.1-9,42.9-10.8,10.7-1.3,21.4-1.2,32.2-.9,1.6,0,3.2.3,4.8.5-1.6,1.9-3.8,1.1-5.7,1.4-9.9,1.7-19.5,4.1-29,7.3-.4.1-.6.5-.9.8-2.2-.5-4.1-1.7-6.6-1.3-4.5.7-7,3.5-8.7,7.5Z"/>
  <path class="cls-17" d="M327.9,270.4c-32.6,0-65.1,0-97.7,0-1.1,0-2.2,0-3.3,0,0-.2,0-.3,0-.5,4.8-4.6,9.4-9.2,14.6-13.3,10.9-8.6,22.6-15.5,36-19.1,3.3-.9,6.7-1.5,10.1-2.2,12.2,0,24.4,0,36.6,0,7.3.2,12,3.1,13.3,9,1.2,5.7,1.2,11.6,0,17.4-1,5-4.9,7.7-9.7,8.9Z"/>
  <path class="cls-7" d="M135,270.9c-1.8,1.5-4,2.4-5.5,4.3-2.8,3.7-4.1,7.7-3.2,12.5,1.2,6.5,2.1,13.1,6.5,18.5,2.7,3.4,6.3,5.5,10.4,6.8.5.2,1.2,0,1.4.8-10.4,0-20.8.1-31.2.2-2.8,0-5.6-.1-8.3-.8-5.9-1.5-10.4-5-13.1-10.3-2.9-5.5-4.3-11.6-4.5-17.8-.2-7.1,3.7-11.8,10.2-14.6.4,0,.8,0,1.3,0,11.7.6,23.4.3,35.1.1.3,0,.6.2.9.3Z"/>
  <path class="cls-10" d="M134,270.6c-11.7.2-23.4.5-35.1-.1-.4,0-.8,0-1.3,0-7.1-2.1-10.3-6.4-10.4-13.7,0-2.6,0-5.2,0-7.9,0-7.5,3.5-11.9,10.9-13.8,11.8,0,23.6,0,35.3.1,0,.1,0,.2,0,.3-.3.4-.6.9-1,1.1-3.5,1.9-5.4,4.8-6.3,8.7-.8,3.5-.3,7.1-.4,10.6-.1,6.2,2,11.2,8.2,13.7,1,.4.4.6,0,.9Z"/>
  <path class="cls-14" d="M324.3,235.2c-12.2,0-24.4,0-36.6,0-.9,0-1.7,0-2.6-.1-1.2-.7-2.2-1.7-2.5-3-1.3-5.8-2.4-11.6,2-16.7.3-.1.7-.3,1-.4,12.8,0,25.5,0,38.3,0,2.7,1.8,3.9,4.3,3.6,7.6-.1,1.5-.1,3.1,0,4.6.3,3.3-.6,6-3.2,8.1Z"/>
  <path class="cls-8" d="M133.5,235.3c-11.8,0-23.6,0-35.3-.1-2.5-1.8-3.6-4.3-3.4-7.4.1-1.8.1-3.5,0-5.3-.2-2.9.8-5.3,3.1-7.1,11.5,0,23,0,34.5,0,.5,0,1.1.1,1.5-.3.7,0,1.4,0,2,0-1.2,2.2-3,4.2-2.5,7.1.2,1.6.2,3.2,0,4.8-.3,3.3.6,6,3.1,8.1-1,0-2,.1-3,.2Z"/>
  <path class="cls-16" d="M149.3,123.8c0,.8.6,1.2.9,1.8,2.2,3.7,2.2,7.4-.3,11-1.6,2.4-3.3,4.7-4.9,7.1-1.9,2.7-4.1,2.8-6.1,0-2.6-3.6-5.4-7.1-7-11.3,4.2-2.9,8.8-4.8,13.4-7,1.3-.6,2.5-1.5,4-1.6Z"/>
  <path class="cls-16" d="M286.2,139.6c-.7,1.9-2,3.5-3.3,5-1.5,1.7-3.6,1.7-4.7.2-2.7-3.6-5.9-7-7.3-11.4-1.4-4.2.5-7.3,3.2-10.3,3.2.7,6.2,2.1,9,3.7-1.1,2.3-1.4,4.6-.5,7,.8,2.1,2.1,4,3.6,5.7Z"/>
  <path class="cls-1" d="M286.2,139.6c-1.4-1.7-2.7-3.6-3.6-5.7-.9-2.4-.6-4.8.5-7,2.5.9,5,2,7.1,3.7.3,3.8-1.7,6.5-4.1,9.1Z"/>
  <path class="cls-9" d="M205.2,215c16.8,0,33.6,0,50.5,0,.3.1.6.3,1,.4,3.9,5.1,3.7,15-.5,19.7-17.1,0-34.3,0-51.4,0-4.2-4.8-4.4-14.6-.5-19.7.3-.1.6-.3,1-.4Z"/>
  <path class="cls-8" d="M204.2,215.4c-3.9,5.1-3.7,15,.5,19.7-8.3,0-16.6.1-24.9.2-3.9,0-7.8-.1-11.7-.2-1.6-.7-2.6-2.1-2.9-3.6-1-5.6-2.1-11.3,2.3-16.1.8-.1,1.5-.4,2.3-.4,11.4,0,22.9,0,34.3,0,0,.1,0,.2,0,.4Z"/>
  <path class="cls-2" d="M167.6,215.3c-4.5,4.8-3.3,10.5-2.3,16.1.3,1.5,1.3,2.9,2.9,3.7-10.5,0-21.1,0-31.6,0-2.4-2.2-3.4-4.9-3.1-8.1.2-1.6.2-3.2,0-4.8-.4-2.9,1.3-4.9,2.5-7.1,10.2,0,20.5,0,30.7,0,.3,0,.6.2.9.4Z"/>
  <path class="cls-11" d="M256.1,235.1c4.2-4.7,4.4-14.7.5-19.7,0-.1,0-.2,0-.4,8.3,0,16.6,0,24.9,0,.9.7,2,.2,3,.4-4.5,5.1-3.3,10.9-2,16.7.3,1.4,1.4,2.3,2.5,3-9.7,0-19.3,0-29,0Z"/>
  <path class="cls-16" d="M170.7,177.3c-5,4.4-13.3,1.5-15.3-5.3-.8-3-.3-5.7,1.4-8.1,1.7-2.6,3.5-5.2,5.3-7.7,1.7-2.4,4.1-2.4,5.8,0,1.1,1.6,2.1,3.2,3.2,4.8-5.5,4.4-6.1,11.6-.5,16.3Z"/>
  <path class="cls-16" d="M217,177.3c-4.8,4.2-13.3,1.6-15.3-4.7-1-3.2-.5-6.2,1.4-8.9,1.7-2.5,3.3-4.9,5-7.3,2-2.7,4-2.6,6.1,0,1.1,1.4,2.3,2.7,2.8,4.5-5.6,5.7-5.6,12,0,16.4Z"/>
  <path class="cls-16" d="M178.3,128.4c1.7-3.9,4.2-6.7,8.7-7.5,2.4-.4,4.4.8,6.6,1.3,0,.2,0,.4,0,.6-5.9,6.2-3.9,12.2.5,16.8-.8,1.8-2.1,3.3-3.2,4.8-1.4,1.8-4.1,1.8-5.4,0-2.1-2.9-4.1-5.8-6-8.8-1.4-2.2-1.1-4.7-1.1-7.2Z"/>
  <path class="cls-16" d="M239.8,139.6c-.5,2.1-2,3.7-3.4,5.2-1.1,1.1-3,1.4-3.9.2-3.5-4.6-8.4-8.5-8-15.2.2-4,2.4-6.6,5.8-8.2,3.6-1.6,7-1.2,10,1.5-4.2,1.9-5.7,8.2-3,12.6.8,1.3,1.7,2.5,2.5,3.8Z"/>
  <path class="cls-16" d="M263.3,177.3c-3.7,2.8-8.9,2.8-11.9,0-4.3-3.9-5.2-8.9-2.3-13.4,1.5-2.4,3.2-4.8,4.9-7.1,2.3-3.1,4.6-3.1,6.8,0,.9,1.3,2,2.5,2.5,4.1-5.3,4.5-5.8,12.8,0,16.4Z"/>
  <path class="cls-12" d="M263.3,177.3c-5.8-3.6-5.3-11.8,0-16.4,2.8,3.3,4.9,6.7,3.5,11.4-.6,2.1-1.8,3.8-3.5,5Z"/>
  <path class="cls-4" d="M194,139.6c-4.4-4.5-6.4-10.6-.5-16.8,5.1,3.8,5.9,8.9,2.3,14.3-.6.8-1.2,1.6-1.8,2.5Z"/>
  <path class="cls-12" d="M217,177.3c-5.5-4.4-5.5-10.8,0-16.4,3.1,3.3,5.1,6.9,3.5,11.6-.7,2-1.8,3.6-3.5,4.8Z"/>
  <path class="cls-12" d="M170.7,177.3c-5.6-4.7-5.1-11.9.5-16.3,2.8,3.5,4.8,7.3,3,12-.7,1.8-1.5,3.6-3.5,4.3Z"/>
  <path class="cls-12" d="M239.8,139.6c-.8-1.3-1.7-2.5-2.5-3.8-2.7-4.4-1.2-10.7,3-12.6,5.1,4.4,4.9,11.2-.5,16.4Z"/>
  <path class="cls-2" d="M284.6,215.4c-1-.1-2.1.3-3-.4,1.3,0,2.7,0,4,0-.3.1-.7.3-1,.4Z"/>
  <path class="cls-2" d="M133.9,215.1c-.4.4-1,.3-1.5.3,0-.1,0-.3,0-.4.5,0,1,.1,1.4.2Z"/>
  <path class="cls-2" d="M204.2,215.4c0-.1,0-.2,0-.4.3,0,.7,0,1,0-.3.1-.7.3-1,.4Z"/>
  <path class="cls-2" d="M256.7,215c0,.1,0,.2,0,.4-.3-.1-.7-.3-1-.4.3,0,.7,0,1,0Z"/>
  <path class="cls-17" d="M134,270.6c.4-.3,1-.6,0-.9-6.2-2.5-8.4-7.4-8.2-13.7,0-3.5-.4-7.1.4-10.6.8-3.9,2.8-6.8,6.3-8.7.4-.2.7-.7,1-1.1.8.2,1.6.3,2.5.6,11.5,3.1,22.3,7.8,32.6,13.6,10,5.6,19.3,12.1,27.2,20.6-17.1,0-34.1,0-51.2,0-3.2,0-6.4-.1-9.6.4-.3,0-.6-.2-.9-.3Z"/>
  <path class="cls-13" d="M195.8,270.4c-7.9-8.4-17.2-14.9-27.2-20.6-10.3-5.8-21.1-10.5-32.6-13.6-.8-.2-1.6-.4-2.5-.6,0-.1,0-.2,0-.3,1,0,2-.1,3-.2,10.5,0,21.1,0,31.6,0,3.9,0,7.8.1,11.7.2,4.4,2.3,8.9,4.6,13.2,7.1,11.7,6.7,22.4,14.8,31.2,25.2.8.9,1.5,2.1,2.9,2.3,0,.2,0,.3,0,.5-1.9,1.7-3.6,3.5-5.2,5.5-5.2,6.6-13.4,6.9-19.4,1.1-2.2-2.2-3.7-5-6.5-6.6Z"/>
  <path class="cls-3" d="M227,269.9c-1.4-.2-2.1-1.4-2.9-2.3-8.8-10.4-19.5-18.4-31.2-25.2-4.3-2.5-8.8-4.7-13.2-7.1,8.3,0,16.6-.1,24.9-.2,17.1,0,34.3,0,51.4,0,9.7,0,19.3,0,29,0,.9,0,1.7,0,2.6.1-3.4.7-6.8,1.3-10.1,2.2-13.5,3.6-25.2,10.5-36,19.1-5.2,4.1-9.9,8.7-14.6,13.3Z"/>
</svg>