<?xml version="1.0" encoding="UTF-8"?>
<svg id="Calque_1" data-name="Calque 1" xmlns="http://www.w3.org/2000/svg" xmlns:xlink="http://www.w3.org/1999/xlink" version="1.1" viewBox="0 0 425.2 425.2">
  <defs>
    <style>
      .cls-1 {
        fill: #795b3b;
      }

      .cls-1, .cls-2, .cls-3, .cls-4, .cls-5, .cls-6, .cls-7, .cls-8, .cls-9, .cls-10, .cls-11, .cls-12, .cls-13, .cls-14, .cls-15, .cls-16, .cls-17, .cls-18, .cls-19, .cls-20, .cls-21, .cls-22, .cls-23, .cls-24, .cls-25, .cls-26, .cls-27, .cls-28, .cls-29, .cls-30, .cls-31, .cls-32, .cls-33, .cls-34, .cls-35, .cls-36, .cls-37, .cls-38, .cls-39, .cls-40, .cls-41, .cls-42, .cls-43, .cls-44, .cls-45, .cls-46 {
        stroke-width: 0px;
      }

      .cls-2 {
        fill: #3c1b02;
      }

      .cls-3 {
        fill: #cd8540;
      }

      .cls-4 {
        fill: #431610;
      }

      .cls-5 {
        fill: #a48867;
      }

      .cls-6 {
        fill: url(#Dégradé_sans_nom);
      }

      .cls-7 {
        fill: #988d7b;
      }

      .cls-8 {
        fill: #e0a774;
      }

      .cls-9 {
        fill: #bed2d2;
      }

      .cls-10 {
        fill: #736b64;
      }

      .cls-11 {
        fill: #725747;
      }

      .cls-12 {
        fill: #e6caa3;
      }

      .cls-13 {
        fill: #d2c8b3;
      }

      .cls-14 {
        fill: #999b8f;
      }

      .cls-15 {
        fill: #f4dfa2;
      }

      .cls-16 {
        fill: #a27d4f;
      }

      .cls-17 {
        fill: #b9b5b2;
      }

      .cls-18 {
        fill: #897269;
      }

      .cls-19 {
        fill: #672f0b;
      }

      .cls-20 {
        fill: #8c918d;
      }

      .cls-21 {
        fill: #5c5f61;
      }

      .cls-22 {
        fill: #cfcfcb;
      }

      .cls-23 {
        fill: #374453;
      }

      .cls-24 {
        fill: #a35f2c;
      }

      .cls-25 {
        fill: #000;
        isolation: isolate;
        opacity: .1;
      }

      .cls-26 {
        fill: #e0e4da;
      }

      .cls-27 {
        fill: #9a9795;
      }

      .cls-28 {
        fill: #f8f0e0;
      }

      .cls-29 {
        fill: #ccb88f;
      }

      .cls-30 {
        fill: #140d09;
      }

      .cls-31 {
        fill: #734329;
      }

      .cls-32 {
        fill: #695b4c;
      }

      .cls-33 {
        fill: #73736c;
      }

      .cls-34 {
        fill: #8a969c;
      }

      .cls-35 {
        fill: #f4e3bb;
      }

      .cls-36 {
        fill: #bf9a74;
      }

      .cls-37 {
        fill: #6b4b31;
      }

      .cls-38 {
        fill: #d6b58f;
      }

      .cls-39 {
        fill: #6f6e71;
      }

      .cls-40 {
        fill: #8c7256;
      }

      .cls-41 {
        fill: #c3c4b7;
      }

      .cls-42 {
        fill: #eae8e6;
      }

      .cls-43 {
        fill: #a38f68;
      }

      .cls-44 {
        fill: #bba788;
      }

      .cls-47 {
        display: none;
      }

      .cls-45 {
        fill: #4b5966;
      }

      .cls-46 {
        fill: #9fab9f;
      }
    </style>
    <linearGradient id="Dégradé_sans_nom" data-name="Dégradé sans nom" x1="283.3" y1="292.4" x2="160" y2="294.1" gradientTransform="translate(35.9 -96.7) rotate(9.1)" gradientUnits="userSpaceOnUse">
      <stop offset="0" stop-color="#180d0a"/>
      <stop offset=".7" stop-color="#641c1f"/>
    </linearGradient>
  </defs>
  <g id="café">
    <g>
      <g id="Background" class="cls-47">
        <path class="cls-17" d="M-6.7,183.8C3.7,119.2,14.1,54.7,24.4-10,158,11.4,291.6,32.9,425.2,54.4c-3.6,23-7.5,45.9-11.1,68.9l-.8.5c-12.1,73.4-23.2,147-35.4,220.4v5c-2.3,14.5-15.1,99.5-16.8,104.5l-231.8-37.6c-.3,0-.2,1.2-.6,1.2-9.3-1.3-18.8-3.7-28.1-3.7-46.8-7.6-93.7-15-140.5-22.6,8.3-52.4,16.8-104.7,25.1-157,4.3-16.2,5.6-33.4,8-50.1h.1Z"/>
        <path class="cls-17" d="M361,453.6c-.1.5,0,1-.2,1.6-86.7-14-173.5-27.9-260.3-41.8,9.4,0,18.8,2.4,28.1,3.7.3,0,.2-1.2.6-1.2l231.8,37.6h.1Z"/>
        <path class="cls-17" d="M377.8,349.2v-5c12.2-73.4,23.3-147,35.4-220.4l.8-.5c-12,75.3-24.1,150.6-36.2,225.8Z"/>
        <path class="cls-22" d="M-14.8,233.8c2.7-16.7,5.4-33.4,8-50.1-2.4,16.7-3.7,33.9-8,50.1Z"/>
        <path class="cls-9" d="M187.5,402.1c1.5-3,9.3-2.3,14-3.4,4.4-.9,9.6-2.2,13.9-3.8,1-.3,19.7-9,21.2-9.8,22.5-11.8,58.7-35.7,59.8-63.5,7-7.1,16.1-18.8,22.4-26.9,5.8,1.4,13.4,2.7,18.9-.1,4.2.5,4.5,1,8.2-1,6.5-3.7,10.8-15,7.6-21.9-2.4-5.2-12.6-9.9-17.7-12.2,18.5-62.5-8-129.2-62-164.9-67.6-44.6-156.2-20.4-198.3,46.4-8.4,4.4-15.1,13.3-22,19.6-8.2,7.5-15.8,12.2-22.7,21.7-2.2,3-3.7,8.5-7.2,9.9,2.8-18.3,5-29.5,12.4-46.8,16.1-38.1,52.4-80.4,91.5-95.9,60.6-24,140.1-13.9,189,30.8,31,28.2,59.6,82.6,55.1,125-1.4,13.5-6.5,27.5-7.5,38.9-.5,5.4.7,12.2.3,17.7-1.3,24.8-12.5,57.6-26.2,78.5-18.1,27.4-53.8,48.2-84.4,59-26,9.1-39.2,9.4-66.1,3h0Z"/>
        <path class="cls-27" d="M26.6,220.9c-3,6.2-11.1,18.3-13.1,23.8-3.7,10-6.4,31.3-6.4,42.3s1.5,7.3.6,13.8c3.3,4.5,2.7,15.1,3.3,17.4.2.8,5.8,12.9,7.1,15.6.5,1-.1,2.6,0,2.8.5,1.2,2.4,1.6,3.1,2.9,2.8,5,3.6,7.7,7.8,12.7,9.4,11.5,27.6,22.8,41.8,27.2,3.7,1.2,21.4,5,25.5,5.7,3,.5,28.6,3.6,30.3,3.6,3.8.2,11.1-1,15-1.2,2.2,0,7.1,1.4,13.9.2,3.5.9,8.2-.9,6.2.6l-10.8,2.7c4.7.2,13.9-1.2,2.8,1h7l-4.2,1.4,6.1-.2-3,1.5,6.5-.6c-6.8,2.9-.2.5,2.4,1.4-7.3,2.2,7.1-.5,1.7,1.5.2.9,4.9-.3,5.8,0l-1.4.9h3.1l-.3.8c-6.3,0-11.4,4-17.5,5.2-.9.2-17.8,2.3-19.7,2.4-6.8.6-13.8.6-20.6.7-5,0-10.1-.8-15.1-.8s-10.8,1.2-13.1,1.2c-15.1,0-46.5-5.1-62.6-8-9.4-1.7-36.5-6.6-43.7-10.3-13.1-6.4-17.7-23.4-16.3-36.9,4.2-25.4,6.4-52.9,12.9-77.8.2-.8,1.5-3.3,2-4.5.8-2.7.8-5.8,1.7-8.5,1.2-3.3,9.9-21.6,12.1-25.4,7.3-13.2,24.1-33.1,24.9-35.2l1.3-.3-1,2.8,1.6-1.2c-.1,1.7-3.4,4.1,0,3.1-5.6,9.2,3.3-2.4-2.3,6.9l2.7-2-3.3,5.1,3.3-2.7c0,.9-3.5,4.5-2.6,5,4.4-4.1-4,6.8,2.6.2l-3.4,5.8c3.4-2.3,9.1-11.9,5.2-2.9h0v.2Z"/>
        <path class="cls-34" d="M187.5,402.1c-1.3-.3-6.3-.8-6.4-1-.8-1.4,2-2.2-3.5-2.2l.3-.8h-3.1l1.4-1c-.9-.2-5.6,1-5.8,0,5.4-1.9-9.1.7-1.7-1.5-2.7-.9-9.1,1.5-2.4-1.4l-6.5.6,3-1.5-6.1.2,4.2-1.3h-7c11-2.3,1.7-.9-2.8-1.2l10.8-2.7c2-1.5-2.6.3-6.2-.6,8.4-1.5-.2-.7-2.9-.8-4.3-.3,1-.9,2.3-1.6l-9.2-.2,5.4-1.2-8.3-.9,3-1.2c-2.9-.9-7.6.2-6.5-1.5,6.9-.5-.8-.7-3.4-1.7l10.8-.2c-5.7-.9-11.5-1.9-17.2-2.8l13.5.9c-4.2-.8-8.3-1.6-12.5-2.4l3.5-.7c1.9.1,3.7,0,5.6,0,10.4,0,10.3-1,10.8-1,19.7-1.2,40.3-1.5,59.6-6.1,5.8-1.4,12-4.1,17.5-5l-1-1.2c24.2-5.6,52.2-20.9,69.7-38.6-1,27.7-37.3,51.7-59.8,63.5-1.6.8-20.2,9.4-21.2,9.8-4.3,1.6-9.3,2.8-13.9,3.8-4.7.9-12.5.3-14,3.4h0v.2Z"/>
        <path class="cls-34" d="M75.2,140.7c-8.2,12.9-15.4,28.2-19.3,43-.9-.3-2.2.7-2.7,1.4-3.7,5-17.9,42.7-22.1,52.4-1.3,1.9-1.3,4.1-1.7,6.2.8-11.5,5.1-19.9-1.5-2.9l3.6-12.7-2.4,5.2-.3-1.5c-4.1,7.9.8-4.5.3-4.8-5.1,7.3,3.5-8.4-2-1.3,0-.9,2.7-4.5,1.9-5.1-2.3,3.3-.6-.8.8-3.7l-3,3.7c3.8-9-1.9.7-5.2,2.9l3.4-5.8c-6.5,6.5,1.9-4.3-2.6-.2-.8-.5,2.6-4.1,2.6-5l-3.3,2.7,3.3-5.1-2.7,2c5.6-9.3-3.3,2.4,2.3-6.9-3.3.8,0-1.5,0-3.1l-1.6,1.2,1-2.8-1.3.3c.7-1.7,0-5.6.7-9.1,3.4-1.4,5-6.9,7.2-9.9,6.9-9.4,14.6-14.1,22.7-21.7,6.9-6.3,13.6-15,22-19.6h0v.2Z"/>
        <path class="cls-17" d="M-15.8,246.5l-1.6,12.9c-.8-2.9.7-9.8,1.6-12.9Z"/>
        <path class="cls-42" d="M335.7,259.2c-.5-.2-.6-.7-1.2-.6,17.1-58-5.5-121.3-53.6-157.6-40.2-30.3-88.8-36.8-135.5-17.7-11.7,4.8-21.2,10.4-31.3,17.8-29.8,21.9-45.9,46.5-57.2,81.6-.3.9-.8,3-1.6,2.6.1-.7.5-.8.7-1.5,4-14.8,11.2-30.1,19.3-43,42.3-66.9,130.9-91.1,198.3-46.4,54,35.7,80.5,102.4,62,164.9h.1Z"/>
        <path class="cls-42" d="M318.7,294.6c-6.3,8.2-15.4,19.8-22.4,26.9-17.5,17.7-45.4,33-69.7,38.6-3.6.8-7.6,1.7-11.2,2.2-24.2,3.3-50.8-.2-73.7-9.1l1.3-.6c.7.2,2,.9,2.6,1.2,11.4,3.8,27.3,7,39.3,7.9,22.6,1.9,45.2-2.3,65.8-11.5,6.5-2.9,30-15.7,33.7-20.7,13.3-9.9,23-23.3,33.8-35.5.5.1.3.5.3.5h0v.2Z"/>
        <path class="cls-39" d="M29.4,243.7c-.8,3.6-1.5,7.1-1.7,10.7-.9,13.8,4.3,48.9,9.8,61.8,5.4,12.7,14.9,24.2,25.9,32.5,20.3,15.1,46.4,20.7,71,24.6l-3.5.7c4.2.8,8.3,1.6,12.5,2.4l-13.5-.9c5.7.9,11.5,1.9,17.2,2.8l-10.8.2c2.4,1,10.3,1.3,3.4,1.7-1,1.6,3.6.6,6.5,1.5l-3,1.2,8.3.9-5.4,1.2,9.2.2c-1.2.7-6.5,1.3-2.3,1.6,2.6.2,11.3-.6,2.9.8-6.6,1.2-11.7-.2-13.9-.2-4,0-11.2,1.4-15,1.2-1.7,0-27.4-3.1-30.3-3.6-4.2-.7-21.8-4.5-25.5-5.7-14.2-4.3-32.3-15.6-41.8-27.2-4.2-5-5-7.7-7.8-12.7-.7-1.3-2.7-1.7-3.1-2.9,0-.2.6-1.7,0-2.8-1.3-2.7-6.9-14.7-7.1-15.6-.6-2.3,0-12.8-3.3-17.4.9-6.5-.6-13.1-.6-13.8,0-11,2.7-32.3,6.4-42.3,2-5.5,10-17.7,13.1-23.8l3-3.7c-1.4,2.8-3.1,7-.8,3.7.8.6-1.7,4.1-1.9,5.1,5.5-7.1-3.1,8.6,2,1.3.5.2-4.5,12.7-.3,4.8l.3,1.5,2.4-5.2-3.6,12.7c6.8-17,2.3-8.7,1.5,2.9h0v-.3Z"/>
        <path class="cls-23" d="M55,186.8c-1.9,7.9-3.1,15.7-3.8,23.9,0,.7-.2,1.3-.3,2-1.6,23.9,4.5,47.7,15,69.1,15.5,31.6,43,58.9,76,71.7,22.8,8.9,49.3,12.4,73.7,9.1l.8.3c-24.5,9.2-52,4.1-77.8,6.2-19.2-2.4-10.7-.8,2.2,1.5l-18.9-.2,18.2,3.3h-5.6c-24.6-3.8-50.6-9.4-71-24.6-11.1-8.3-20.5-19.7-25.9-32.5-5.5-12.8-10.7-48-9.8-61.8.2-3.7.9-7.1,1.7-10.7.5-2.1.5-4.3,1.7-6.2-.5,4.9-2.9,13.9-1.2,12.1.5-2.3,1.4-11.4,1.6-5l1.2-4.7-.2,6.4c2.4-11.3,15.1-48.7,19.5-56.3.3-.6,2.1.2,2.2-3.6l.8.3h0v-.3Z"/>
        <path class="cls-45" d="M226.7,360.1l1,1.2c-5.5.9-11.5,3.6-17.5,5-19.2,4.5-39.9,4.9-59.6,6.1-.6,0-.5,1.2-10.8,1l-18.2-3.3,18.9.2c-12.9-2.4-21.3-4-2.2-1.5,25.9-2.1,53.5,3.1,77.8-6.2l-.8-.3c3.6-.5,7.6-1.4,11.2-2.2h.1Z"/>
        <path class="cls-45" d="M55.9,183.8c-.1.7-.5.8-.7,1.5-.1.5-.1,1-.2,1.6l-.8-.3c0,3.8-1.9,3-2.2,3.6-4.3,7.6-17,45-19.5,56.3l.2-6.4-1.2,4.7c-.2-6.5-1,2.7-1.6,5-1.7,1.7.6-7.1,1.2-12.1,4.1-9.8,18.4-47.4,22.1-52.4.5-.7,1.7-1.7,2.7-1.4h0Z"/>
        <path class="cls-42" d="M218.2,95.8c6.1,1.7,12,3.3,18.1,5.4,5.6,1.9,11,4.2,16.4,6.3,3.6-10.5,6.1-4.2,7.2-4.1v.8c-2.9.5-7.3,1.4-4.5,4.9s5.5,3.4,6.1,3.7c7.2,5,14.5,9.9,21.4,15,2,1.5,4.9,4.7,5.2,4.9,1.3.8.2.6,1.9.7,0,1.7,1.5,2.2,1.6,2.3,2.9,4.5,12.4,18.1,13.9,21.1.5,1,.9,1.3.9,1.4s-.2.7.1,1.6c0,0-.8.1-.6.9,2.7,6.1,5.8,11.9,7.7,18.3,5.5-10-7.1-13.4-1.2-17.8l.8.9c.5,2.2,2.2,4,3,6.1,2.1,5.4,1.2,4.4,0,7.6-2.2,6.1-4.9,3.7,2,11.5-1.4-6.6.6-7.1.6-7.6h.3c.2,1.4,0,2.8.1,4.1,0,1.7-.1,5.2.6,6.5.2.5.2.6.7.9.9,6.8.8,13.6,1.2,20.5-2.8,12.7.5-14.8-3.5-23.1-4.8-9.8.3,7,.9,13.9.9,9-.6,21.2,0,22.1.5.7,3.3-.5,2.2,3.7-2.6-5.7-3.4,4.8-1.3,2.8,0-1.3,1.2-2.4,1.3-2.8,1.2,2.7-.3,2-.2,3.7,0,.2,3.7,4.2,0,3.8-3-6.9-3.7,2.8-3.5,3.3.2.6,9.6.3,4.4,7.3,0-3.7.6-7.5-4.8-5-2.8,4.8.9,5.4,4.5,7-.8,7.9-.8,2.2-2.4.3-2.8-3-4,.2-6.9.5l-15.3-5c14.2-42.1-6.3-90.4-42.4-114.7-45.7-30.5-104.3-20.7-137.9,22.4-1.6,2.1-4.8,5.7-6.1,7.8-6.1,2.7-9.3,9.1-13.9,13.6-2.4,2.4-6.8,4.9-9.2,7.3-1.5,1.5-3,6.6-8.3,9,.1-.7.1-1.3.3-2,4.7-21.6,14.8-40.1,30.3-55.8,1.6-1.7,5.5-4.3,5.9-4.9,2.4-2.9-1-1,2.2-3.8,6.6-1.7,14.1-9.4,23.4-14.3,4.7-2.4,9.8-4.1,14.5-6.5,1-.6,3.1,0,3.3-1.9-14.1-1.4-13.8,3.5-17.2,4.9-7.3,2.8,3.6-5.5,5-6.1,6.2-2.4,13.5,1,14.3,1,1.6,0,7.1-4.4,7.6-4.4s.8,3.7,5.9-1.9l1.2,2.6c8.4-3.4,13.4-2.2,15.3-2.3,1.2,0,2.4-.9,3.7-1,1.3,0,2.6,1.2,3.8,1,.6,0,1.3-1.5,2.3-1.6,2.2-.2,2.8,1.6,4.1,1.9,2.7.5,5.9.7,8.6.9,1.5.2,2.8-1.2,3-1.2.8,0,.2.8.8.9h0v.3Z"/>
        <path class="cls-35" d="M334.5,258.6l-19.1-7.5c-1.2-.9.8-4.4,4.2-2.1,1.6,1.7,1.6,7.5,2.4-.3.1-1.6.3-1.9.3-2,5.1-7-4.2-6.8-4.4-7.3-.2-.5.5-10.1,3.5-3.3,3.7.3,0-3.5,0-3.8,0-1.7,1.4-1,.2-3.7.9-4.2-1.7-3-2.2-3.7-.6-.9.8-13.1,0-22.1-.7-6.9-5.7-23.7-.9-13.9,4,8.3.7,35.8,3.5,23.1-.2-6.9-.2-13.6-1.2-20.5,0,0,2.1.1,2.9.8,1,1,0,1.3,0,1.6,0,4.4.5,4.3,2.3,8,0,0-.1.6.2,1.3h-1.2c2,7.9,8,8.5-.1,16.1-1.3,1.2-2.4.1-2.6.8-.1.8,1.6,1.7,0,4.4,1.5,1,1.3-2.3,1.6-2.9.3-.5,8-9.9,8.2-8.2.1.3,1.3,1.5,1.6,3.5l.8-1c-1,16.9-5,15.6-5.6,17.4-.5,1.3,1.9,12.5-1.2,22.3l1.3-.2c5.8-32.2,11-42.2.3-74.6-1.2-1-4.7,3.3-5.8,4.1-.3-.1-.1-1-4-.6,0-1.3.1-2.7-.1-4.1,2.1,0,6.2-.2,5.4-3.1,1-3.6-.8-3-3.5-3s-1.9.9-2,.9c-.5-.3-.3-6.6-2.8-6.5-.8-2.1-2.6-3.8-3-6.1,0-4.9,1-11.1-4.7-12-.2,0,0,1.6-2.1-.3,0-8.9-5.4-17.5-8.7-13.1-1.7-2-1.2-2.4-1.2-2.6s.5-.3-.7-2.1c-2.1-3.3-8.5-4.7-1.6-3.7-2-4.9-7-12.1-12.4-13.4-.7-2-7-1.9-10.6-2.9-.3,0-2.3-3.1-5.9-1.7-2.1-1.4-4.3-1.6-5.1-4.4-2.4-.2.5.8.1,2.8-.2,0-4.2-.5-4.7-2.3-1.5,2.1-.2,1.5-.2,2.8h-.3c-2.8-3.6,1.6-4.5,4.4-5,6.8-1.2,12.9.8,15.8,7.3l.7-.5c-4.8-11.5-15.4-7.5-16.4-7.7-1.2-.2-3.7-6.4-7.2,4.1-5.5-2.1-10.8-4.4-16.4-6.3l1.3-1.4c-3.1-.2-7.6-1-5-5,1.4-2.2,3.4.5,3.4-1.3,8.6,6.6,4.2,9.6,17.4,3.1,6.5,5.8,3.8.7.3-1.2-4.2-2.3-7.6,3.4-8,1.2-7.3-1.9-6.6-7.8-18.4-8.2-2.2,1.4-6.9.3-9.6,1.6-4.9-6.3-14.8-6.5-20.9-1.5l.8,1.5c8.6-9,30.8,1.6,7,1.2,4,5.2,9.4-1.2,12.4.3.9.5-1.9,3,13.4,5,0,.1,1.9,1.3-1.5.9-2.7-.2-5.1-2.6-10.7-1.7-.6-.1,0-1-.8-.9-.1,0-1.4,1.3-3,1.2-2.8-.3-5.9-.6-8.6-.9-1.3-.2-2-2.1-4.1-1.9-.9,0-1.6,1.5-2.3,1.6-1.3.1-2.6-1-3.8-1s-2.7.9-3.7,1c-1.7.1-6.9-.9-15.3,2.3l-1.2-2.6c-5.1,5.6-5.4,2-5.9,1.9-.5,0-5.8,4.3-7.6,4.4-.7,0-8.2-3.5-14.3-1-1.4.6-12.4,8.9-5,6.1,3.5-1.4,3.1-6.2,17.2-4.9-.1,1.7-2.2,1.3-3.3,1.9v-.8c-1,0-16.8,7.1-18.6,8.3-1.2.7-2.3,3-3.7,1.9,1.9-2.1.6-2.6-1.7-2.7-2.4,1.3-4.8,5.1-.5,4l.2,1c-4.9,2.2-7.3,5-12,8.3-.1,0-1-.3-1.2-.2-.5.3-.2,1-.3,1.2-3.3,2.9.1.9-2.2,3.8s-4.3,3.1-5.9,4.9c-2.8-.6-7.7,7.3-8.3,7.5,0,0-.9-.9-1-.9-1.5,0-7.1-.9-7.5-.8-.1,0-2.9,2-2.9,2.1,0,.5,2.8,3.6-4.9,5.8-2.3.7-2.8.6-5.1-.5,7.9-13.6,21.8-30.3,34.5-39.6,9.1-6.8,8-5.4,16.2-5.6,2.8,0,5.8.9,8.2,0,1.3-.5,4.8-4.8,6.8-6.2v.8c4.8-3.7,8.9-.7,13.5-.2.8.2,4.5,1.6,4.8,1.6.8-.1,1.3-2.3,2-3.3,1.9.2,4.2-3,6.1-3.8,4.2-1.7,8,.5,7.5-4.1-13.8-1.3-15.8,7.6-16.9,7.7-4.1-1.9-7.1-6.5-11.5-1.9-8.4,1.7-7.7,7.2-21.4,8.2-1.7.1-3.5,0-5.1.8,28.7-20.5,67.7-25.5,102.3-17.2,15.1,3.6,17.1,9.1,18.2,9.3.5,0,3.4-2.3,9.7-.5.8.2,14.5,7.6,15.8,8.6,2,1.3,3.8,3.6,5.6,4.9,19.6,13.9,13.5,10.5,27.5,26.5,2.1,2.3,14,12,4.4,7.6-1.5,4.4,6.2,5.7,4.2,0-.8-2.3-19.7-23-25.4-28-1.5-1.3-17.9-14.1-18.9-14.7-2.2-1.3-19.7-9.1-22.5-10-1.5-.6-18.3-5.2-19.6-5.6-35.8-7.8-68.5-2.9-99.8,16.1-21.1,12.8-38,31.6-50.1,53-4.9,8.6-11.4,23.5-14.1,33.1-1.7-.2-2.8.5-5.6-.5,11.4-35.1,27.4-59.7,57.2-81.6,1.6,2,5.7-2.6,11.2-5.8,7.6-4.5,19.8-9.6,20.4-10.6.2-.3-.5-.8-.1-1.4,46.6-19.1,95.2-12.6,135.5,17.7,48,36.2,70.6,99.5,53.6,157.6h-.3Z"/>
        <path class="cls-9" d="M288.2,275.3c1.6,2.2,5,4.9,7.3,6.8-1.2.9,1.9,2.1-.2,1.7-1,6.2-8.3,12.5-11.8,17.9-9.1,8.6-12,11.7-23.3,17.9-11.1,6.1-22.7,10.3-35.1,13.3-8.4,2-16.8,3.8-25.5,4-.2,0-.6-.1-.8-.1-8.5-1.7,5.7-6.3,9.6-8.5,11.7-6.5,26-14,34.8-23.3,15.8-7,30.5-18.2,40.6-32.4,1.5.7,2.9,2,4.4,2.7h0Z"/>
        <path class="cls-34" d="M243.2,305c-8.9,9.4-23.2,16.8-34.8,23.3-3.8,2.2-18.2,6.6-9.6,8.5-8.3,0-15.6-.9-23.8-2.2-5.2-.8-10-2-15.1-3.3-4.5-1.2-9.1-2-13.4-3.7-3.4-1.4-6.2-3.5-9.2-5.5,8.6-1.6,17.2-2.1,25.8-4.3,2.9-.7,12.5-3.6,13.9-5.4,10.1,2,30.1,3.7,39.7.3,9-1.5,18.2-4.1,26.6-7.8h0Z"/>
        <path class="cls-12" d="M62.4,183.2c-1.9,6.6-2.4,10.4-3.5,17.1-.3,0-.7,0-.8-.1-2.7-3.1-2.2,7.1-6.9,10.5.7-8,2-16,3.8-23.9,0-.5.1-1,.2-1.6.8.5,1.3-1.6,1.6-2.6,2.8.9,3.8.2,5.6.5h-.1Z"/>
        <path class="cls-35" d="M114.2,101.2c10.1-7.5,19.7-13.1,31.3-17.8-.3.6.5,1,.1,1.4-.6.9-12.8,6.1-20.4,10.6-5.5,3.3-9.6,7.8-11.2,5.8h.1Z"/>
        <path class="cls-12" d="M284.5,329.7c-3.7,4.9-27,17.8-33.7,20.7-20.6,9.2-43.4,13.4-65.8,11.5l1.7-1.2c-6.6-3.6-1.5-2.1,1.5-4.4,4.3.2,8.6,0,12.9-.3,4.4-.2,7.9-.6,12.2-1.3.7,1.7,10.8.5,9.6-2.1.9,0,1.7.3,4.8,0,1.7-.2,3.5-.5,5.4-.7,1.4-.2,2.3-.2,3.7-.6,4.5-1,17.1-6.1,20.9-8.3,8-4.8-1.4-.7-1.9-.7s-1.5-.6-2.9-.8c-10.8-2.4-.9-.3,7.6-7.2,0,1,2.1-.3,2.6-.8,2.6,2.6,4.4-1.7,5.7-3.1.5,7.5-4.9,7.2-3.5,8.3,8.7-4.9,17.1-10.8,24.4-17.8,2.2,1.4-3.4,4.2-3.5,4.4-.1.2-1.3,4.1-1.5,4.4h-.1Z"/>
        <path class="cls-35" d="M313.4,292.6c-4.7,5.8-15.5.2-14.3,10.6,2,0,0-.9.7-2.9,1.4-3.7,13.5-5.1,11-3-2.2,3.6-13.6.8-4.7,3,4.1-.5,6.6-3.7,8.5-7.1,1.3.3,2.6.7,3.8,1-10.8,12.2-20.5,25.6-33.8,35.5.2-.2,1.4-4.2,1.5-4.4.2-.2,5.7-3,3.5-4.4,2.7-2.6,5.2-4.7,3.6-5,1.7-1.3,11.2-10.5,10.7-12.1-2.2-2.2-1.7,3.4-2.2.2l-5-.2c-4.2,7.9,5,5.6-5,11.4-1-1.4,1-1.2,1.3-2.8.5-4-3.5-4.9-6.9-4.5-2,.2,0,.7-.6,1.3-3,3.5-9,4.1-9.8,4.7-.2.1-1,2.1-1.4,2.4-.1,0-1.3,0-3.5,2.1-1.2.2-.3-.2-2.6.8-2.3-.5-6.4,4.3-8.2.7,11.3-6.3,14.2-9.3,23.3-17.9,2.6-2.4,5.6-5.8,5.9-5.8.9,0,3.3,5.4,4.3,4.1.9-5.5-7.3-2.7-.2-9.4,5.5,7.8,4,1.9,15,0,1.6.7,3.3,1.4,4.9,2h0Z"/>
        <path class="cls-44" d="M161.4,349.6c-.1,2.8-2,2.1-2,2.3,9,2.3,19.7,4,29,4.4-3,2.2-8.2.8-1.5,4.4l-1.7,1.2c-12-.9-28-4.1-39.3-7.9,1.7-3.1,6.1-2,5.8-3.8.3,0,.8,0,1.2.2,1.9.5,3.8.9,5.6,1.6.7-.5-.2-.8,0-1.6.8-2.3.5-1,2.9-.7h0Z"/>
        <path class="cls-46" d="M69.8,287.5c3.7,6.6,8,12.5,12.7,18.5,12,15.5,23.9,26.5,40.7,36.7,4.2,2.4,5.8,3.5,10.4,5.7,3.3,1.6,6.3,3.1,9.8,4.4l-1.3.6c-33-12.7-60.5-40.1-76-71.7l.5-.3c1,2.1,2.3,4.1,3.4,6.2h-.1Z"/>
        <path class="cls-5" d="M151.6,350.1c.2,1.9-4.1.8-5.8,3.8-.7-.2-1.9-.9-2.6-1.2-3.4-1.3-6.4-2.8-9.8-4.4,2.1-2.6,4,0,4.8-2.1,3.4,1.3,9.7,2.9,13.4,3.7h0Z"/>
        <path class="cls-42" d="M297.6,284c-2.9,5.5-4.7,4.1-.5,9.2,6.2-1.2,3.1-2,2.6-7.2,2.4,1.7,6.1,3.4,8.9,4.7-11.1,1.9-9.6,7.8-15,0-7,6.8,1.2,4,.2,9.4-1,1.3-3.4-4.1-4.3-4.1s-3.4,3.5-5.9,5.8c3.5-5.5,10.6-11.8,11.8-17.9,2.1.3-.9-.8.2-1.7.7.6,1.4,1.4,2.1,2h0Z"/>
        <path class="cls-15" d="M299.7,286c.6,5.2,3.6,6.1-2.6,7.2-4.2-5-2.4-3.7.5-9.2,2.2,1.6,2,1.9,2.1,2h0Z"/>
        <path class="cls-28" d="M314.5,293.2c-1.9,3.3-4.5,6.5-8.5,7.1-9-2.3,2.6.6,4.7-3,2.7-2.1-9.6-.7-11,3-.8,2,1.3,2.8-.7,2.9-1-10.3,9.7-4.8,14.3-10.6,1.5.6,1,.6,1.2.6h0Z"/>
        <path class="cls-38" d="M58.1,200.2c-.3,4.5-1.7,9-2.6,13.4,0,.6,2.3,5.7-4.1,10-.1-4.2.8-10.1-.7-11,0-.7.2-1.3.3-2,4.8-3.5,4.3-13.8,6.9-10.5h.1Z"/>
        <path class="cls-41" d="M51.5,223.6c.1,4.9.6,9.8,1.3,14.7,1.2,8.3,3.1,14.8,5.6,22.6,2.3,7.2,4.5,13.8,7.9,20.5l-.5.3c-10.5-21.3-16.7-45.1-15-69.1,1.4.8.5,6.8.7,11h0Z"/>
        <path class="cls-9" d="M99,185.4c-3,1.6-3.8,5.5-5.7,8.2-4.1,5.7-11.5,13.8-16.3,19.2.3-5.7.7-11.4,1.5-17,.3-2,.9-3.8,1.3-5.8,5.2-2.3,6.8-7.5,8.3-9,2.4-2.4,6.8-4.9,9.2-7.3,4.5-4.5,7.8-11,13.9-13.6-4,6.2-9.7,18.4-12.1,25.4h0Z"/>
        <path class="cls-12" d="M110.3,132.3c-15.5,15.7-25.5,34.3-30.3,55.8-1.4,0,.2-6.8-1.2-6.6-1,2.9-4.1,7.2-4.3,7.9-.1.5,1,3.4-1.4,3.6,1.2-7,3-13.8,5.7-20.4,4-1.6,1.5-1.5,2-2.7,1.4-3.1,7.1-13.9,9-15.8.5-.5,7.5-3.7,7.3-9.4l-3.5,5.2c-3.7-2,8-8.6,3.3-10.5-4.1-2.2-7.8,4.4-4.9,7.7-.2,1.9-.3,0-2,0-3.1,0-3.7,1.6-4.7-1.2,7.8-2.2,4.9-5.4,4.9-5.8s2.8-2.1,2.9-2.1c.3,0,5.9.7,7.5.8,0,0,.9.9,1,.9.6-.1,5.4-8,8.3-7.5h.3Z"/>
        <path class="cls-35" d="M329.2,189.5c4.8,7.1,5.9,17.8,5.5,26.2l-.8,1c-.3-2-1.5-3.1-1.6-3.5-3.7-7.2-5.7-9.6-5.9-10.1-.3-.6-.1-1.2-.2-1.3,3.7.9.6-7-2.3-8,0-.3,1.2-.6,0-1.6-.7-.7-2.8-.8-2.9-.8-.5-.3-.5-.5-.7-.9.6-8.4,4.5-4.7,9-.9h.1Z"/>
        <path class="cls-35" d="M313.6,162.1l-.8-.9c-5.9,4.4,6.5,7.9,1.2,17.8-1.9-6.4-5-12.2-7.7-18.3-.3-.7.6-.8.6-.9,3.3.7,7.8-4.4,4.2-7.7-7.5-1.7,2.2,6.5-4.4,6.1,0,0-.5-.3-.9-1.4,0-1.6,3,1.5,2.9-.6,0-.3-2.6-3.8-2.9-4.3.8-.3,1.2-1.4,1.2-2.2,2.1,2.1,1.9.3,2.1.3,5.7.9,4.8,7.1,4.7,12h0Z"/>
        <path class="cls-38" d="M80.1,188.1c-.1.7-.2,1.3-.3,2-.3,2-1,3.8-1.3,5.8-1.7,2.8-.5,8.9-2.9,7.9.2-2.8,1.3-4.8,1-5-4.9-1.4-1.5-.2-4.3,2.9.1-2.9.5-5.8.9-8.6,2.4-.2,1.3-3.1,1.4-3.6.2-.7,3.3-5,4.3-7.9,1.4,0-.2,6.6,1.2,6.6h0Z"/>
        <path class="cls-35" d="M290.7,126.7c-5.4,0-5.6-2.8,2.4,5l-5,1c-.3-.2-3.3-3.4-5.2-4.9-1.4-2-4.3-4.3-6.3-5.8,3.3,0,1.5-1.2,2-1.3.3,0,1.5,1.9,5.6,2.9.3,0,.8-1,.9-1,.2,0-.2,1.2,3.7,1.7l1.9,2.3h0Z"/>
        <path class="cls-35" d="M297,140.2c1.7,2.9.6,0,.9-1,4.1,1.5,5.9,4.4,5.4,8.9-1.3-1.5-1.9-3.3-3.5-4.5,0,3.6,2.2,5.8,4.3,8.3.6.7,1.3.1,1.4.2.3.5,2.9,4,2.9,4.3,0,2-2.8-1-2.9.6-1.5-3-11-16.5-13.9-21.1,4.1,3.3,4.5,6.5,5.4,4.4h0Z"/>
        <path class="cls-12" d="M156.5,102.8c-4.8,2.4-9.8,4.1-14.5,6.5-9.2,4.9-16.8,12.6-23.4,14.3,0,0,0-.8.3-1.2.1,0,1,.3,1.2.2,4.5-3.3,7.1-6.1,12-8.3l-.2-1s2.1-1.2,2.2-1.3c1.4,1.2,2.6-1.2,3.7-1.9,2-1.2,17.6-8.4,18.6-8.3v.8h0Z"/>
        <path class="cls-42" d="M282.2,114.9c5.2,1.3,10.4,8.5,12.4,13.4-6.9-.9-.5.5,1.6,3.7,1.2,1.7.6,2,.7,2.1-2.8-.9-4.8-.5-6.8-.7-1.6-.1-.6,0-1.9-.7l5-1c-7.9-7.8-7.7-4.9-2.4-5,4.1,0-1.2-5.2-2.9-6.9-5.6-5.2-7.2-2.7-9.3-5.5,1.2.2,2.4.3,3.7.6h-.1Z"/>
        <path class="cls-35" d="M322.4,246.7s-.1.3-.3,2c-3.6-1.6-7.3-2.1-4.5-7,5.4-2.6,4.9,1.3,4.8,5h.1Z"/>
        <path class="cls-35" d="M319,179.8c0,.3-2,.9-.6,7.6-6.9-7.8-4.2-5.5-2-11.5,1.3-.2-.3,1.5.7,1.7.7,0,2.8-3,1.9,2.3h0Z"/>
        <path class="cls-35" d="M296.8,134.1c0,.1-.5.6,1.2,2.6-.2.3-.7,2.8-.9,3.5-.8,2.1-1.3-1.2-5.4-4.4,0,0-1.7-.5-1.6-2.3,2,.2,4-.3,6.8.7Z"/>
        <path class="cls-15" d="M234.3,92.8c.3.2,1.3.5,1.5.7,0,1.6-2-.9-3.4,1.3-2.6,4.1,1.9,4.8,5,5l-1.3,1.4c-6.1-2-12-3.5-18.1-5.4,5.6-.8,8.2,1.5,10.7,1.7,3.5.2,1.5-.8,1.5-.9.9-1.6,1.7-3.5,3.8-3.8h.1Z"/>
        <path class="cls-42" d="M306.7,159.8c-.5-.9,0-1.5-.1-1.6,6.5.5-3-7.9,4.4-6.1,3.6,3.4-1,8.4-4.2,7.7h-.1Z"/>
        <path class="cls-35" d="M321.2,173.8c-4.1,3.4,0,7.2,3.5,3,.8,2.9-3.3,3.1-5.4,3.1h-.3c.9-5.4-1.2-2.2-1.9-2.3-1-.2.6-1.9-.7-1.7,1.2-3.1,2.1-2.2,0-7.6,2.4-.2,2.2,6.2,2.8,6.5,0,0,.8-.8,2-.9h0Z"/>
        <path class="cls-42" d="M259.8,104.1v-.8c1.2.1,11.9-3.8,16.5,7.7l-.7.5c-3-6.5-9.1-8.5-15.8-7.3h0Z"/>
        <path class="cls-35" d="M323.6,184.6c.7.2,1.5,0,2.4.8,1.3.9,2.3,2.8,3.1,4.1-4.4-3.6-8.5-7.5-9,.9-.7-1.3-.5-4.8-.6-6.5,3.7-.3,3.6.5,4,.6h0Z"/>
        <path class="cls-35" d="M321.7,228.5c0,.3-1.3,1.6-1.3,2.8-2.1,2-1.3-8.5,1.3-2.8Z"/>
        <path class="cls-28" d="M130.1,99.3l1,.9c-8.2.2-7-1.2-16.2,5.6-12.7,9.3-26.6,26-34.5,39.6-1.2,2.1-2.3,4.1-3.4,6.3l-.6-1.6c12.1-21.4,29-40.2,50.1-53,31.2-19,64-23.9,99.8-16.1,1.3.2,18.1,5,19.6,5.6,2.8.9,20.3,8.7,22.5,10,1,.6,17.4,13.4,18.9,14.7,5.7,4.9,24.6,25.6,25.4,28,1.9,5.6-5.7,4.4-4.2,0,9.6,4.4-2.3-5.1-4.4-7.6-13.9-16-7.9-12.6-27.5-26.5-1.7-1.3-3.6-3.6-5.6-4.9-1.5-.9-15-8.3-15.8-8.6-6.3-1.9-9.2.6-9.7.5-1-.2-3-5.7-18.2-9.3-34.6-8.3-73.7-3.3-102.3,17.2,1.6-.7,3.4-.7,5.1-.8h0Z"/>
        <path class="cls-12" d="M90.3,147.1c.3,1.4-.2,1.5-.2,1.6l-.8-1.3c-7.5,5.9-12,15.5-13.8,24.7-.6.2-.6.8-1.2,1-.2,0-.8-2.1-1.3,1.7-7.9,5.6-3.5,14.6-7.7,25.1-.1.3-3.5,4.3-5.1,4.2.5-1.7-.1-1.5-.1-1.6.5-4.9,3.5-3.7,4-4.4.3-.7,1.4-11.1,2.4-14.9,0-.3.8,0,.8-.2.7-2.6.7-6.1,1.4-8.6,2.1-7.6,5-15.5,8.4-22.5,1-2.2,2.2-4.2,3.4-6.3,2.4.9,2.8,1,5.1.5.9,2.8,1.5,1.2,4.7,1.2h0Z"/>
        <path class="cls-22" d="M77.1,151.9c-3.4,7.1-6.3,14.9-8.4,22.5-.7,2.6-.7,5.9-1.4,8.6,0,.3-.8,0-.8.2-.9,3.8-2,14.2-2.4,14.9-.3.7-3.4-.6-4,4.4l-1.6.6c.1-.9.2-1.9.5-2.7,1.2-6.6,1.6-10.5,3.5-17.1,2.7-9.6,9.2-24.4,14.1-33.1l.6,1.6h0Z"/>
        <path class="cls-35" d="M253.5,95.5c-4.5,0-8.4,3.8-8.9,3.8-2.4,0-7.1-13.5-24.9-8.6,1.2,4.5,6.8-.3,9.9-.2,4.3.2,4.3,2.1,4.7,2.3-2.1.3-2.9,2.2-3.8,3.8-15.4-1.9-12.5-4.4-13.4-5-2.9-1.6-8.4,4.9-12.4-.3,23.7.6,1.5-10.1-7-1.2l-.8-1.5c5.9-4.9,16-4.8,20.9,1.5,2.7-1.3,7.2-.3,9.6-1.6,11.7.3,11.1,6.3,18.4,8.2.5,2.2,3.8-3.4,8-1.2h-.2Z"/>
        <path class="cls-42" d="M334.7,215.7c.6-8.4-.7-19-5.5-26.2-.8-1.3-1.9-3.3-3.1-4.1-.9-.7-1.7-.5-2.4-.8,1.2-.8,4.7-5.1,5.8-4.1,10.6,32.4,5.5,42.4-.3,74.6l-1.3.2c3-9.8.7-21.1,1.2-22.3.6-1.7,4.5-.5,5.6-17.4h.1Z"/>
        <path class="cls-35" d="M260.6,108.6c2.2,1,7.9,4.5,10.3,6.1,0,0-.7-.1,1.7,1.5,5.1,3.4,2.6,1.4,2.7.8.7-2.7,2.4-.3,2.7-.3,1.3.2,1.7-.2,2.4,0,3,.8,5.9,3.4,7.3,3.1,1.7,1.6,7,6.8,2.9,6.9l-1.9-2.3c-4-.6-3.5-1.7-3.7-1.7,0,0-.7,1.2-.9,1-4.1-1-5.2-3-5.6-2.9-.5.1,1.3,1.2-2,1.3-6.3-4.7-13.9-9.4-20.7-12.9,0-1.3-1.3-.6.2-2.8.3,1.9,4.4,2.2,4.7,2.3h-.1Z"/>
        <path class="cls-42" d="M166.4,93.1c-.7.9-1.2,3.1-2,3.3-.2,0-4-1.3-4.8-1.6-3.5-1.2-7.1-4.8-13.5-.6-2.1,1.4-5.6,5.7-6.8,6.2-2.3.8-5.4-.2-8.2,0l-1-.9c13.8-1,13.1-6.5,21.4-8.2,9.2-1.9,8.7,5.1,12.5,3.6.9-.3,3.3-11.1,15.1-7.8-6.4,1.6-8.6.7-12.6,6.2h-.2Z"/>
        <path class="cls-42" d="M253.5,95.5c3.4,1.9,6.2,7-.3,1.2-13.1,6.3-8.6,3.5-17.4-3.1-.2-.1-1.2-.5-1.5-.7s-.3-2.2-4.7-2.3c-3.1-.1-8.7,4.7-9.9.2,17.7-4.9,22.4,8.7,24.9,8.6.5,0,4.3-3.7,8.9-3.8h0Z"/>
        <path class="cls-12" d="M166.4,93.1c4.1-5.6,6.3-4.5,12.6-6.2-11.9-3.3-14.2,7.5-15.1,7.8-3.7,1.5-3.3-5.5-12.5-3.6,4.4-4.7,7.5,0,11.5,1.9,1,0,3.1-9,16.9-7.7.6,4.5-3.3,2.2-7.5,4.1-1.9.8-4.1,4.1-6.1,3.8h.1Z"/>
        <path class="cls-35" d="M282.2,114.9c-1.2-.3-2.4-.3-3.7-.6,2.1,2.9,3.8.2,9.3,5.5-1.4.1-4.3-2.3-7.3-3.1-.7-.1-1.2.2-2.4,0-.2,0-2-2.3-2.7.3l-2.7-.8c-2.4-1.6-1.6-1.4-1.7-1.5,1.3-2.2-4-3.6-5.4-4.4,3.6-1.4,5.6,1.6,5.9,1.7,3.5,1,9.9.9,10.6,2.9h.1Z"/>
        <path class="cls-28" d="M326.1,203.1c.3.6,2.3,3,5.9,10.1,0-1.7-7.8,7.6-8.2,8.2s-.2,4-1.6,2.9c1.5-2.7-.2-3.6,0-4.4,0-.7,1.3.3,2.6-.8,8.2-7.5,2.1-8.2.1-16.1h1.2,0Z"/>
        <path class="cls-42" d="M127.9,103.8c.6,0,4.9.6,4.8,1.4-2.3,1.2-4.1.1-4.7.2-5.5,1.2-16.7,11.2-21.7,15v-1c5-3.3,16.1-15.4,21.6-15.6h0Z"/>
        <path class="cls-42" d="M306.7,149.8c0,.8-.3,1.9-1.2,2.2,0,0-.8.5-1.4-.2-2.1-2.4-4.2-4.8-4.3-8.3,1.6,1.3,2.2,3,3.5,4.5.2.3,1.2,2.2,1.4,2.2,2.3-7.2-4.3-17.8-6.9-11.2-.3.9.8,4-.9,1,.2-.7.7-3.1.9-3.5,3.4-4.4,8.6,4.2,8.7,13.1h.1Z"/>
        <path class="cls-42" d="M126.6,112l.5.7c-4.1.2-3.3,4.5-3.6,5-1.3,2.3-9.4,3-9,7.2-3.5-3.3,9.1-10.7,12.1-12.9h0Z"/>
        <path class="cls-28" d="M316.1,144.9c1.6-.5,2.7,12.2,2.9,13.2.8,3,5.8,13.5,4.8,13.9-6.1-7.7-5.6-17.8-7.7-26.9h0Z"/>
        <path class="cls-28" d="M326,201.9c-1.9-3.7-2.3-3.6-2.3-8,2.9,1,6.1,9,2.3,8Z"/>
        <path class="cls-42" d="M324.9,176.8c-3.5,4.2-7.6.5-3.5-3,2.7,0,4.5-.7,3.5,3Z"/>
        <path class="cls-42" d="M265.7,110.3c1.4.9,6.5,2.2,5.4,4.4-2.3-1.5-8.2-5-10.3-6.1.2-2-2.6-3-.1-2.8.8,2.8,3,3.1,5.1,4.4h-.1Z"/>
        <path class="cls-28" d="M328.2,221.9c4.1,0,3.7,8.3-2.9,2.1l2.9-2.1Z"/>
        <path class="cls-42" d="M103.7,119.9c14.2,8.4,1,5.6,0,1.7v-1.7Z"/>
        <path class="cls-26" d="M134.1,112s-2.1,1.2-2.2,1.3c-4.3,1.2-2.1-2.6.5-4,2.4.1,3.7.7,1.7,2.7h0Z"/>
        <path class="cls-12" d="M159.7,94.9c-4.7-.5-8.9-3.5-13.5.2v-.8c6.4-4.2,9.9-.6,13.5.6h0Z"/>
        <path class="cls-42" d="M101.5,126.5l.6.2c-7.7,21.4-3.3.2-.6-.2Z"/>
        <path class="cls-28" d="M186.4,88.7l-.2-1.3c1.2-.1,8.2-.5,6.4,1.4-4.7,1.5-5.8-.2-6.2-.2h0Z"/>
        <path class="cls-42" d="M313.2,145.6l1.7.5c2.3,5.6-5.8,3-1.7-.5Z"/>
        <path class="cls-26" d="M135.6,106.2l3.1.5c2.9,2.9-6.4,2.8-3.1-.5Z"/>
        <path class="cls-42" d="M108.2,129.1l1.4.5c-2.4,3.5-10.5,2.2-1.4-.5Z"/>
        <path class="cls-42" d="M186.2,87.4l.2,1.3c-1.6.1-5.9,3.7-4.5.7,1.9-1.6,2.2-1.6,4.3-1.9h0Z"/>
        <path class="cls-12" d="M286.1,307.9c.6,2.7-1,7.1-2.7,9.2-.5.6-6.1,4.4-7.7,5.4,2,3.8,4-2,4.3.5-3,1.6-5.1,4-8.5,5.5-7.9,3.6-7.2,1.5-7.7,1.6-.8,0-6.6,6.8-14,7.3-.2,0,1-.8-5.1-.5v-.8c4.8-1.9,6.2-2.7,6.6-2.9.7-.2,8.7.9,9.1-9.3-1.3-.3-2.9,6.3-5.9,7.1-3.1.8-3.3-1.7-3.7-1.7s-4.1,3-5.4,3.5c-12,5.2-25.2,7.9-38.1,8.7-1.6,0-3.3.2-4.9.5,0-.2.6-4.9,2.2-2.4,3.5-2.3,23.2-2.2,20.5-6.3,12.2-3,24-7.1,35.1-13.3,1.7,3.6,5.8-1.2,8.2-.7-.6.3-.9,1-1.4,1.4-2.6,1.7-5.6,2.6-4.1,6.5,2.7,1.2,5-1.7,9.3-4.5,1-.7,7.5-3.3,5.5-4,1.3-.8,2.3-1.5.9-3,3.4,1,5-3,4.8-3.3-7.2,2.8-4.9,3-5.1,3.1-2.8,1.7-3.6,2.9-3.8,3-.1,0-.2-.8-3.4-.1,2.3-2.2,3.4-1.9,3.5-2.1.3-.2,1.2-2.2,1.4-2.4.8-.5,6.8-1.2,9.8-4.7.6-.6-1.4-1,.6-1.3h-.2Z"/>
        <path class="cls-44" d="M202.4,341.8c-1.5,3.3-2.9,0-3.4-.1-2.4-.6-4.7,0-5,0,0,0-.3,0-1.2-.2-3.8-.3-7.7-.5-11.5-.7.1-1.7-4.1-1.2-5.4-1.3,0-1.5,2.2,0,3-.3.1,0,.6-1.4,2.7-1.6,4.9-.5,19.8,2.7,17.9-.7,8.7,0,17.1-1.9,25.5-4,2.7,4.1-17,4.1-20.5,6.3-1.6-2.4-2.1,2.2-2.2,2.4h0v.2Z"/>
        <path class="cls-5" d="M198.8,336.8c.2,0,.6.1.8.1,1.9,3.4-13.1.2-17.9.7-2.1.2-2.4,1.5-2.7,1.6-.9.2-3.1-1.3-3,.3-1.9-.2-3.7-.6-5.5-.8.1-2.4,4.7-1.5,4.7-4.1,8,1.3,15.5,2.2,23.8,2.2h-.1Z"/>
        <path class="cls-23" d="M177,312.5c-1.5,1.7-11,4.7-13.9,5.4-8.5,2.2-17.1,2.7-25.8,4.3-.7-.5-1-.5-1.2-.6-9.6-6.6-27.3-23.5-34.6-32.9-7.8-9.9-14.2-20.9-18.6-32.7,6.1-11.5,5.2-25.2,11.1-36.7,0,47,38.7,84.4,83,93.2h0Z"/>
        <path class="cls-5" d="M175,334.6c0,2.6-4.5,1.5-4.7,4.1-1.9-.3-2.8-.8-3.5-.9-4-.7-3.4-1.3-7.9-.8,0-.3-.5-.6-.2-.8,0,0,2,0-.5-.8-1-.5-5-.6-4.7-2h1.6c-4.2-2.1,3-.3,4.7-1.7,5.1,1.3,9.9,2.4,15.1,3.3v-.2Z"/>
        <path class="cls-1" d="M136.2,321.5s.5.1,1.2.6c3,2,5.7,4.1,9.2,5.5-.1,1.4-1.6,1.2-2.6,1.2-3.6,0-5.2-4.4-9.1-4.7l-.3.8c-.5,0-.3-.3-.3-.5-2.9-6.2-6.5-2.9-10.4-8.3,3.7,1.2,7.8,3.4,11.3,5.6.2.1,1,.2,1-.2h0Z"/>
        <path class="cls-40" d="M159.8,331.3c-1.6,1.4-8.9-.3-4.7,1.9h-1.6c-3.5-.9-5.8-3.1-9.8-3.3v-1.2c.9,0,2.4.1,2.6-1.2,4.3,1.7,9,2.7,13.4,3.7h.1Z"/>
        <path class="cls-34" d="M96.1,198.7c-1.5,6.8-2.1,13.6-2.1,20.5-5.9,11.7-5.1,25.2-11.1,36.7-3.1-8.5-5.6-17.1-6.2-26.3-.3-5.7,0-11.1.2-16.8,4.8-5.6,12.4-13.5,16.3-19.2,1.9-2.7,2.7-6.5,5.7-8.2-1.4,4.1-3.3,9.1-2.9,13.2h0Z"/>
        <path class="cls-36" d="M58.8,200.3c-.1.9-.2,1.9-.5,2.7-1.2,7.2-2.6,16-2.9,23.2-.1,2.9,0,5.2.3,8-1.2.9-1.9,4.2-3,4-.7-4.9-1-9.8-1.3-14.7,6.4-4.2,4-9.4,4.1-10,.8-4.4,2.2-8.9,2.6-13.4,0,0,.5,0,.8.1h-.1Z"/>
        <path class="cls-38" d="M271.5,328.4c-.7,1-1.9,1.2-2.7,2-1.3,1.4-3.1,5.6-5.7,3.1.8-.7,2.1-1.3.7-2.7-.3,0-2.1,2.6-3.1,3.5-8.5,6.9-18.4,4.8-7.6,7.2.7,0,0,.8-.3.8-6.4-.3-7-1.2-7.5-1.2-.8,0-9.6,4.1-16.4,6.2-2,.6-4,1.4-5.9,1.9-4.9,1.2-18.1,3.3-23.1,3.5-.2,0,.1-.5-4.8-.3-3.4-1.6-6.2.3-7.8-.5-2.4-1.9,1.6-1,2.8-1.2,2.4-.2,5.6-.1,6.5-2.8-1-3.5-2.3-.9-3.5-.8-5.8.9-8.5-.6-10.6-.5-1.5,0-2.8,1.2-3,1.2-1.2,0-3.1-.5-4.8-.3-.5,0-.9,1.4-1.4,1.4-.8,0-1.5-2.2-1.6-2.3-.3,0-.1,2.9-3.3-2.1-1.2,4.3.8,2.2,1.7,5.2-2.6-.5-5.5-.2-7.9-.7-1.4-.2-2.8-.2-3.8-1.2,4.5-5,8-1.7,8.5-5.2,1.2.2,1.6.6,2.7.8.9.2,3.4,1.7,9.4,2.3,1.9.1,7.5.3,7.1-.5,3.5,0,7,2,7.3-3.4l-.8-.3c.8,0,1.2.2,1.2.2,6.6,10,8.9,4.3,10.4,4.1,1.5-.2,6.6.9,7.3-1.6,5.6,1.5,4.1-1.6,7,.3,8.9-1.6,17.4-5,26-8.3v.8c6.3-.3,4.9.5,5.2.5,7.3-.7,13.2-7.3,14-7.3s-.2,2,7.7-1.6h0v-.2Z"/>
        <path class="cls-22" d="M199.8,352.7c0,1.5,2.9,2.2,1.5,3.5-4.3.2-8.6.6-12.9.3-9.3-.5-20-2.1-29-4.4,0-.1,1.7.5,2-2.3,1.9.2,5.5.8,7,1.2,4,.9,3.7,0,8,3.7-4.3-5.1,2.7-1.6,12.7-1.6s3.6-.6,5.9-.7c4.9,0,4.5.3,4.8.3h0Z"/>
        <path class="cls-22" d="M289.6,321c-7.2,7-15.6,12.8-24.4,17.8-1.4-1,4-.8,3.5-8.3.8-.8,2.1-.9,2.7-2,3.4-1.5,5.5-3.7,8.5-5.5,3.6-2,11.1-5.6,13.2-7.1,1.6.3-.9,2.4-3.6,5h.1Z"/>
        <path class="cls-13" d="M236.9,351.4c.5-.1,5.4-3,8.9-3.8,3.8-3-17.2,2.2-17-.3,6.9-2.1,15.6-6.3,16.4-6.2.3,0,.9.9,7.5,1.2.2,0,1-.7.3-.8,1.4.3,2.7.8,2.9.8.5,0,9.9-4.1,1.9.7-3.7,2.2-16.2,7.2-20.9,8.3h0v.2Z"/>
        <path class="cls-22" d="M222.9,349.2l5,3.6c-3,.3-4,0-4.8,0s-1.7-.5-2.6-.5-5.2,2.2-7,2.4c-4.3.7-7.9.9-12.2,1.3,1.4-1.3-1.5-1.9-1.5-3.5,4.9-.3,18.1-2.3,23.1-3.5h0Z"/>
        <path class="cls-12" d="M236.9,351.4c-.1,0-2.1-.3-3.7.6-1.7.2-3.5.6-5.4.7l-5-3.6c2-.5,4-1.3,5.9-1.9-.2,2.6,20.9-2.7,17,.3-3.4.8-8.4,3.6-8.9,3.8h0Z"/>
        <path class="cls-12" d="M223,352.8c1.3,2.4-8.9,3.8-9.6,2.1,1.7-.2,6.4-2.4,7-2.4s1.9.5,2.6.5h0Z"/>
        <path class="cls-22" d="M263.1,333.5c-.5.3-2.7,1.9-2.6.8,1-.9,2.9-3.5,3.1-3.5,1.4,1.4.2,2-.7,2.7h.1Z"/>
        <path class="cls-13" d="M236.9,351.4c-1.4.3-2.3.3-3.7.6,1.6-.9,3.5-.6,3.7-.6Z"/>
        <path class="cls-35" d="M293.2,315.8c-2.1,1.5-9.7,5.1-13.2,7.1-.3-2.4-2.3,3.4-4.3-.5,1.6-.9,7.2-4.8,7.7-5.4,1.7.7,3.1-.9,4-.9,1.6-.1-1.2,2.3,4.3-.9,10.1-5.9.8-3.5,5-11.4l5,.2c.6,3.3,0-2.4,2.2-.2.3,1.6-9,10.8-10.7,12.1h0Z"/>
        <path class="cls-22" d="M291.8,315.2c-5.5,3.1-2.7.8-4.3.9-.8,0-2.2,1.6-4,.9,1.6-2.1,3.3-6.5,2.7-9.2,3.4-.5,7.3.6,6.9,4.5-.2,1.6-2.3,1.4-1.3,2.8h0Z"/>
        <path class="cls-13" d="M277.5,318.5c2.1.7-4.4,3.3-5.5,4-2.3-4.8-5.4,1.7-5.2-2.1.5-.3.8-1,1.4-1.4,2.1-1,1.4-.6,2.6-.8,0,0,.2.8-1.7,1.2-.3,1.5,8.2-.6,8.5-.8h0Z"/>
        <path class="cls-42" d="M287.1,300.4c.8-.5,4.8,4.1,4.3,4.5-4.2.7-5.5-4-4.3-4.5Z"/>
        <path class="cls-43" d="M161.7,337.3l-4.7,1.9,2.8,5c1.4.9.2-2.9,7.1-1.6-.5,3.5-4,.2-8.5,5.2,1,1,2.4,1,3.8,1.2,4,1.5,6.9.8,6.2,1.7-1.5-.3-5.2-.8-7-1.2-2.4-.3-2.1-1.6-2.9.7-5.4-6.2-12.1-7.7-7.2-2.3-3.5,0-5.8-4.2-7.7-6.9l3.1.3c-.8,0-3.5-3-3.5-3.4,0-.9.9-.5.8-.5,2.4.9,5.6,1.4,2.8-.1,3.1-.8,6.5,1.5,9.2,1.3.3,0,2.3-1.7,5.7-1.5h-.1Z"/>
        <path class="cls-7" d="M137.7,331.8c.3.3,2.4,4.9,5.7,9.3,2,2.7,4.2,7,7.7,6.9.7.8,2.2.8,1.6,2.3-.3,0-.8,0-1.2-.2-3.7-.9-10-2.4-13.4-3.7-4.4-1.6-7-3.8-9.2-5.1,0,0,0-.8.5-.7.8.5,7.1.5,7.2.1-2.9-2.2-5.5-5.1-8.5-7.2l12.4,6.8c1.3-.2-7.2-12.7-2.8-8.5h0Z"/>
        <path class="cls-46" d="M158.4,350.4c-.2.8.6,1.2,0,1.6-1.7-.8-3.7-1.3-5.6-1.6.6-1.4-.9-1.4-1.6-2.3-4.9-5.4,1.9-3.8,7.2,2.3Z"/>
        <path class="cls-1" d="M92.8,313.4c10.8,10.1,16,15.4,28.8,23.5,2.3,1.5,4.9,3,7.3,4.4-2.2,1.7-4.8-1-5.8,1.5-16.8-10.1-28.7-21.2-40.7-36.7,1.4,1.9,2.2-.2,3.4.1.5.1,5.2,6.4,6.4,7.5,0,0,.5-.5.7-.3h-.1Z"/>
        <path class="cls-31" d="M90.9,310.6c.7.8,1.6,1.6,2,2.7-.2-.1-.6.3-.7.3-1.2-1-5.9-7.3-6.4-7.5-1.2-.3-2,1.6-3.4-.1-4.7-5.9-9-11.9-12.7-18.5,3.3,2.2.3-.9,1.6-2.3-4.4-8.2-7.9-16.8-10.7-25.6,0-.3-.9-.6-2.3-5.8l-.7-8.3c5.7,25.5,17,45.1,33.3,65.1h0Z"/>
        <path class="cls-1" d="M69.8,287.5c-1.2-2.1-2.3-4.1-3.4-6.2-3.4-6.8-5.7-13.3-7.9-20.5.9,1.2.7-.8,2.2-1.3,2.8,8.9,6.3,17.4,10.7,25.6-1.3,1.4,1.6,4.5-1.6,2.3h0Z"/>
        <path class="cls-40" d="M138.2,346.4c-.8,2.1-2.7-.5-4.8,2.1-4.4-2.2-6.2-3.1-10.4-5.7,1.2-2.4,3.7.3,5.8-1.5,2.3,1.3,4.8,3.4,9.2,5.1h.1Z"/>
        <path class="cls-40" d="M57.2,243.3c.1.7.3,1.4.5,2.1l.7,8.3c1.3,5.1,2.2,5.5,2.3,5.8-1.5.5-1.2,2.4-2.2,1.3-2.4-7.8-4.4-14.3-5.6-22.6,1.2.2,1.9-2.9,3-4,.2,3.1.7,5.9,1.4,9.1h-.1Z"/>
        <path class="cls-24" d="M76.9,212.8c-.3,5.7-.7,11.1-.2,16.8-2.4,3,0,6.1-4,1.7-.5.3-2.6,1.5-2.7,1.6-1-2.4,2.8-5.5,2.9-5.7,0-.1-.7-.9-.3-3l1,2.2c3.1-9.4.7-8,.8-8.5.2-1.6,2-5.8,2-7.3,0-2.7-1.3-1.5-1.3-1.9-.1-.5.9-1.4.9-3,0,0-.6-1.5-.5-1.9,2.4.9,1-5.1,2.9-7.9-.9,5.6-1.2,11.3-1.5,17h-.1Z"/>
        <path class="cls-35" d="M79,172.6c-4.7,1.9-3.3-2-5.6,4.8-2.1-.6-.5-2.2-.3-2.4.6-3.8,1-1.6,1.3-1.7.6-.2.6-.8,1.2-1,.1,0,1.3,1.4,2.4-.6.3-.5,3.1-9.3,3.3-10.7,0-.5-1,0-1-.9s8.4-8,9.8-11.1c0,0,.7-.1.2-1.6,1.6,0,1.7,1.7,2,0,.2-1.9-1.6-6.4,4.9-7.7,4.8,1.9-7.1,8.5-3.3,10.5l3.5-5.2c.1,5.7-6.9,9-7.3,9.4-1.9,2-7.6,12.7-9,15.8-.5,1.2,1.9,1-2,2.7h0Z"/>
        <path class="cls-13" d="M79,172.6c-2.7,6.5-4.5,13.4-5.7,20.4-.5,2.8-.8,5.8-.9,8.6,0,1.9-.1,3.7,0,5.6-.6,0-2.1-3.7-2.2-4-.3-1.2-.9-1.6-.9-1.7-.5-3.7,2.8-19.8,4.3-24.2,2.2-6.8.9-2.8,5.6-4.8h-.1Z"/>
        <path class="cls-42" d="M97.1,139.4c-6.5,1.3-4.5,5.7-4.9,7.7-3-3.1.8-9.8,4.9-7.7Z"/>
        <path class="cls-36" d="M75.6,203.7c0,.3.5,1.7.5,1.9,0,1.6-1,2.6-.9,3,0,.3,1.3-.8,1.3,1.9s-1.7,5.7-2,7.3c0,.5,2.3-.9-.8,8.5l-1-2.2v-.3c0-.1,1-.8,1.2-2,0-.3-1.2-.2-1.2-.6,0-1.7,1-2.6.9-3.5,0-1.7-1-3.8-1-5.6s-.3-3-.5-4.9v-5.6c2.7-3.1-.7-4.3,4.3-2.9.3.3-.8,2.2-1,5h.3Z"/>
        <path class="cls-35" d="M303.3,148c.6-4.4-1.3-7.3-5.4-8.9,2.6-6.6,9.2,4,6.9,11.2-.2,0-1.2-2-1.4-2.2h-.1Z"/>
        <path class="cls-17" d="M70,203.3c0,.2,1.6,3.8,2.2,4,0,1.7.3,3.1.5,4.9,0,.3-.1.8-.2,1.2-3.7,2.8-3.7,9.1-5.9,7.1,0-4-.9-8,0-12,1.5-2.1,4.4-4-.6-4.9-7.1,3.6-6.4,13.1-5.8,19.9-1.6-1.4-2.7,3.5-4.4,2.9.3-7.3,1.7-16,2.9-23.2l1.6-.6s.6-.1.1,1.6c.6,3,3.1-.6,3.7-1,1.7-.6,4.8-1.2,5.9.1h0Z"/>
        <path class="cls-38" d="M73,174.8c0,.2-1.7,1.9.3,2.4-1.4,4.3-4.8,20.5-4.3,24.2-3.8-.1-3,.2-5,1.6-.6.3-3.1,4-3.7,1,1.6,0,4.9-3.8,5.1-4.2,4.2-10.5-.2-19.5,7.7-25.1h-.1Z"/>
        <path class="cls-42" d="M90,148.7c-1.4,3-9.8,10.4-9.8,11.1,0,1,1,.6,1,.9-.2,1.4-3,10.3-3.3,10.7-1.3,2-2.3.6-2.4.6,1.9-9.2,6.3-18.8,13.8-24.7l.8,1.3h-.1Z"/>
        <path class="cls-28" d="M275.3,117c-.1.6,2.4,2.6-2.7-.8l2.7.8Z"/>
        <path class="cls-15" d="M322.8,175.6l.8,1.2c-2.6,2-4.3-.3-.8-1.2Z"/>
        <path class="cls-22" d="M244.6,336.1c-8.6,3.3-17.1,6.6-26,8.3-2.8-2-1.4,1.3-7-.3-1.3-.3-3.8-1.6-4.4-2.7,12.9-.8,26.2-3.5,38.1-8.7,1.3-.6,5-3.6,5.4-3.5.5,0,.6,2.6,3.7,1.7,3-.8,4.7-7.5,5.9-7.1-.3,10.3-8.4,9.1-9.1,9.3-.5.2-1.7,1-6.6,2.9h0Z"/>
        <path class="cls-22" d="M207.2,341.4c.6,1,3.1,2.3,4.4,2.7-.6,2.6-5.8,1.4-7.3,1.6-1.5.2-3.7,5.9-10.4-4.1.3,0,2.6-.6,5,0,.5,0,1.9,3.4,3.4.1,1.6-.2,3.3-.3,4.9-.5h0Z"/>
        <path class="cls-22" d="M272.1,322.5c-4.4,2.8-6.8,5.7-9.3,4.5-1.5-4,1.5-4.8,4.1-6.5,0,3.7,2.9-2.7,5.2,2.1h0Z"/>
        <path class="cls-38" d="M277.5,318.5c-.5.2-8.9,2.3-8.5.8,2.1-.3,1.7-1,1.7-1.2,3.1-.7,3.3.2,3.4.1.2,0,1.2-1.2,3.8-3h.3c1.4,1.6.3,2.3-.9,3.1h.1Z"/>
        <path class="cls-42" d="M278.5,315.5h-.3c.2-.2-2.1-.5,5.1-3.3.3.2-1.4,4.3-4.8,3.3h0Z"/>
        <path class="cls-41" d="M192.7,341.5l.8.3c-.3,5.5-4,3.5-7.3,3.4-3.8,0-7.8-.3-11.7-1-4.2-6.3-2.8-3.8,6.8-3.4,3.8.2,7.7.3,11.5.7h-.1Z"/>
        <path class="cls-5" d="M170.3,338.7c1.7.3,3.6.7,5.5.8,1.3.1,5.6-.5,5.4,1.3-9.6-.6-11-3-6.8,3.4,3.8.7,7.8,1,11.7,1,.3.8-5.1.7-7.1.5-6.1-.6-8.5-2.1-9.4-2.3l1.3-.3c-.3-.5-.5-.9-.6-1.5-.7-2.7-.9-2-4-3l.5-.7c.7,0,1.6.6,3.5.9h.1Z"/>
        <path class="cls-31" d="M82.8,255.9c4.4,11.9,10.8,22.8,18.6,32.7,7.3,9.3,25.1,26.2,34.6,32.9,0,.5-.8.3-1,.2-3.5-2.2-7.7-4.4-11.3-5.6,3.7,5.4,7.3,2.1,10.4,8.3-5.5-4.4-6.9-2.8-7.7-3.3-2.9-1.4-8.2-6.3-8.6-6.6-.6-.3-1.6.5-2.4,0-.3-.2-2.1-7-3.3-7.3-1.3-.5-1.2,4.1-7.2-7.6-3.6,3.8-1.9-1.5-2-1.7-.3-1.2-10.3-14.5-13.6-19.8-2.2-3.4-7.5-14.5-8.3-14.8-.1,0-2,1.7-2.9-.8,4.9,2.2,3.3-4.1.8-5.1,0-1.4-.8-3-1.3-4.2-.1-.3,0-2-.6-2.4-.7-.5-4.3.7-4.9-5.8,1.6-.5,1.7,2.2,2.1-.5-7.5-10,0-7.6-1.5-12.9,4,4.2,1.4,1.3,4-1.7.7,9.1,3,17.7,6.2,26.3h0Z"/>
        <path class="cls-31" d="M66.7,230.9c.2,1.4.6,3,1.3,4.2-.1.2,0,1.2-.2,1.4-1.6,2.1-2.2.9-3,4.1-1,3.7.2,2.4.3,3,1.9,9.9,6.2,11.7,6.4,12.2.3,1-.6,12.8,4.4,12.4-5.7-9.4.7-8.9-.7-16,.9.6,1.2.9,1.4,1-3.6,11.2.3,12,6.2,21.3-1.7,1.7-3.1-.6-3.5,1.5,15.4,23.7,27,33.1,48.7,50.2,4.3,1.3-5.1-6.3,1.5-4.2.3,0,6.4,5.6,4.5,2.8l.3-.8c3.8.2,5.5,4.5,9.1,4.7v1.2c3.8,0,6.2,2.3,9.8,3.1-.3,1.4,3.6,1.5,4.7,2,2.4.9.6.8.5.8-5.8-.2-10.6-5.8-16.3-3.6,1.7,2.6,4.5,3.8,7.5,4.7,7,1.7,7.9,0,9.1-.1,4.5-.5,4,.2,7.9.8l-.5.7c-1.4-.5-3.3-1-4.7-1.2-3.3-.2-5.2,1.5-5.7,1.5-2.7.1-6.2-2.1-9.2-1.3,2.8,1.6-.5,1-2.8.1-.2-2.2-4-9.7-6.3-5.8-4.4-4.2,4.2,8.2,2.8,8.5l-12.4-6.8c-1.5-1-2.3-2.1-3.1-.5-.5-1.9,2.6-3.8-3.3-2.6,0-.6-.9-1.3-.9-1.4-.3-.8-.7-3.1-1.3-3.4-.8-.5-1.7.2-2,0-2.6-1.7-7.7-6.5-10.6-9,0,0-.9.9-1.3.6-.3-.2-2.9-4.1-6.3-7-1.2-1-.9-2.1-3.3-2.6,4.1-1.9-5-3.8-5.7-4.5l5.1.5c1.4,1.6,1.6.6,1.7.7.6.8,2.8,5.2,3.1,5.4.5,0,1.2-2.9,1.2,1.6,5.8,5.5,8.2,5.2,8.5,5.6,1,.9-.7.6.7,1.7,2.4,2,4.8,4.2,7.2,5.9.3.2,1.6-1.5,3.8,3.8,6.5-.2,4.3,3.4,5.5,3.7,1.2.2.2-2.7,7.8,3.6.2.1-.5.7,3.1,2.9.8.5.3-1.3,0-1.7-4.1-10.4-10.8-4-7.3-7.8-4.9-1.9-4.8-4.9-7.5-3.3-2.2-3.7-8.3-1.9-8.4-6.2.5.2,1,1,1.9,0-5.1-4-12.4-9-16.7-13.5-1.6-1.6-8.3-12.9-7.9-6.9,0-.1-1,0-1.2-.2-3.1-3.6-5.9-7.3-8.6-11.2-9.7-14.5-10.6-23.1-13.2-28.2-1.6-3.1-.9-.8-1-.8-1.5.6-2.1,1-2.3-.3,2-1.2,2-1.9,4.2,0,2.6-1.4-4.5-6.3-5.4-7.7-1.2-2.1-2-11.5-.9-14.2.2.7.5,1.4.7,2.1,5.8-3.6,0-6.5,2.2-7.7h.1Z"/>
        <path class="cls-20" d="M158.7,336c-.1.2.3.6.2.8-1,0-2,2-9.1.1-2.9-.7-5.7-2.1-7.5-4.7,5.7-2.2,10.5,3.4,16.3,3.6h0Z"/>
        <path class="cls-21" d="M77.7,253.1c.6,1.3,1.4,2.9,1.3,4.2,0,1.3-1.6,2.9-.8,5.1.9,2.6,2.7.8,2.9.8.8.3,6.1,11.3,8.3,14.8,3.4,5.5,13.3,18.8,13.6,19.8,0,.2-1.7,5.6,2,1.7,6.1,11.7,5.9,7.2,7.2,7.6,1.2.3,2.9,7.1,3.3,7.3.8.5,1.9-.3,2.4,0,.5.2,5.7,5.1,8.6,6.6.8.5,2.2-1.2,7.7,3.3,0,0-.1.5.3.5,1.9,2.8-4.2-2.6-4.5-2.8-6.5-2.2,2.9,5.5-1.5,4.2-21.7-17.1-33.3-26.6-48.7-50.2.2-2,1.7.2,3.5-1.5-5.8-9.3-9.8-10-6.2-21.3,0,0,0-.6.8-.2h-.2Z"/>
        <path class="cls-7" d="M60,223.4c0,.6,0,.9.1,1.6.2,2,.3,4,1,5.8-2.4,4.5-1.5,12.1-4.1,12.6-.6-3.1-1-5.8-1.4-9.1-.2-2.8-.5-5.2-.3-8,1.7.6,2.8-4.3,4.4-2.9h.2Z"/>
        <path class="cls-29" d="M190,350.7c-1.2.1-5.2-.8-2.8,1.2,1.6.7,4.3-1.2,7.8.5-2.3,0-5.6.7-5.9.7-10,0-17-3.6-12.7,1.6-4.3-3.6-4.1-2.8-8-3.7.7-1-2.1-.3-6.2-1.7,2.4.3,5.4.2,7.9.7-.9-3-2.9-.9-1.7-5.2,3.1,5.1,2.9,2.1,3.3,2.1s.8,2.3,1.6,2.3.9-1.3,1.4-1.4c1.6-.1,3.6.5,4.8.3.1,0,1.5-1,3-1.2,2.1,0,4.8,1.4,10.6.5,1.7,2.2-4.3.3-3,3.5h0Z"/>
        <path class="cls-46" d="M170.2,341.5c0,.5.2,1,.6,1.5l-1.3.3c-.9-.2-1.5-.6-2.7-.8-6.9-1.3-5.7,2.6-7.1,1.6,2.7-2.8-.2-2.8,1.4-4.7,3.1.5,6.2.5,9.1,1.9h0Z"/>
        <path class="cls-12" d="M217.9,345.9c7.3,1.4-11.7,4.8-11.9,3.1-.1-.9,11.3-3.3,11.9-3.1Z"/>
        <path class="cls-29" d="M190,350.7c-1.4-3.1,4.7-1.4,3-3.5,1.2-.2,2.4-2.7,3.5.8-.8,2.6-4.1,2.4-6.5,2.8h0Z"/>
        <path class="cls-40" d="M144,337.6s-.8-.5-.8.5,2.7,3.5,3.5,3.4l-3.1-.3c-3.3-4.5-5.4-9-5.7-9.3,2.3-3.8,6.1,3.6,6.3,5.8h-.1Z"/>
        <path class="cls-14" d="M166.4,338.4c3,1,3.3.3,4,3-2.9-1.4-5.9-1.5-9.1-1.9-1.5,1.9,1.3,1.9-1.4,4.7l-2.8-5,4.7-1.9c1.4,0,3.3.7,4.7,1.2h0Z"/>
        <path class="cls-33" d="M125,333c.2,1.2,3.8,7.2,4.4,7.6-.6-.1-.5.7-.5.7-2.4-1.3-4.9-2.9-7.3-4.4-2.8-3.8-7.1-4.8.2-6.4,5.8-1.3,2.7.7,3.3,2.6h-.1Z"/>
        <path class="cls-1" d="M128.1,333.5c3,2,5.6,5,8.5,7.2,0,.3-6.4.2-7.2-.1-.6-.3-4.1-6.4-4.4-7.6.8-1.6,1.6-.5,3.1.5h0Z"/>
        <path class="cls-32" d="M96.1,307.9c2.2.5,2,1.5,3.3,2.6-1.3.7,2.7,7.1,3,7.3.1,0,3.4.5,3.5.6,2.9,2.1,7.6,8.2,14.9,10.8,0,0,1,.7.9,1.4-7.3,1.6-3,2.4-.2,6.4-12.8-8.2-17.8-13.4-28.8-23.5-.3-1-1.3-1.9-2-2.7.3-2.7,2.9-3.3,5.2-2.8h.1Z"/>
        <path class="cls-33" d="M63.9,236.5c-1,2.6-.2,12.1.9,14.2-.5,2.1-.5,6.4-.1,8.4,1.3,8.7,16.3,40.4,25.5,43.8.1.6.2.3.3.5.7.7,9.8,2.7,5.7,4.5-2.3-.5-4.9.1-5.2,2.8-16.3-20-27.5-39.6-33.3-65.1-.1-.7-.3-1.4-.5-2.1,2.4-.6,1.6-8,4.1-12.6.6,1.5,2.4,2.4,3,3.8,0,.3-.3,1.4-.2,1.7h-.2Z"/>
        <path class="cls-7" d="M72.8,223.8v.3c-.3,2.1.3,2.9.3,3,0,.3-4.1,3.3-2.9,5.7,0,0-1.6,1.7-2,2.1-.8-1.2-1-2.8-1.3-4.2-.8-4.9-.2-7.1-.3-10.5,2.2,2.1,2.2-4.2,5.9-7.1-.2,2.3.6,3.7.6,4,0,.3-1.9,1.4-.2,6.5h-.1Z"/>
        <path class="cls-33" d="M77.7,253.1c-.9-.3-.8.2-.8.2-.2,0-.5-.5-1.4-1-10-5.2-3.6-18.8-10.6-11.8.8-3.1,1.4-2,3-4.1.1-.2,0-1.2.2-1.4.3-.3,1.9-2,2-2.1,0,0,2.2-1.3,2.7-1.6,1.5,5.2-5.8,2.9,1.5,12.9-.3,2.7-.5,0-2.1.5.6,6.5,4.2,5.2,4.9,5.8.7.5.5,2.1.6,2.4h0Z"/>
        <path class="cls-22" d="M70,203.3c-1.2-1.3-4.2-.7-5.9-.1,2.1-1.4,1.2-1.7,5-1.6,0,0,.6.6.9,1.7Z"/>
        <path class="cls-5" d="M72.8,223.8c-1.6-5.1.2-6.3.2-6.5s-.8-1.5-.6-4c0-.3.1-.8.2-1.2,0,1.7,1,3.8,1,5.6s-.9,1.7-.9,3.5,1.2.2,1.2.6c0,1.2-1.2,1.9-1.2,2h0Z"/>
        <path class="cls-16" d="M66.4,208.4c-.9,4.1,0,8,0,12s-.5,5.7.3,10.5c-2.1,1.2,3.6,4.1-2.2,7.7-.2-.7-.5-1.4-.7-2.1,0-.3.3-1.5.2-1.7-.6-1.4-2.4-2.3-3-3.8-.7-1.9-.8-3.8-1-5.8,3.6-.6,2.9-9.8,3.7-12.8,1.3-4.8,2.4-3.6,2.6-3.8h.1Z"/>
        <path class="cls-36" d="M66.4,208.4c-.1.2-1.4-1-2.6,3.8-.8,3,0,12.2-3.7,12.8,0-.7,0-1-.1-1.6-.6-6.9-1.3-16.3,5.8-19.9,5,.9,2.1,2.8.6,4.9h0Z"/>
        <path class="cls-19" d="M78.2,262.5c-.8-2.2.8-3.7.8-5.1,2.4,1,4.1,7.3-.8,5.1Z"/>
        <path class="cls-11" d="M68.2,258.8c1.2,6.8,3.4,13.2,6.5,19.3,2.8,5.6,11.3,18.1,15.6,22.8-.1.6-.3,1.7-.3,2-9.2-3.4-24.1-35.2-25.5-43.8.5-.1.9-.3,1.3-.6.2,1.5.8.9,2.3.3h.1Z"/>
        <path class="cls-1" d="M75.4,252.3c1.4,7.1-5,6.5.7,16-5,.5-4.1-11.3-4.4-12.4-.2-.7-4.7-2.4-6.4-12.2,0-.6-1.3.6-.3-3,7-7,.6,6.4,10.6,11.8h-.1Z"/>
        <path class="cls-37" d="M115.1,319.8c.2,4.3,6.2,2.4,8.4,6.2,2.7-1.7,2.7,1.4,7.5,3.3-3.4,4,3.4-2.6,7.3,7.8.2.6.7,2.2,0,1.7-3.6-2.2-2.9-2.8-3.1-2.9-7.6-6.3-6.8-3.4-7.8-3.6s1-4-5.5-3.7c-2.2-5.4-3.4-3.5-3.8-3.8-2.6-1.9-4.8-4.1-7.2-5.9,2.2-1.5,2.7.3,4.2,1h.1Z"/>
        <path class="cls-39" d="M91.2,299c-.6.6-.6,1.2-.7,1.9-4.3-4.8-12.7-17.2-15.6-22.8-3.1-6.1-5.4-12.6-6.5-19.3,0,0-.5-2.3,1,.8,2.6,5.1,3.4,13.8,13.2,28.2,2.7,4,5.6,7.6,8.6,11.2h0Z"/>
        <path class="cls-31" d="M115.1,319.8c-1.5-.7-2-2.6-4.2-1-1.4-1,.3-.8-.7-1.7-.5-.3-2.8,0-8.5-5.6,0-4.5-.7-1.5-1.2-1.6-.3,0-2.6-4.5-3.1-5.4,0,0-.2.9-1.7-.7-.7-.8-1.7-2.8-3.3-4.5-.3-5.9,6.3,5.2,7.9,6.9,4.3,4.5,11.7,9.6,16.7,13.5-.8,1.2-1.3.3-1.9,0v.2Z"/>
        <path class="cls-39" d="M120.8,329.1c-7.3-2.7-12-8.7-14.9-10.8-.1,0-3.4-.5-3.5-.6-.3-.2-4.3-6.5-3-7.3,3.4,2.9,5.9,6.8,6.3,7,.3.3,1.3-.7,1.3-.6,2.9,2.4,8,7.1,10.6,9,.2.2,1.2-.6,2,0,.6.3.8,2.7,1.3,3.4h0Z"/>
        <path class="cls-32" d="M65.9,258.5c-.3.2-.8.5-1.3.6-.3-2-.3-6.3.1-8.4.8,1.4,7.9,6.3,5.4,7.7-2.3-1.7-2.2-1-4.2,0h0Z"/>
        <path class="cls-19" d="M92.4,299.3c1.5,1.7,2.6,3.7,3.3,4.5l-5.1-.5s-.2,0-.3-.5c0-.1.2-1.4.3-2,.1-.8,0-1.3.7-1.9,0,.1,1,0,1.2.2h0Z"/>
        <path class="cls-10" d="M139.3,328.1c.8,0,4.5,1.7,2.1,2-5.6-.1-15-.2-2.7-.8.3,0,.1-1,.6-1.2h0Z"/>
      </g>
      <g>
        <path class="cls-25" d="M173.1,129c-6.3,1.7-23.1,8-26.9,12.7,0,0-.3,2-.8,2.7-4.4,5.8-8.2,11.9-10.6,18.8l.8.3c-2,2.1-2.4,3-2.6,3.3-6.4,7.6-10.8,13.3-14.5,22.7-7.7,20.2-7.9,42.4-.5,62.6,17.8,47.7,74.9,66.2,120.6,49.3,5.4-2,10.4-4.1,15.3-7.2,4.9,1.3,15-5.8,19.1-9.3l.3,1.6c7.7-5.9,7.2-7.8,7.6-8.2,0,0,1.9-.5,2.7-1.6,0-.1.6-2.1,1.3-3.3,9.3-14.5,14.7-33,15.3-50.1,2.8,6.5-.8,20.9-3.7,28.1,4.1.9,18.4,5.4,20.9,5.1,3-.2,4.1-3.5,6.9-.5-3.3-2.3-5.2,1.3-4.2,2.1l19.1,7.5c.6,0,.7.3,1.2.6,5.1,2.4,15.1,7,17.7,12.2,3.3,6.9-1,18.1-7.6,21.9-18.1-2.7-34-12.7-51-18.6-2.6-.9-12.6-4.2-11.1-2.2-9.9,14.3-24.6,25.4-40.6,32.4-8.4,3.7-17.6,6.3-26.6,7.8,7.7-2.7-3,0-11.9,0-27.4.1-54.4-9.3-75-27.3-28.1-24.5-37.3-59.2-29.8-95.1,2.8-13.8,9.4-27,18.2-38,6.5-8.2,17.7-17.8,26.8-23,5.4-3.1,18.1-9,23.9-9v1.6h-.2Z"/>
        <g>
          <path class="cls-42" d="M168.6,122c-6.3,1.7-23.1,8-26.9,12.7,0,0-.3,2-.8,2.7-4.4,5.8-8.2,11.9-10.6,18.8l.8.3c-2,2.1-2.4,3-2.6,3.3-6.4,7.6-10.8,13.3-14.5,22.7-7.7,20.2-7.9,42.4-.5,62.6,17.8,47.7,74.9,66.2,120.6,49.3,5.4-2,10.4-4.1,15.3-7.2,4.9,1.3,15-5.8,19.1-9.3l.3,1.6c7.7-5.9,7.2-7.8,7.6-8.2,0,0,1.9-.5,2.7-1.6,0-.1.6-2.1,1.3-3.3,9.3-14.5,14.7-33,15.3-50.1,2.8,6.5-.8,20.9-3.7,28.1,4.1.9,18.4,5.4,20.9,5.1,3-.2,4.1-3.5,6.9-.5-3.3-2.3-5.2,1.3-4.2,2.1l19.1,7.5c.6,0,.7.3,1.2.6,5.1,2.4,15.1,7,17.7,12.2,3.3,6.9-1,18.1-7.6,21.9-18.1-2.7-34-12.7-51-18.6-2.6-.9-12.6-4.2-11.1-2.2-9.9,14.3-24.6,25.4-40.6,32.4-8.4,3.7-17.6,6.3-26.6,7.8,7.7-2.7-3,0-11.9,0-27.4.1-54.4-9.3-75-27.3-28.1-24.5-37.3-59.2-29.8-95.1,2.8-13.8,9.4-27,18.2-38,6.5-8.2,17.7-17.8,26.8-23,5.4-3.1,18.1-9,23.9-9v1.6h-.2Z"/>
          <g>
            <path class="cls-4" d="M337.6,294.5c-5.5,2.8-13.1,1.6-18.9.1,0,0,.2-.3-.3-.5-1.3-.3-2.6-.6-3.8-1,0,0,.3,0-1.2-.6-1.6-.6-3.3-1.3-4.9-2-2.8-1.3-6.4-2.9-8.9-4.7,0,0,0-.2-2.1-2-.7-.6-1.4-1.4-2.1-2-2.3-1.9-5.7-4.5-7.3-6.8,11.1,5.6,38.2,17.8,49.5,19.2h0Z"/>
            <path class="cls-22" d="M345.8,293.3c-3.7,2.2-4.1,1.6-8.2,1-11.3-1.4-38.5-13.5-49.5-19.2-1.5-.8-2.8-2-4.4-2.7-1.4-2,8.5,1.3,11.1,2.2,17,5.9,33,15.8,51,18.6h0Z"/>
          </g>
          <path class="cls-18" d="M291.4,187.5c2.7,9.2,4.5,19.1,4.2,28.8-.6,17.1-5.9,35.7-15.3,50.1-2.4,0-7.6,7.7-11.9,11.3-4.1,3.5-14.2,10.7-19.1,9.3,4.2-2.7,7.6-5.6,11.1-9.1,64-62.8-2.1-175.9-95-143.7,1.2-3,1.9-1.2,2-1.3,3.8-2.3,4.4-4.5,11.2-7.5,31-12.9,69.2,6.8,90.3,29.8,3.1,3.4,12,16,14.6,20.2,3.7,6.2,5.5,12.8,7.7,11.9h.2Z"/>
          <path class="cls-22" d="M312.7,249.5c-2.4.1-16.8-4.2-20.9-5.1,2.8-7.2,6.5-21.6,3.7-28.1.3-9.7-1.6-19.5-4.2-28.8-13.4-47.4-60.8-75.2-109.1-68.5-5,.7-8.9,1.6-13.8,3v-1.6c-5.8,0-18.4,5.9-23.9,9-9.1,5.2-20.3,14.8-26.8,23h-.8c33.6-43.2,92.2-53.1,137.9-22.5,36.1,24.2,56.6,72.6,42.4,114.7l15.3,5h.1Z"/>
          <path class="cls-17" d="M99.8,190.4c-7.3,36,1.7,70.6,29.8,95.1,20.7,18.1,47.8,27.5,75,27.3,8.9,0,19.6-2.8,11.9,0-9.7,3.3-29.6,1.6-39.7-.3-44.3-9-83-46.3-83-93.2s.7-13.8,2.1-20.5c.6-2.9,2.9-13.4,3.7-8.3h.1Z"/>
          <path class="cls-17" d="M182.3,119c-3.8,2.8-9.3,3.4-15.3,7.8-2.1,1.6-9.8,8.6-9.3,10.4-.7.2-2.4,1.5-3.1,1.9-10,5-16,9.2-23.7,17.5l-.8-.3c2.6-6.9,6.3-12.9,10.6-18.8.5-.7.7-2.6.8-2.7,3.8-4.8,20.6-11,26.9-12.7,4.9-1.4,8.6-2.3,13.8-3h.1Z"/>
          <path class="cls-17" d="M117.9,152.3c-8.7,11-15.4,24.4-18.2,38-.8-5.2-3.1,5.2-3.7,8.3-.3-4.1,1.5-9.1,2.9-13.2,2.4-6.9,8.2-19.2,12.1-25.4,1.3-2.1,4.4-5.7,6.1-7.8h.8c0,.1,0,0,0,0h0Z"/>
          <path class="cls-22" d="M280.3,266.4c-.7,1.2-1.2,3-1.3,3.3-.8,1.2-2.6,1.5-2.7,1.6-.3.5,0,2.3-7.6,8.2l-.3-1.6c4.2-3.6,9.4-11.3,11.9-11.3h0Z"/>
          <path class="cls-18" d="M291.4,187.5c-2.2.9-4-5.7-7.7-11.9-2.6-4.2-11.5-16.9-14.6-20.2-21.1-23-59.4-42.8-90.3-29.8-6.8,2.8-7.5,5.1-11.2,7.5,0,0-.8-1.6-2,1.3-2.6.8-5.2,1.7-7.7,2.8-.5-1.7,7.1-8.7,9.3-10.4,5.9-4.4,11.4-4.9,15.3-7.8,48.2-6.6,95.6,21.1,109.1,68.5h-.2Z"/>
          <g>
            <path class="cls-3" d="M256,228c-1,0-5.2-.7-6.3-1,0-1.2-3.6-2.1-5.2-3.3-12.5-8.2-12.8-23.2-22.7-33.8-3.6-4-13.6-11.5-18.9-11.4-19.6-5.9-19.9,7.3-21.3,10-3.5,6.9-14.9,2.2-26.3,11.8-22.3,18.6-9.4,53.7,12.8,66.1,26.9,15,63.5,9,87.6-9.2-2.2,3.3-1.2,3.7-1.5,4.4-4.8,10.4-13.8,29.4-24.9,32.5-1.2,2.9,3.6-.8,4.8.1-45.7,16.9-102.8-1.6-120.6-49.3-7.6-20.2-7.3-42.4.5-62.6,3.6-9.6,8-15.3,14.5-22.7,1.5-.7,2.6-.3,2.7-.3,2.7-.9,8.5-8.2,29-8.2s3.6,1.4,3.8,1.4c1.3,0,2.4-1.2,2.6-1.2,13.6,1,13.2,3.1,14.3,3.5,2.7.8,4.2-.5,7.2.3,1.9.5,3.4,2.4,3.6,2.6.5.2,2.1-.6,9.9,3.6,14.9,7.9,42.9,31.8,49.2,47.4,3.3,8.2,1.3,16.7,5.4,19.1h0Z"/>
            <path class="cls-24" d="M260.3,278.1c-3.5,3.5-6.9,6.4-11.1,9.1-4.8,3.1-9.9,5.2-15.3,7.2-1.2-.9-5.9,2.7-4.8-.1,11.2-3.3,20-22.1,24.9-32.5.3-.7-.7-1,1.5-4.4,1.4-2.1,7.8-6.8,12.2-13.8,2.8,1.6-1.5,19.6-3,23.8-1.2,3.3-5.2,8.3-4.5,10.7h0Z"/>
            <g>
              <path class="cls-24" d="M254.9,184.4c2.1,2.4,3.8,5.2,5.1,8,.8,1.9,2.7,6.4,3.1,8.2.7,2.9.1,7.9.2,8.3.2.6,6.8,3,4.2,11.1-1.4,4.4-7,8-11.8,7.9-4.1-2.4-2.1-11-5.4-19.1-6.3-15.6-34.3-39.5-49.2-47.4-7.7-4.1-9.3-3.4-9.9-3.6-.2,0-1.7-2.1-3.6-2.6-3-.8-4.4.5-7.2-.3-1-.3-.7-2.4-14.3-3.5-.1,0-1.4,1.3-2.6,1.2-.2,0-1.4-1.4-3.8-1.4-20.5,0-26.3,7.3-29,8.2-.1,0-1.2-.3-2.7.3.1-.1.6-1.2,2.6-3.3,7.7-8.3,13.6-12.5,23.7-17.5,0,2,3-1,7.2-1.3.8,0,1.2.8,2.3.8,38.2-.9,67.5,17.7,90.4,47.1.2-.3.2-.7.3-1.2h.2Z"/>
              <path class="cls-2" d="M260.1,192.5c-1.3-2.8-3-5.7-5.1-8,.2-.5-.5-.3-.7-.7,4.1-1,6.9,5.6,5.8,8.7h0Z"/>
              <path class="cls-19" d="M266.6,213.2c1.2,1.5-1,3.5,1,4.4-1.4,4.9-1.9,1.3-1-4.4Z"/>
            </g>
            <g>
              <path class="cls-6" d="M202.8,178.4c30.2,9.1,24.7,42,46.8,48.5,1,.2,5.2.9,6.3,1,4.8,0,10.3-3.5,11.8-7.9,2.6-8-4.1-10.5-4.2-11.1,0-.3.5-5.4-.2-8.3,7-4.1,9.6-3.6,11.8,4.1,3.6,12.6-.1,28-7,38.8-4.4,7-10.8,11.5-12.2,13.8-24.1,18.2-60.6,24.2-87.6,9.2-22.4-12.5-35.1-47.4-12.8-66.1,11.4-9.7,22.8-4.9,26.3-11.8,1.4-2.7,1.7-16,21.3-10h0l-.2-.2Z"/>
              <path class="cls-8" d="M249.7,226.9c-22.1-6.5-16.5-39.4-46.8-48.5,5.1,0,15.1,7.6,18.9,11.4,9.9,10.6,10.1,25.5,22.7,33.8,1.7,1.2,5.4,2.1,5.2,3.3h0Z"/>
              <path class="cls-19" d="M270,201.7c4.5-.5-.7,10.6-1.3,10.6l-4.5-5.7,5.8-4.9h0Z"/>
            </g>
            <g>
              <path class="cls-19" d="M260.3,278.1c-.7-2.4,3.4-7.5,4.5-10.7,1.5-4.3,5.8-22.1,3-23.8,6.9-10.8,10.6-26.2,7-38.8-2.2-7.8-4.8-8.2-11.8-4.1-.3-1.6-2.2-6.3-3.1-8.2,1-3.1-1.7-9.9-5.8-8.7.2.3.8.2.7.7-.1.5-.1.8-.3,1.2-22.8-29.4-52.2-48-90.4-47.1-1.2,0-1.5-.8-2.3-.8-4.2.1-7.1,3.3-7.2,1.3.7-.3,2.4-1.6,3.1-1.9,2.4-1,5.1-1.9,7.7-2.8,92.9-32.2,158.8,80.9,95,143.7h0Z"/>
              <path class="cls-30" d="M257.6,168.8c9.1,0,7.7,15.6,2.1,13.1.7-6.5-4.2-8.4-6.4-1.3-4.4-3.1-.5-11.7,4.3-11.8h0Z"/>
              <path class="cls-30" d="M263.1,185c9.8,2.3,10.8,13.3,4.2,12.5,1.3-4.9-1.5-8.9-4.2-12.5Z"/>
            </g>
          </g>
        </g>
      </g>
    </g>
  </g>
</svg>