<?xml version="1.0" encoding="utf-8"?>
<!-- Generator: Adobe Illustrator 25.0.1, SVG Export Plug-In . SVG Version: 6.00 Build 0)  -->
<svg version="1.1" id="Calque_1" xmlns="http://www.w3.org/2000/svg" xmlns:xlink="http://www.w3.org/1999/xlink" x="0px" y="0px"
	 viewBox="0 0 64 64" style="enable-background:new 0 0 64 64;" xml:space="preserve">
<style type="text/css">
	.st0{fill:#32BDA5;}
	.st1{fill:#62CCBA;}
	.st2{fill:#FDFEFE;}
</style>
<g>
	<path class="st0" d="M29.8,0c0.5,0,1,0,1.5,0c0.5,0.2,1,0.2,1.5,0c0.5,0,0.9,0,1.4,0c0.1,0.2,0.3,0.1,0.4,0.1
		c2.4,0.2,4.8,0.6,7.1,1.4c12.6,4.1,21.2,15,22.2,28.2c0.4,5.1-0.4,10.1-2.5,14.8c-6.1,14-20.8,21.8-35.8,18.8
		C12.5,60.8,2.2,49.9,0.3,36.6c-0.1-0.7-0.1-1.4-0.3-2.1c0-1.7,0-3.3,0-5c0.1-0.1,0.1-0.2,0.1-0.3c0.1-1.2,0.3-2.4,0.5-3.6
		C3.3,12.4,14.2,2.2,27.6,0.3C28.3,0.2,29,0.3,29.8,0z M48.9,20.9c0-0.2-0.2-0.3-0.4-0.4c-1.6-1.1-3.2-2.2-4.8-3.3
		c-0.5-0.3-0.6-0.2-0.9,0.2c-4.8,7-9.7,14-14.5,21c-0.3,0.5-0.5,0.5-1,0.1c-2.7-2.2-5.5-4.3-8.3-6.5c-0.4-0.3-0.5-0.3-0.8,0.1
		c-1.2,1.6-2.4,3.1-3.6,4.6c-0.3,0.4-0.2,0.5,0.1,0.8c4.8,3.7,9.5,7.4,14.2,11.1c0.4,0.3,0.5,0.2,0.7-0.1
		c6.3-9.1,12.6-18.2,18.9-27.3C48.8,21.1,48.8,21,48.9,20.9z"/>
	<path class="st1" d="M32.8,0c-0.5,0.2-1,0.2-1.5,0C31.8,0,32.3,0,32.8,0z"/>
	<path class="st2" d="M48.9,20.9c-0.1,0.1-0.2,0.2-0.2,0.4c-6.3,9.1-12.6,18.2-18.9,27.3c-0.2,0.4-0.4,0.4-0.7,0.1
		c-4.7-3.7-9.5-7.4-14.2-11.1c-0.3-0.3-0.4-0.4-0.1-0.8c1.2-1.5,2.4-3.1,3.6-4.6c0.3-0.4,0.5-0.4,0.8-0.1c2.7,2.2,5.5,4.3,8.3,6.5
		c0.4,0.3,0.6,0.3,1-0.1c4.8-7,9.7-14,14.5-21c0.3-0.4,0.5-0.5,0.9-0.2c1.6,1.1,3.2,2.2,4.8,3.3C48.7,20.6,48.9,20.7,48.9,20.9z"/>
</g>
</svg>
