<?xml version="1.0" encoding="UTF-8"?>
<svg xmlns="http://www.w3.org/2000/svg" version="1.1" viewBox="0 0 399.3 399.3">
  <defs>
    <style>
      .cls-1 {
        fill: none;
      }

      .cls-2 {
        fill: #eb8840;
      }

      .cls-3 {
        fill: #2493bb;
      }

      .cls-4 {
        fill: #fcf2eb;
      }
    </style>
  </defs>
  <!-- Generator: Adobe Illustrator 28.7.1, SVG Export Plug-In . SVG Version: 1.2.0 Build 142)  -->
  <g>
    <g id="Calque_1">
      <path class="cls-2" d="M399.2,194.6v7.8c-1.2.6-.8,1.8-.8,2.8-2.3,35.7-13.1,68.5-33.1,98.2-25.9,38.4-61.1,64.5-105,79.3-11.2,3.8-23.2,4.6-34,9.6-24.4,1.8-48.4,2.2-72.4-4.7-57.9-16.6-102.3-50.2-130.8-103.5C8.3,256.5,1.4,226.5.9,195.2c0-.3.3-.6.3-.9,1.3,0,1.7,1.9,3.2,1.2.1-12.4,4.9-23.9,7.3-36-3,2.3-6.1,4.6-9.6,7.2-.2-5.3-.3-9.8.7-14.2,2.7-12.3,9-22.8,15.9-33.1,2.8-4.2,4.7-8.2,4.7-13.5,0-16,1.7-31.8,7-47,2.9-8.2,6.8-15.8,13.8-22,1.5,7.8,2.8,15,5.4,22,1.8,5,3.7,9.9,7.3,14,.4.7.8,1.3,1.3,1.9,4.9,5.9,7.4,6.5,14.5,4.1,11.8-4,23.9-6.1,36.3-3.3,2.7.6,4.5,0,6.6-1.8,10.3-9.2,21.8-16.2,35.1-20.2,4.4-1.3,8.9-2.8,14.7-2.9-2.5,2-4.3,3.3-6,4.6-10.9,8.5-19.5,18.6-22.1,32.7-.4,2-.7,4.1-1.5,6-.6,1.4.1,2,1,2.5,5,3.1,8.6,7.8,12.8,11.8,6.5,6.1,13.8,10.5,23.1,10,2.6-.1,5.2.2,7.8,0,3.8-.2,5.6,2.1,5.2,5.1-.6,5.4-1.8,10.8-7.4,13.7-8.9,4.7-16.6,10.9-23.9,17.8-1.6,1.6-1.8,2.6-.6,4.5,4.9,8,6.6,16.7,6.3,26,0,3-.7,3.9-3.8,2.8-7.8-2.6-15.8-3.8-23.9-5-4.3-.6-8.2.2-10.6,4-2.6,4.1-4.4,8.8-1.5,13.5,6.9,11.2,16.6,19.5,27.6,26.3,7.4,4.6,15.4,5.9,23.9,4,5.6-1.3,10.6-4,15.6-6.7,18.4-9.7,33.9-5.7,47.3,7,2.4,2.3,4.2,5.4,2.6,8.7-1.7,3.5-5.1,4-8.7,3.3-3.9-.7-7.4,0-10.7,2.3-5,3.5-10.3,6.5-15.3,10-12.8,9-27,13.5-42.5,14.2-5.1.2-10.2,0-16.1,0,1,1.1,1.4,1.6,1.8,2,10.9,10.4,23.2,18.8,37.6,23.5,22,7.3,43.9,8.4,65.3-2.4,12.4-6.2,22.9-15.1,32.2-25.3,5.8-6.4,11-13.3,16.4-20.1.3,9.9-1.5,19.3-3.8,28.7,0,.3-.2.8,0,.9.4.3.5-.2.6-.4,8.3-8.1,12.8-18.4,16.2-29.2,5.2-16.9,6-34.4,4.9-51.9-.3-4.6-.6-9.2-1-13.8,6.5,6.7,8.6,15.4,12.2,23.9,1.4-3.8,2.1-7.2,2.6-10.6,3.5-21.6,1.4-42.8-3.4-64-.5-2-2.2-4.9-.8-5.8,2-1.3,4.5.8,6.6,2.1,3.9,2.3,6.4,6.2,10.1,10.3-.2-3.1-.2-5.3-.5-7.4-1.7-12.5-8-22.8-16.2-32.1-12.5-14.1-28.5-22.9-45.1-30.9-5.5-2.7-11.2-5-17.2-7.6,3.9-2.5,7.9-3.1,12-3.4,4.2-.3,8.4.2,13.1.6-10.3-14.3-25-20-40.5-24.3,16.8-.1,33.1,1.8,49.2,6.2,4.7,1.3,9.1,3.7,14,4.3.9.5,1.6,1.2,2.6,1.6,29.3,12.7,50,34,63.5,62.6,1.4,3,2.8,6,4.6,10v-6.1c5.6,17.2,8.1,34.9,10.4,53.4,3.6-5.6,3-11.6,4.7-17.3,2,4,1.1,8.2,2.9,11.8v24.9c-1.5,2.8-1.2,5.9-1.5,8.9-.1,1,.6,1.3,1.5,1.2h0Z"/>
      <path class="cls-1" d="M57.1,72.9c-3.6-4.1-5.5-9-7.3-14-2.6-6.9-3.9-14.2-5.4-22-7,6.2-10.9,13.8-13.8,22-5.4,15.2-7,31-7,47s-1.9,9.3-4.7,13.5c-6.8,10.2-13.2,20.8-15.9,33.1-1,4.4-.9,9-.7,14.2,3.5-2.6,6.6-4.9,9.6-7.2-2.5,12.1-7.2,23.6-7.3,36-1.6.7-1.9-1.3-3.2-1.2-.1.2-.4.5-.4.9.5,31.4,7.4,61.3,22.1,88.9,28.5,53.3,72.9,86.9,130.8,103.5,24,6.9,48.1,6.4,72.4,4.7,10.8-5,22.8-5.8,34-9.6,43.9-14.8,79.1-40.9,105-79.3,20-29.7,30.8-62.5,33.1-98.2,0-1-.4-2.1.8-2.8,0,64.6,0,129.2,0,193.8,0,2.7-.5,3.2-3.2,3.2-131,0-262,0-392.9,0-2.7,0-3.2-.5-3.2-3.2C0,265.2,0,134.2,0,3.2,0,.5.5,0,3.2,0,134.2,0,265.1,0,396.1,0c2.7,0,3.2.5,3.2,3.2-.1,52.1,0,104.3,0,156.4-1.8-3.6-.9-7.8-2.9-11.8-1.6,5.7-1.1,11.7-4.7,17.3-2.3-18.5-4.8-36.2-10.4-53.3v6.1c-1.9-4-3.2-7-4.6-10-13.5-28.6-34.2-50-63.5-62.6-.9-.4-1.7-1.1-2.6-1.6-.5-1.3-1.8-1.8-2.9-2.5-25-17.7-52.6-28.6-83-32.6-35.1-4.6-69,.1-101.4,14.6-25.9,11.6-47.8,28.4-66.2,49.8h0Z"/>
      <path class="cls-4" d="M399.2,194.6c-.9,0-1.6-.2-1.5-1.2.3-3,0-6.1,1.5-8.9v10.1h0Z"/>
      <path class="cls-3" d="M57.1,72.9c18.5-21.4,40.4-38.3,66.2-49.8,32.4-14.5,66.2-19.2,101.4-14.6,30.4,3.9,58,14.9,83,32.6,1,.7,2.3,1.2,2.9,2.5-4.9-.6-9.3-3-14-4.3-16.1-4.4-32.5-6.3-49.2-6.2,15.6,4.3,30.3,9.9,40.5,24.3-4.8-.3-9-.9-13.1-.6-4.1.3-8.1,1-12,3.4,6,2.6,11.7,4.9,17.2,7.6,16.6,8,32.7,16.8,45.1,30.9,8.2,9.3,14.5,19.5,16.2,32.1.3,2.1.3,4.2.5,7.4-3.7-4.1-6.2-7.9-10.1-10.3-2.1-1.2-4.5-3.3-6.6-2.1-1.4.9.3,3.8.8,5.8,4.8,21.1,7,42.4,3.4,64-.6,3.4-1.2,6.9-2.6,10.6-3.6-8.5-5.7-17.2-12.2-23.9.3,4.6.7,9.2,1,13.8,1,17.6.3,35-4.9,51.9-3.3,10.8-7.9,21.1-16.2,29.2-.1-.2-.3-.3-.5-.5,2.3-9.4,4.1-18.8,3.8-28.7-5.4,6.9-10.6,13.8-16.4,20.1-9.3,10.2-19.8,19-32.2,25.3-21.4,10.7-43.3,9.7-65.3,2.4-14.4-4.8-26.7-13.1-37.6-23.5-.4-.4-.8-.9-1.8-2,5.9,0,11,.2,16.1,0,15.5-.7,29.8-5.1,42.5-14.2,5-3.5,10.3-6.6,15.3-10,3.3-2.3,6.8-3,10.7-2.3,3.6.6,7,.1,8.7-3.3,1.6-3.3-.1-6.4-2.6-8.7-13.4-12.8-28.9-16.7-47.3-7-5.1,2.6-10,5.4-15.6,6.7-8.5,1.9-16.5.6-23.9-4-11-6.9-20.7-15.2-27.6-26.3-2.9-4.7-1.1-9.4,1.5-13.5,2.4-3.8,6.3-4.6,10.6-4,8.1,1.2,16.2,2.3,23.9,5,3.1,1.1,3.7.1,3.8-2.8.3-9.3-1.4-18.1-6.3-26-1.2-1.9-1-3,.6-4.5,7.3-6.9,15-13.1,23.9-17.8,5.6-2.9,6.7-8.4,7.4-13.7.4-3.1-1.5-5.4-5.2-5.1-2.6.2-5.2-.2-7.8,0-9.4.4-16.6-3.9-23.1-10-4.2-4-7.8-8.7-12.8-11.8-.8-.5-1.6-1-1-2.5.8-1.9,1.1-4,1.5-6,2.6-14.1,11.2-24.2,22.1-32.7,1.7-1.3,3.4-2.7,6-4.6-5.8.1-10.2,1.5-14.7,2.9-13.2,4-24.8,11-35.1,20.2-2,1.8-3.8,2.4-6.6,1.8-12.4-2.8-24.5-.7-36.3,3.3-7.2,2.4-9.7,1.8-14.5-4.1-.5-.6-.9-1.3-1.3-1.9h0Z"/>
      <path class="cls-3" d="M294.3,277.2c-.1.3-.1.7-.6.4-.1,0,0-.6,0-.9.2.1.3.3.5.5h0Z"/>
    </g>
  </g>
</svg>