<?xml version="1.0" encoding="UTF-8"?>
<svg id="Calque_1" data-name="Calque 1" xmlns="http://www.w3.org/2000/svg" version="1.1" viewBox="0 0 850.4 566.9">
  <defs>
    <style>
      .cls-1 {
        fill: #333;
      }

      .cls-1, .cls-2, .cls-3, .cls-4, .cls-5, .cls-6, .cls-7, .cls-8, .cls-9, .cls-10, .cls-11, .cls-12, .cls-13, .cls-14, .cls-15, .cls-16, .cls-17, .cls-18, .cls-19, .cls-20, .cls-21, .cls-22, .cls-23, .cls-24, .cls-25, .cls-26, .cls-27, .cls-28, .cls-29, .cls-30, .cls-31, .cls-32 {
        stroke-width: 0px;
      }

      .cls-2 {
        fill: #f48d06;
      }

      .cls-33 {
        stroke-width: .2px;
      }

      .cls-33, .cls-34, .cls-35, .cls-36 {
        fill: none;
        stroke: #fbb03b;
        stroke-miterlimit: 10;
      }

      .cls-3 {
        fill: #e77a75;
      }

      .cls-4 {
        fill: #a2ad22;
      }

      .cls-5, .cls-17 {
        opacity: .1;
      }

      .cls-5, .cls-17, .cls-21 {
        fill: #000;
      }

      .cls-5, .cls-17, .cls-37 {
        isolation: isolate;
      }

      .cls-5, .cls-21 {
        mix-blend-mode: multiply;
      }

      .cls-6 {
        fill: #fcfcf9;
      }

      .cls-7 {
        fill: #fff0c9;
      }

      .cls-8 {
        fill: #c69c6d;
      }

      .cls-9 {
        fill: #e8d521;
      }

      .cls-10 {
        fill: #d04c0e;
      }

      .cls-11 {
        fill: #fefcf6;
      }

      .cls-12 {
        fill: #d13a33;
      }

      .cls-13 {
        fill: #a67c52;
      }

      .cls-14 {
        fill: #fbb03b;
      }

      .cls-15 {
        opacity: .6;
      }

      .cls-15, .cls-31 {
        fill: #fff;
      }

      .cls-34 {
        stroke-width: .1px;
      }

      .cls-16 {
        fill: #70a82d;
      }

      .cls-18 {
        fill: #5b7710;
      }

      .cls-19 {
        fill: #f1c40f;
      }

      .cls-20 {
        fill: #f7931e;
      }

      .cls-21 {
        opacity: 0;
      }

      .cls-35 {
        stroke-width: .2px;
      }

      .cls-22 {
        fill: #f1f3e2;
      }

      .cls-23 {
        fill: #ffde85;
      }

      .cls-24 {
        fill: #c5ce3d;
      }

      .cls-25 {
        fill: #ff7406;
      }

      .cls-36 {
        stroke-width: 0px;
      }

      .cls-26 {
        fill: #bd3829;
      }

      .cls-27 {
        fill: #ffff21;
      }

      .cls-28 {
        fill: #728801;
      }

      .cls-29 {
        fill: #fcee21;
      }

      .cls-30 {
        fill: #f2530e;
      }

      .cls-32 {
        fill: #c5dcc6;
      }
    </style>
  </defs>
  <g class="cls-37">
    <g id="background">
      <rect class="cls-32" y="0" width="850.4" height="566.9"/>
    </g>
    <g id="elements">
      <g id="fourchettte">
        <g>
          <path class="cls-5" d="M259.3,233.5c0-1.4-1.1-10.4-2.5-10.4s-2.5,9-2.5,10.4v42.3c-1.3.3-2.8.7-4.6.9v-43.2c0-1.4-1.1-10.4-2.5-10.4s-2.5,9-2.5,10.4v43.5c0,0,0,.1,0,.2-.8,0-1.6,0-2.4,0s-1.5,0-2.2,0c0,0,0-.1,0-.2v-43.5c0-1.4-1.1-10.4-2.5-10.4s-2.5,9-2.5,10.4v43.2c-1.7-.3-3.2-.6-4.6-.9v-42.3c0-1.4-1.1-10.4-2.5-10.4s-2.5,9-2.5,10.4v40.6s-1.2,7.6,3.7,20.1,8.8,11.1,8.6,18.8h0l-5.7,149.5c-.2,5.5,4.3,10.1,10.1,10.1s10.3-4.6,10.1-10.1l-5.7-149.5h0c-.2-7.7,3.7-6.3,8.6-18.8,3.6-9.1,3.9-14.5,3.8-19.5,0,0,0,0,0,0v-41.2h0Z"/>
          <path class="cls-11" d="M252.8,227c0-1.4-1.1-10.4-2.5-10.4s-2.5,9-2.5,10.4v42.3c-1.3.3-2.8.7-4.6.9v-43.2c0-1.4-1.1-10.4-2.5-10.4s-2.5,9-2.5,10.4v43.5c0,0,0,.1,0,.2-.8,0-1.6,0-2.4,0s-1.5,0-2.2,0c0,0,0-.1,0-.2v-43.5c0-1.4-1.1-10.4-2.5-10.4s-2.5,9-2.5,10.4v43.2c-1.7-.3-3.2-.6-4.6-.9v-42.3c0-1.4-1.1-10.4-2.5-10.4s-2.5,9-2.5,10.4v40.6s-1.2,7.6,3.7,20.1,8.8,11.1,8.6,18.8h0l-5.7,149.5c-.2,5.5,4.3,10.1,10.1,10.1s10.3-4.6,10.1-10.1l-5.7-149.5h0c-.2-7.7,3.7-6.3,8.6-18.8,3.6-9.1,3.9-14.5,3.8-19.5,0,0,0,0,0,0v-41.2h0Z"/>
        </g>
      </g>
      <g id="couteau">
        <g>
          <path class="cls-5" d="M621.4,342.6v-122.1h-6.2c-6.9,0-12.5,5.6-12.5,12.5v109.6c0,5.8,4,10.7,9.4,12.1v113.5c0,2.6,2.1,4.7,4.7,4.7s4.7-2.1,4.7-4.7v-121c0-1.4,0-3,0-4.7h0Z"/>
          <path class="cls-11" d="M615.4,336.6v-122.1h-6.2c-6.9,0-12.5,5.6-12.5,12.5v109.6c0,5.8,4,10.7,9.4,12.1v113.5c0,2.6,2.1,4.7,4.7,4.7s4.7-2.1,4.7-4.7v-120.9c0-1.4,0-3,0-4.7h0Z"/>
        </g>
      </g>
      <g id="assiette">
        <g>
          <circle class="cls-17" cx="430" cy="345.8" r="156.1"/>
          <circle class="cls-22" cx="423.3" cy="334.3" r="156.1"/>
          <path class="cls-6" d="M313,224s1.4-1.4,3.9-3.9c1.2-1.3,2.9-2.8,4.8-4.5,1-.9,2-1.8,3.1-2.8,1.2-.9,2.4-1.9,3.7-3,5.3-4.2,11.9-8.9,20.1-13.5,8.2-4.6,17.9-9.1,28.9-12.5,11-3.5,23.5-5.9,36.7-6.9,6.6-.4,13.5-.5,20.5,0,7,.4,14.1,1.4,21.2,2.9,14.2,2.9,28.6,8,42.1,15.2,6.8,3.6,13.2,7.8,19.5,12.3,6.2,4.6,12.1,9.7,17.7,15.1,5.4,5.5,10.5,11.4,15.1,17.7,4.5,6.3,8.8,12.7,12.3,19.5,7.2,13.5,12.3,27.8,15.2,42.1,1.5,7.1,2.5,14.2,2.9,21.2.5,7,.4,13.8,0,20.5-1,13.3-3.3,25.7-6.9,36.7-3.5,11.1-7.9,20.8-12.5,28.9-4.6,8.2-9.4,14.9-13.5,20.1-1,1.3-2,2.5-3,3.7-1,1.1-1.9,2.2-2.8,3.1-1.7,2-3.2,3.6-4.5,4.8-2.5,2.5-3.9,3.9-3.9,3.9,0,0,1.3-1.4,3.7-4.1,1.2-1.3,2.7-3,4.3-5,.8-1,1.7-2.1,2.6-3.2.9-1.2,1.8-2.5,2.8-3.8,4-5.4,8.5-12.1,12.7-20.4,4.3-8.2,8.3-17.9,11.6-28.9s5.3-23.2,6-36.2c.2-6.5.2-13.2-.4-20-.2-3.4-.7-6.8-1.1-10.3-.2-1.7-.6-3.4-.9-5.2-.3-1.7-.6-3.5-1-5.2-2.9-13.9-8-27.8-15.1-40.9-3.5-6.6-7.7-12.8-12.1-18.9-4.5-6-9.5-11.6-14.8-17.1-5.4-5.3-11-10.3-17.1-14.8-6.1-4.4-12.3-8.6-18.9-12.1-13.1-7.1-27-12.1-40.9-15.1-1.7-.4-3.5-.7-5.2-1-1.7-.3-3.5-.6-5.2-.9-3.5-.4-6.9-.9-10.3-1.1-6.8-.6-13.5-.6-20-.4-13,.7-25.2,2.8-36.2,6s-20.6,7.3-28.9,11.6c-8.3,4.2-15,8.8-20.4,12.7-1.3,1-2.6,1.9-3.8,2.8-1.1.9-2.2,1.8-3.2,2.6-2,1.6-3.7,3.1-5,4.3-2.7,2.4-4.1,3.7-4.1,3.7h0Z"/>
        </g>
        <g>
          <path class="cls-18" d="M452.2,371.3c36.6-22.6-1.6-107.9-24.6-117.2-10.4-4.2-14.5,8.5-30.2,2.9-18.1-6.4-29.6-29.4-36.8-28.8-6.4.5,1.5,19-5.7,20.5-9,1.9-27.4-25.8-43.1-27.6-14.1-1.7-21.4,17.8-19.9,35.5,3.1,38.4,49.7,93.5,101.1,112.5,6.9,2.5,39.3,14.5,59.1,2.3Z"/>
          <path class="cls-18" d="M503.3,322.1s14.4-10.3,14.6-14c.2-3.4-8.6-7-14.8-8.4-6.2-1.4-10.1-.7-10.3-1.7-.5-2.5,23.4-6.8,23.3-12.3,0-3.7-11-7.1-19.9-7.8-12.7-1.1-22,3-22.4,1.8-.9-2.3,37.2-14.7,36-24.6-.7-5.4-12.9-9.1-22.3-9-14.4.1-24.9,9-33,16.1-7.5,6.5-7.3,8.5-26.7,32.8-9.6,12-11.5,13.9-17.5,22.1-12.6,17.2-18.9,25.9-17.2,32.1,3,10.8,28.1,16,36.7,15,27.5-3.3,36-3,66.6-14.7,2-.8,29.1-11.2,27.9-16.4-.9-3.9-20.8-11-20.8-11Z"/>
          <path class="cls-16" d="M464.9,354.5s14.4-10.3,14.6-14c.2-3.4-8.6-7-14.8-8.4-6.2-1.4-10.1-.7-10.3-1.7-.5-2.5,23.4-6.8,23.3-12.3,0-3.7-11-7.1-19.9-7.8-12.7-1.1-22,3-22.4,1.8-.9-2.3,37.2-14.7,36-24.6-.7-5.4-12.9-9.1-22.3-9-14.4.1-24.9,9-33,16.1-7.5,6.5-7.3,8.5-26.7,32.8-9.6,12-11.5,13.9-17.5,22.1-12.6,17.2-18.9,25.9-17.2,32.1,3,10.8,28.1,16,36.7,15,27.5-3.3,36-3,66.6-14.7,2-.8,29.1-11.2,27.9-16.4-.9-3.9-20.8-11-20.8-11Z"/>
          <path class="cls-18" d="M343.3,402.7c.3,1.4-2.1,2.8-5.5,5.8-10.9,9.4-19.1,22.9-16.2,26.1,3.1,3.4,19.8-3.8,28.2-7.6,30.5-13.8,90.8-41,93-64.6,3.5-38.5-148.4-55.5-158.8-40.5-2.5,3.6,6,12.6,13.8,17.3,8.1,4.9,16.4,5.7,15.7,7.7-1.2,3.2-24.7,2.7-26.3,6.5-1.9,4.5,29.2,9.8,27,16.4-1.4,4.1-18.3,3.2-19.6,7.8-2.6,9.1,4.9,9.2,17.9,9.8,12.8.5,32.3-1.2,32.3-1.2,0,0-40,6.1-37.5,17.2,3.5,16,34.9-5.3,36-.4Z"/>
          <path class="cls-16" d="M350.2,378.1c.1.8-1.8,1.9-4.5,3.9-8.8,6.6-15.9,15.4-14,17.1,2.1,1.8,15.1-3.8,21.6-6.8,23.8-10.7,70.8-31.8,74.2-46.4,5.5-23.8-106.5-22.9-115.5-12.9-2.1,2.4,3.5,7.2,9,9.6,5.7,2.4,11.8,2.3,11.2,3.5-1.1,2.1-18.6,3.5-20.1,5.9-1.8,2.9,21.1,3.8,18.9,8-1.4,2.6-13.9,3.3-15.2,6.2-2.6,5.7,3,5.3,12.6,4.6,9.5-.6,24.2-3.1,24.2-3.1,0,0-30.3,6.7-29.3,13.3,1.4,9.5,26.4-5.8,26.9-2.9Z"/>
          <path class="cls-18" d="M544.8,355.1c-1-9.1-30.4-15.8-60.6-15.9-65.2-.3-122.3,30.1-119.9,40.6,1.6,7.2,31.4,3.1,34.2,14,2.8,10.7-23.6,24.1-20.5,31.3,3,6.9,29.9-.6,32,5.2,2.1,5.7-23,15.8-21.7,25.3.8,5.5,11.1,4.2,32.9,13.4,14,5.9,16.4,9.2,23.9,9.3,8.8.1,9.6-6.1,26.2-13,11.2-4.7,12-2.8,17.9-6.7,10.5-7,10.6-15.1,17.5-16.2,8.4-1.3,14.3,9.3,17.7,7.3,5-2.8-8.6-24-.7-36.2,7.8-11.9,30.9-7.5,31.6-12.9.8-6.1-28.7-10.6-29.7-22.1-.9-9.9,20-15.4,19.2-23.3Z"/>
          <path class="cls-16" d="M483.3,329.1c-5.5-7-26.7-9-44.8-5.8-39,7-56.5,37.2-49.4,45.2,4.9,5.5,20.4-1,28,7.2,7.5,8.1-.9,21.6,4.8,26.8,5.5,5.1,17.5-3.8,21.9.5,4.3,4.2-5.1,14.9.8,22.2,3.4,4.2,8.9,2,26.9,6.9,11.6,3.1,14.8,5.4,19.3,4.7,5.3-.9,2.4-5.9,8.5-13.1,4.1-4.9,5.7-3.5,7-7.2,2.4-6.7-1.9-13,1.6-14.7,4.3-2,13.5,5.7,14.5,3.8,1.4-2.8-18.2-17.9-20.1-28.3-1.8-10.2,14.3-9.3,11.8-13.6-2.8-4.8-22.9-5.1-29.7-14.1-5.9-7.7,3.6-14.3-1.2-20.4Z"/>
          <path class="cls-18" d="M399.2,474.9c7.4,1.1,21.2-11.3,30.2-25.2,19.3-30,12.3-61.7,3.5-62.4-6.1-.5-11.6,13.9-20.9,13.3-9.2-.6-11.9-15.1-18.4-14.9-6.2.2-8.3,13.9-13.4,13.8-5,0-5.6-13.4-13.4-14.4-4.5-.6-6.5,4.4-20.1,12.8-8.7,5.4-12,6-14.2,9.4-2.7,4,1.9,5.5,2.5,14.4.4,6-1.4,6,0,9.4,2.4,6.1,8.7,7.5,7.5,10.9-1.4,4.1-11.4,5-10.9,6.9.8,2.8,21.2.2,28.4,6,7,5.7-3.2,15.6.8,16.8,4.5,1.4,16.7-11.4,26-9.9,8,1.3,6.1,11.9,12.5,12.9Z"/>
          <path class="cls-16" d="M396,281.3s-10.5-10.6-13.6-10.3c-2.8.3-4.7,8.1-5,13.4-.4,5.3.7,8.5,0,8.8-2,.7-8.7-18.6-13.3-17.8-3.1.6-4.4,10.1-3.9,17.6.7,10.8,5.4,17.9,4.5,18.4-1.8,1.1-17.1-29-25.2-26.7-4.4,1.3-5.8,12-4.5,19.8,2,12,10.8,19.5,17.8,25.4,6.4,5.4,8,5,30.8,17.9,11.3,6.4,13.1,7.7,20.7,11.7,16,8.3,24.1,12.4,29,10.1,8.6-3.9,9.6-25.5,7.7-32.5-6.3-22.5-7.2-29.6-21-53.5-.9-1.6-13.2-22.8-17.3-21.1-3.1,1.3-6.4,18.8-6.4,18.8Z"/>
          <g>
            <circle class="cls-26" cx="374.2" cy="283.1" r="12.7"/>
            <ellipse class="cls-12" cx="373.1" cy="282.5" rx="10" ry="9.8" transform="translate(41.4 612.6) rotate(-82)"/>
            <ellipse class="cls-3" cx="375" cy="277" rx="3.1" ry="4.4" transform="translate(65.2 625.3) rotate(-84.8)"/>
          </g>
          <g>
            <circle class="cls-26" cx="345.6" cy="348.7" r="12.7"/>
            <ellipse class="cls-12" cx="345.2" cy="349.8" rx="10" ry="9.8" transform="translate(-20.6 21.6) rotate(-3.5)"/>
            <ellipse class="cls-3" cx="343.9" cy="343.8" rx="3.8" ry="2.4" transform="translate(-77.2 100.6) rotate(-15)"/>
          </g>
          <g>
            <circle class="cls-26" cx="441.8" cy="314.1" r="12.7"/>
            <ellipse class="cls-12" cx="441.4" cy="315.2" rx="10" ry="9.8" transform="translate(-18.3 27.3) rotate(-3.5)"/>
            <ellipse class="cls-3" cx="440.1" cy="309.1" rx="3.8" ry="2.4" transform="translate(-65 124.3) rotate(-15)"/>
          </g>
          <g>
            <circle class="cls-26" cx="440.3" cy="409.8" r="12.7"/>
            <ellipse class="cls-12" cx="439.9" cy="410.9" rx="10" ry="9.8" transform="translate(-24.1 27.4) rotate(-3.5)"/>
            <ellipse class="cls-3" cx="438.6" cy="404.8" rx="3.8" ry="2.4" transform="translate(-89.7 127.1) rotate(-15)"/>
          </g>
          <g>
            <g>
              <path class="cls-9" d="M356.7,417.7l-1.4,4v.3c-.5,1-1.5,1.7-2.6,1.7l-4.6-.2c-1.1,0-2-.8-2.3-1.8l-1.3-4.4c-.3-1.1,0-2.2,1-2.8l1.8-1.2,2.1-1.4c.9-.6,2.1-.6,3,.1l3.6,2.8c.9.7,1.2,1.8.8,2.8Z"/>
              <path class="cls-29" d="M356.7,417.7l-1.4,4h0s-4.6-.1-4.6-.1c-1.1,0-2-.8-2.3-1.8l-1.3-4.4c-.2-.7,0-1.4.3-2l2.1-1.4c.9-.6,2.1-.6,3,.1l3.6,2.8c.9.7,1.2,1.8.8,2.8Z"/>
            </g>
            <path class="cls-15" d="M350,412.4c.2-.3,1.1.1,2,.5.7.3,2.7,1.2,2.6,2.1,0,.5-.6.9-1.1,1-1.7.3-3.9-3-3.5-3.6Z"/>
          </g>
          <g>
            <g>
              <path class="cls-9" d="M505.1,393.9l-1.4,4v.3c-.5,1-1.5,1.7-2.6,1.7l-4.6-.2c-1.1,0-2-.8-2.3-1.8l-1.3-4.4c-.3-1.1,0-2.2,1-2.8l1.8-1.2,2.1-1.4c.9-.6,2.1-.6,3,.1l3.6,2.8c.9.7,1.2,1.8.8,2.8Z"/>
              <path class="cls-29" d="M505.1,393.9l-1.4,4h0s-4.6-.1-4.6-.1c-1.1,0-2-.8-2.3-1.8l-1.3-4.4c-.2-.7,0-1.4.3-2l2.1-1.4c.9-.6,2.1-.6,3,.1l3.6,2.8c.9.7,1.2,1.8.8,2.8Z"/>
            </g>
            <path class="cls-15" d="M498.4,388.7c.2-.3,1.1.1,2,.5.7.3,2.7,1.2,2.6,2.1,0,.5-.6.9-1.1,1-1.7.3-3.9-3-3.5-3.6Z"/>
          </g>
          <g>
            <g>
              <path class="cls-9" d="M406.5,442.4l-1.4,4.6v.4c-.5,1.2-1.3,2-2.3,2h-3.9c-.9,0-1.7-.8-1.9-2l-.9-4.9c-.2-1.2.2-2.5,1-3.2l1.6-1.4,1.8-1.7c.8-.7,1.8-.7,2.5,0l3,3c.7.7,1,2,.6,3.2Z"/>
              <path class="cls-29" d="M406.5,442.4l-1.4,4.6h0s-3.9,0-3.9,0c-.9,0-1.7-.8-1.9-2l-.9-4.9c-.2-.8,0-1.6.3-2.2l1.8-1.7c.8-.7,1.8-.7,2.5,0l3,3c.7.7,1,2,.6,3.2Z"/>
            </g>
            <path class="cls-15" d="M400.9,436.7c.2-.3,1,0,1.7.5.6.3,2.3,1.2,2.2,2.3,0,.5-.5,1-1,1.2-1.5.4-3.3-3.3-2.9-3.9Z"/>
          </g>
          <g>
            <g>
              <path class="cls-9" d="M488.7,341.6l-1.6,4.3v.4c-.5,1.1-1.6,1.9-2.8,1.8l-5-.2c-1.2,0-2.2-.8-2.6-2l-1.4-4.8c-.3-1.2.1-2.4,1.1-3l1.9-1.3,2.2-1.5c1-.7,2.3-.6,3.2.1l4,3.1c1,.7,1.3,2,.9,3.1Z"/>
              <path class="cls-29" d="M488.7,341.6l-1.6,4.3h0s-5-.2-5-.2c-1.2,0-2.2-.9-2.6-2l-1.4-4.8c-.2-.7-.1-1.5.3-2.2l2.2-1.5c1-.7,2.3-.6,3.2.1l4,3.1c1,.7,1.3,2,.9,3.1Z"/>
            </g>
            <path class="cls-15" d="M481.3,335.9c.2-.3,1.2.1,2.2.5.7.3,3,1.3,2.9,2.3,0,.5-.6,1-1.2,1.1-1.9.4-4.3-3.3-3.8-3.9Z"/>
          </g>
          <g>
            <path class="cls-9" d="M335.7,301l-1.1-2.6-1.8-4.2-1.1-2.6c-.2-.3-.2-.6-.3-.8,0-.8.3-1.6,1.1-2l3.3-1.6c.7-.4,1.6-.3,2.3.1.3.2.5.4.7.7l3.9,5.4h.1c0,.1,0,.2,0,.2l1.9,2.6c.6,1,.2,2.3-.8,2.8l-5.3,2.8c-1,.6-2.4.2-2.9-.8Z"/>
            <path class="cls-27" d="M334.4,298.1l-1.5-3.9-1.4-3.4c0-.8.3-1.6,1.1-2l3.3-1.6c.7-.4,1.6-.3,2.3.1l4.6,6.1h.1c0,.1,0,.2,0,.2.4.8,0,1.8-.9,2.4l-5,2.6c-.8.4-1.8.3-2.4-.2,0,0-.2-.2-.2-.3Z"/>
            <path class="cls-15" d="M335.5,288.6c-.2-.3-2.2,0-2.9,1.1-.5.8-.1,1.6.4,2.1,0,0,.5.4.8.3.3-.1,0-.5.3-1.1.2-.6.7-.7,1.2-1.6.2-.4.3-.5.2-.6Z"/>
          </g>
          <g>
            <path class="cls-9" d="M384.2,408.8l2.1-1.8,3.4-2.9,2.1-1.8c.2-.2.4-.4.7-.5.7-.3,1.6-.1,2.3.5l2.7,2.8c.6.6.9,1.5.7,2.3,0,.3-.2.6-.4.9l-3.7,5.4h-.1c0,.1,0,.2,0,.2l-1.8,2.6c-.7.9-2.1.8-3,0l-4.6-4.4c-.9-.9-1-2.3-.3-3.1Z"/>
            <path class="cls-27" d="M386.5,406.7l3.2-2.6,2.8-2.3c.7-.3,1.6-.1,2.3.5l2.7,2.8c.6.6.9,1.5.7,2.3l-4.2,6.3h-.1c0,.1,0,.2,0,.2-.6.7-1.7.6-2.6-.3l-4.3-4.2c-.7-.7-1-1.7-.6-2.4,0-.1.1-.2.2-.3Z"/>
            <path class="cls-15" d="M395.9,405.2c.2-.3-.7-2.2-2-2.6-.9-.2-1.6.4-1.8,1,0,0-.2.6,0,.8.2.2.5-.1,1.2,0,.7,0,.9.5,2,.8.4.1.6.2.7,0Z"/>
          </g>
          <g>
            <path class="cls-9" d="M412.4,287.6l-.3-2.3-.6-3.8-.4-2.3c0-.2,0-.5,0-.7.1-.7.7-1.3,1.5-1.5l3.5-1c.8-.2,1.6,0,2.1.4.2.2.4.4.4.7l2.3,5h0c0,.1,0,.1,0,.1l1.1,2.4c.3.9-.4,1.9-1.5,2.3l-5.6,1.8c-1.1.3-2.3-.1-2.5-1Z"/>
            <path class="cls-27" d="M412,285l-.4-3.5-.4-3.1c.1-.7.7-1.3,1.5-1.5l3.5-1c.8-.2,1.6,0,2.1.4l2.7,5.7h0c0,.1,0,.1,0,.1.2.7-.4,1.6-1.5,1.9l-5.3,1.6c-.9.3-1.8,0-2.2-.5,0,0-.1-.2-.1-.3Z"/>
            <path class="cls-15" d="M415.3,278.4c.1-.5-.8-1.7-1.8-1.1-.7.4-1.1,1.4-1.1,2.1,0,0,0,.7.2.8.2,0,.3-.5.8-.9.5-.4.7-.1,1.5-.6.3-.2.5-.3.5-.4Z"/>
          </g>
          <g>
            <path class="cls-9" d="M470.2,443.7l-1.5-2.3-2.4-3.7-1.5-2.3c-.2-.2-.3-.5-.4-.8-.2-.8.1-1.7.9-2.4l3.2-2.7c.7-.6,1.6-.9,2.4-.6.3,0,.6.3.8.5l4.8,4.2h.1c0,.1,0,.1,0,.1l2.3,2c.7.8.5,2.2-.5,3.1l-5.1,4.6c-1,.9-2.4,1-3.2.1Z"/>
            <path class="cls-27" d="M468.5,441.2l-2.1-3.5-1.9-3c-.2-.8.1-1.7.9-2.4l3.2-2.7c.7-.6,1.6-.9,2.4-.6l5.6,4.7h.1c0,.1,0,.1,0,.1.6.7.3,1.9-.7,2.7l-4.8,4.3c-.8.7-1.9.9-2.5.6-.1,0-.2-.1-.3-.2Z"/>
            <path class="cls-15" d="M468.8,432.7c-.1-.6-1.7-1.3-2.5-.3-.5.7-.5,2-.2,2.8,0,0,.3.8.5.7.2,0,.1-.7.5-1.3.3-.6.7-.5,1.3-1.3.2-.3.4-.5.3-.7Z"/>
          </g>
          <path class="cls-31" d="M371.2,393.4c-7.6,13.1-23.8,18.9-38.3,13.2-13.6-5.4-21.4-19.2-19.5-33.1l1.7.6c.5,11.9,7.9,22.9,19.8,27.6,12.6,5,26.6,1.1,35-8.6l1.5.2Z"/>
          <path class="cls-31" d="M415.1,291.6c12.4-8.6,29.6-7.1,40.3,4.2,10.1,10.6,11.2,26.5,3.7,38.2l-1.3-1.2c4.6-11,2.5-24.1-6.2-33.4-9.3-9.9-23.6-12.3-35.3-7l-1.2-.8Z"/>
          <path class="cls-31" d="M456.7,407.9c9.7,11.6,9.6,28.9-.7,40.5-9.7,11-25.4,13.5-37.8,7l1.1-1.4c11.3,3.6,24.3.4,32.7-9.1,9-10.2,10.2-24.6,3.9-35.8l.7-1.3Z"/>
          <g>
            <circle class="cls-21" cx="391.7" cy="330.2" r="24.3"/>
            <circle class="cls-31" cx="389.7" cy="328.1" r="24.3"/>
          </g>
          <ellipse class="cls-20" cx="384.3" cy="323.5" rx="14.7" ry="14.2" transform="translate(10.5 659) rotate(-82)"/>
          <g>
            <ellipse class="cls-21" cx="453.2" cy="364.2" rx="21.9" ry="22.3" transform="translate(29.4 762.2) rotate(-82)"/>
            <ellipse class="cls-31" cx="451.4" cy="362.3" rx="21.9" ry="22.3" transform="translate(29.7 758.8) rotate(-82)"/>
            <ellipse class="cls-20" cx="459.1" cy="362.7" rx="11.6" ry="12.3" transform="translate(35.9 766.8) rotate(-82)"/>
          </g>
          <g>
            <path class="cls-13" d="M432.8,349.4l-1.4,3.4-.5.5-1.4,1.3-5.7,5s0,0,.2.2c.3.2.9.6,1.5,1.1,1.3.9,2.9,2.1,3.7,2.4,1.4.6-15.5,9.3-16.2,9.9s-.3-.5-.5-1.4c-.1-.6-.2-1.4-.4-2.3-.2-1.1-.3-2.4-.5-3.8h0c0-.7-.2-1.3-.2-2-.2-1.7-.4-3.4-.5-4.9-.1-1.2-.2-2.2-.3-3,0-1-.1-1.7-.1-1.7l-3.5,1.1-1.8.6-5.6,1.8-.9.3.3-2.4,2-16.7,2.3.9,1.9.7,3.7,1.4,2,.8,2.2.9,1.4.5.5-.6,3.2-3.7,1.3-1.5,4.7-5.5s0,2.3-.2,5.2h0c0,.6,0,1.2-.1,1.8,0,.2,0,.3,0,.5,0,.8-.1,1.7-.2,2.5,0,1.1-.2,2.1-.3,2.9l2.5-.7.6-.2,1.7-1.8,3.4-3.7,1.4,10.3Z"/>
            <path class="cls-8" d="M404.8,346.8c-.9,5.5-3,8.6-5.2,10.7l-.9.3.3-2.4c1.7-1.8,3.2-4.5,4-9,.3-2,.4-4.4.4-6.9l1.9.7c0,2.3,0,4.5-.4,6.4Z"/>
            <path class="cls-8" d="M412.3,356.5c-.4.7-.9,1.4-1.4,2.1-.1-1.2-.2-2.2-.3-3,0,0,0,0,0,0,1.8-3.1,2.1-6,2.3-8.1.1-1.3.2-2.7,0-4l1.4.5.5-.6c0,1.4,0,2.8,0,4.3-.2,2.2-.5,5.4-2.5,8.9Z"/>
            <path class="cls-8" d="M423.8,340c-.2,0-.4.2-.7.2,0,0,0,0,0,0-.8.2-1.7.2-2.5.1s-1.6-.4-2.4-.8l1.3-1.5c1,.5,2.1.6,3.1.3.5-.1,1-.3,1.4-.6,0,.6,0,1.2-.1,1.7,0,.2,0,.3,0,.5Z"/>
            <path class="cls-8" d="M430.8,353.2l-1.4,1.3c-1.1-1.1-2.1-2.5-2.8-4.3-.8-2-1-4-.9-5.5l.6-.2,1.7-1.8c-.4,1.4-.7,3.9.4,6.7.6,1.6,1.6,2.8,2.5,3.7Z"/>
            <path class="cls-8" d="M425.5,360.8c-1.8,1.1-3.5,2.2-5.2,3.5-2.9,2.2-5.6,4.7-7.9,7.3-.1-.6-.2-1.4-.4-2.3,2.1-2.3,4.5-4.5,7.1-6.5s3.1-2.2,4.7-3.2c.3.2.9.6,1.5,1.1Z"/>
            <path class="cls-8" d="M419.1,354.4c0,1.5.1,2.9-.6,4.6-1,2.7-3.3,4.8-6.9,6.5,0-.7-.2-1.3-.2-2,2.7-1.4,4.5-3.1,5.3-5.2.5-1.4.5-2.4.4-3.8,0-.9,0-2,0-3.3.5-3.8,2.4-7.4,5.8-10.9.2-.2.5-.5.7-.7,0,.2,0,.3,0,.5,0,.8-.1,1.7-.2,2.5-2.6,2.9-4.1,5.9-4.4,8.9-.1,1.1-.1,2.1,0,3Z"/>
            <path class="cls-8" d="M410,346c-.6,1-1.3,1.5-2,2-.6.4-1.1.8-1.4,1.5-.7,1.3-.6,3.2.4,5.6l-1.8.6c-1.2-2.9-1.3-5.2-.3-7,.5-1,1.3-1.6,1.9-2.1.6-.4,1.1-.8,1.4-1.5.5-.9.7-2,.5-3.3l2,.8c0,1.3-.3,2.5-.8,3.5Z"/>
          </g>
          <path class="cls-1" d="M398.3,373.6c-3.3-.5-6.4,1.8-6.8,5.1s1.8,6.4,5.1,6.8,6.4-1.8,6.8-5.1-1.8-6.4-5.1-6.8ZM397.1,382c-1.3-.2-2.2-1.4-2.1-2.7s1.4-2.2,2.7-2.1,2.2,1.4,2.1,2.7-1.4,2.2-2.7,2.1Z"/>
          <path class="cls-1" d="M467.6,295.5c-3.9-.6-7.6,2.2-8.1,6.1-.6,3.9,2.2,7.6,6.1,8.1s7.6-2.2,8.1-6.1c.6-3.9-2.2-7.6-6.1-8.1ZM466.1,305.4c-1.6-.2-2.7-1.7-2.5-3.3s1.7-2.7,3.3-2.5,2.7,1.7,2.5,3.3-1.7,2.7-3.3,2.5Z"/>
          <path class="cls-1" d="M429.7,423.5c-3.7-.5-7.1,2.1-7.6,5.7s2.1,7.1,5.7,7.6,7.1-2.1,7.6-5.7-2.1-7.1-5.7-7.6ZM428.4,432.9c-1.5-.2-2.5-1.6-2.3-3s1.6-2.5,3-2.3,2.5,1.6,2.3,3-1.6,2.5-3,2.3Z"/>
          <path class="cls-1" d="M359,295.2c-3.8-.5-7.2,2.1-7.8,5.9s2.1,7.2,5.9,7.8,7.2-2.1,7.8-5.9-2.1-7.2-5.9-7.8ZM357.7,304.7c-1.5-.2-2.5-1.6-2.3-3.1s1.6-2.5,3.1-2.3,2.5,1.6,2.3,3.1-1.6,2.5-3.1,2.3Z"/>
          <path class="cls-1" d="M337.1,373.5c-3.6-.5-7,2-7.5,5.6s2,7,5.6,7.5,7-2,7.5-5.6-2-7-5.6-7.5ZM335.8,382.7c-1.4-.2-2.5-1.5-2.2-3s1.5-2.5,3-2.2,2.5,1.5,2.2,3-1.5,2.5-3,2.2Z"/>
          <g>
            <circle class="cls-20" cx="335.7" cy="323.1" r="10.5"/>
            <circle class="cls-35" cx="335.7" cy="323.1" r="8.3"/>
            <circle class="cls-33" cx="335.7" cy="323.1" r="6.2"/>
            <circle class="cls-34" cx="335.7" cy="323.1" r="4.2"/>
            <circle class="cls-36" cx="335.7" cy="323.1" r="2.4"/>
            <circle class="cls-14" cx="335.7" cy="323.1" r="1.5"/>
          </g>
          <path class="cls-20" d="M421.8,420.9c-.6,4.6-4.1,8-8.4,8.8l-.5-1.8v-.5c-.1,0-.5-1.6-.5-1.6v-.2c0,0-.1.2-.1.2l-.6,1.7-.2.5-.7,1.9c-.3,0-.5,0-.8,0-5.7-.8-9.7-6.1-8.9-11.9s6.1-9.7,11.9-8.9,9.7,6.1,8.9,11.8Z"/>
          <path class="cls-14" d="M412.6,411c-4.7-.7-9.1,2.6-9.7,7.3s2.6,9.1,7.3,9.7.8,0,1.2,0l.2-.5c-.4,0-.9,0-1.3,0-4.4-.6-7.5-4.7-6.9-9.1s4.7-7.5,9.1-6.9,7.5,4.7,6.9,9.1-3.3,6.3-6.6,6.9v.5c3.7-.6,6.6-3.5,7.1-7.3s-2.6-9-7.3-9.7Z"/>
          <path class="cls-14" d="M412.3,413.1c-3.5-.5-6.8,2-7.3,5.5s2,6.8,5.5,7.3,1.2,0,1.7,0v-.2c0,0,.1.2.1.2,2.7-.4,5-2.6,5.4-5.5s-2-6.8-5.5-7.3ZM410.6,425.5c-3.3-.5-5.6-3.5-5.2-6.9s3.5-5.6,6.9-5.1,5.6,3.5,5.1,6.8-3.5,5.6-6.8,5.2Z"/>
          <path class="cls-14" d="M410.8,423.7c-2.4-.3-4-2.5-3.7-4.9s2.5-4,4.9-3.7,4,2.5,3.7,4.9-2.5,4-4.9,3.7ZM412,415.4c-2.2-.3-4.3,1.2-4.6,3.5s1.2,4.3,3.5,4.6,4.3-1.2,4.6-3.5-1.2-4.3-3.5-4.6Z"/>
          <path class="cls-14" d="M411.1,421.9c-1.4-.2-2.3-1.4-2.1-2.8s1.4-2.3,2.8-2.1,2.3,1.4,2.1,2.8-1.4,2.3-2.8,2.1ZM411.8,417.2c-1.3-.2-2.5.7-2.6,2s.7,2.4,2,2.6,2.5-.7,2.6-2-.7-2.4-2-2.6Z"/>
          <circle class="cls-14" cx="411.4" cy="419.5" r="1.5"/>
          <g>
            <path class="cls-20" d="M351.4,447.8l-1.5-.2,1.1.7c-2.2,2.9-5.9,4.6-9.8,4.1-5.7-.8-9.7-6.1-8.9-11.9s6.1-9.7,11.9-8.9,5.1,1.9,6.8,3.9l-1.5,1.2-.4.3-.4.3h.6c0-.1.5-.2.5-.2l2-.4c1.1,2,1.7,4.3,1.4,6.7s-.8,3-1.7,4.3Z"/>
            <path class="cls-14" d="M349.7,437.1h-.5c1.2,1.8,1.8,3.9,1.5,6-.6,4.4-4.7,7.5-9.1,6.9s-7.5-4.7-6.9-9.1,4.7-7.5,9.1-6.9c2.1.3,3.9,1.4,5.2,3l.4-.3c-1.3-1.7-3.3-2.9-5.5-3.2-4.7-.7-9.1,2.6-9.7,7.3s2.6,9.1,7.3,9.7,9-2.6,9.7-7.3-.3-4.4-1.5-6.1Z"/>
            <path class="cls-14" d="M341.8,448.4c-3.5-.5-6-3.8-5.5-7.3s3.8-6,7.3-5.5,6,3.8,5.5,7.3-3.8,6-7.3,5.5ZM343.6,436.1c-3.3-.5-6.4,1.8-6.8,5.2s1.8,6.4,5.2,6.8,6.4-1.8,6.8-5.2-1.8-6.4-5.2-6.8Z"/>
            <path class="cls-14" d="M342.1,446.3c-2.4-.3-4-2.5-3.7-4.9s2.5-4,4.9-3.7,4,2.5,3.7,4.9-2.5,4-4.9,3.7ZM343.3,438c-2.2-.3-4.3,1.2-4.6,3.5s1.2,4.3,3.5,4.6,4.3-1.2,4.6-3.5-1.2-4.3-3.5-4.6Z"/>
            <path class="cls-14" d="M342.4,444.5c-1.3-.2-2.3-1.4-2.1-2.8s1.4-2.3,2.8-2.1,2.3,1.4,2.1,2.8-1.4,2.3-2.8,2.1ZM343,439.8c-1.3-.2-2.4.7-2.6,2s.7,2.5,2,2.6,2.5-.7,2.6-2-.7-2.4-2-2.6Z"/>
            <circle class="cls-14" cx="342.7" cy="442.1" r="1.5"/>
          </g>
          <g>
            <path class="cls-20" d="M498.3,354.4l.5,1.4.2-1.3c3.6.8,6.7,3.4,7.9,7.1,1.7,5.5-1.4,11.4-6.9,13.1-5.5,1.7-11.4-1.4-13.1-6.9-.8-2.7-.5-5.4.6-7.8l1.7.9.5.2.4.2-.3-.5-.3-.4-1.2-1.7c1.3-1.9,3.2-3.4,5.5-4.1s3.1-.5,4.6-.3Z"/>
            <path class="cls-14" d="M489.3,360.4l.3.4c1-1.8,2.6-3.2,4.7-3.9,4.3-1.3,8.8,1.1,10.1,5.3,1.3,4.3-1.1,8.8-5.3,10.1s-8.8-1.1-10.1-5.4c-.6-2.1-.4-4.2.5-6l-.5-.2c-1,1.9-1.2,4.2-.5,6.3,1.4,4.5,6.2,7.1,10.7,5.7,4.5-1.4,7.1-6.2,5.7-10.8-1.4-4.5-6.2-7.1-10.7-5.7s-3.8,2.1-4.9,3.9Z"/>
            <path class="cls-14" d="M502.9,362.8c1,3.4-.9,7-4.3,8-3.4,1-7-.9-8-4.2s.9-7,4.2-8c3.4-1,7,.9,8,4.2ZM491,366.5c1,3.2,4.4,5,7.6,4,3.2-1,5-4.4,4-7.6-1-3.2-4.4-5-7.6-4-3.2,1-5,4.4-4,7.6Z"/>
            <path class="cls-14" d="M500.9,363.4c.7,2.3-.6,4.7-2.8,5.4s-4.7-.6-5.4-2.8.6-4.7,2.8-5.4c2.3-.7,4.7.6,5.4,2.8ZM492.9,365.9c.7,2.1,2.9,3.3,5.1,2.7s3.3-2.9,2.7-5.1c-.7-2.1-2.9-3.3-5.1-2.7s-3.3,2.9-2.7,5.1Z"/>
            <path class="cls-14" d="M499.1,364c.4,1.3-.3,2.7-1.6,3.1s-2.7-.3-3.1-1.6.3-2.7,1.6-3.1,2.7.3,3.1,1.6ZM494.5,365.4c.4,1.2,1.7,1.9,2.9,1.5s1.9-1.7,1.5-2.9-1.7-1.9-2.9-1.5-1.9,1.7-1.5,2.9Z"/>
            <circle class="cls-14" cx="496.8" cy="364.7" r="1.5"/>
          </g>
        </g>
        <g>
          <path class="cls-19" d="M367.4,200.2c-9.6,19.1-2,42.4,17.1,52s42.4,2,52-17.1c9.6-19.1,2-42.4-17.1-52s-42.4-2-52,17.1Z"/>
          <circle class="cls-31" cx="402" cy="217.7" r="34.9"/>
          <path class="cls-7" d="M416.3,189.4c-15.6-7.9-34.7-1.6-42.6,14-7.9,15.6-1.6,34.7,14,42.6,15.6,7.9,34.7,1.6,42.6-14,7.9-15.6,1.6-34.7-14-42.6h0Z"/>
          <path class="cls-23" d="M378.9,206.5c2.4.3,20.5,11.1,20.5,11.1,0,0-18.5,10.1-21,10.3-2.4.2-5.9-1.7-5.7-10.9.2-9.1,3.8-10.9,6.2-10.6ZM425.6,207.4c-2.4.2-21,10.3-21,10.3,0,0,18.1,10.9,20.5,11.2s6-1.5,6.2-10.6c.2-9.1-3.3-11-5.7-10.9ZM386.7,242.7c7.8,4.8,11.2,2.7,12.3.5s1.6-23.3,1.6-23.3c0,0-18.5,10.2-20,12.1s-1.7,5.9,6.1,10.7h0ZM405,192.2c-1.1,2.2-1.6,23.3-1.6,23.3,0,0,18.5-10.2,20-12.1s1.7-5.9-6.1-10.7c-7.8-4.8-11.2-2.7-12.3-.5h0ZM415.9,243.5c8-4.3,8-8.3,6.6-10.3s-19.3-13.2-19.3-13.2c0,0-.6,21.1.4,23.4.9,2.2,4.2,4.5,12.3.1h0ZM381.5,202.2c1.3,2,19.3,13.2,19.3,13.2,0,0,.6-21.1-.4-23.4s-4.2-4.5-12.3-.1-8,8.3-6.6,10.3h0Z"/>
        </g>
        <g>
          <path class="cls-19" d="M335.7,217c-9.6,19.1-2,42.4,17.1,52,19.1,9.6,42.4,2,52-17.1,9.6-19.1,2-42.4-17.1-52s-42.4-2-52,17.1h0Z"/>
          <path class="cls-31" d="M386,203.3c-17.2-8.7-38.2-1.8-46.9,15.4s-1.8,38.2,15.4,46.9c17.2,8.7,38.2,1.8,46.9-15.4,8.7-17.2,1.8-38.2-15.4-46.9h0Z"/>
          <path class="cls-7" d="M384.6,206.2c-15.6-7.9-34.7-1.6-42.6,14-7.9,15.6-1.6,34.7,14,42.6,15.6,7.9,34.7,1.6,42.6-14,7.9-15.6,1.6-34.7-14-42.6Z"/>
          <path class="cls-23" d="M347.2,223.3c2.4.3,20.5,11.1,20.5,11.1,0,0-18.5,10.1-21,10.3s-5.9-1.7-5.7-10.9,3.8-10.9,6.2-10.6ZM393.8,224.2c-2.4.2-21,10.3-21,10.3,0,0,18.1,10.9,20.5,11.1s6-1.5,6.2-10.6c.2-9.1-3.3-11-5.7-10.9ZM355,259.5c7.8,4.8,11.2,2.7,12.3.5s1.6-23.3,1.6-23.3c0,0-18.5,10.2-20,12.1s-1.7,5.9,6.1,10.7h0ZM373.3,209c-1.1,2.2-1.6,23.3-1.6,23.3,0,0,18.5-10.2,20-12.1s1.7-5.9-6.1-10.7c-7.8-4.8-11.2-2.7-12.3-.5h0ZM384.2,260.3c8-4.3,8-8.3,6.6-10.3s-19.3-13.2-19.3-13.2c0,0-.6,21.1.4,23.4s4.2,4.5,12.3.1h0ZM349.8,219c1.3,2,19.3,13.2,19.3,13.2,0,0,.6-21.1-.4-23.4s-4.2-4.5-12.3-.1-8,8.3-6.6,10.3h0Z"/>
        </g>
        <g>
          <path class="cls-28" d="M527.8,409c4-6.2,12.2-8,18.4-4,6.2,4,8,12.2,4,18.4-4,6.2-12.2,8-18.4,4-6.2-4-8-12.2-4-18.4Z"/>
          <path class="cls-28" d="M492.1,405.6c3.4-5.3,10.4-6.8,15.7-3.5,5.3,3.4,6.8,10.4,3.5,15.7-3.4,5.3-10.4,6.8-15.7,3.5-5.3-3.4-6.8-10.4-3.5-15.7Z"/>
          <path class="cls-28" d="M546.4,334c2.8-4.5,8.8-5.8,13.2-2.9s5.8,8.8,2.9,13.2c-2.8,4.5-8.8,5.8-13.2,2.9-4.5-2.9-5.8-8.8-2.9-13.2h0Z"/>
          <path class="cls-28" d="M496.8,371.3c4-6.2,12.2-8,18.4-4,6.2,4,8,12.2,4,18.4-4,6.2-12.2,8-18.4,4-6.2-4-8-12.2-4-18.4Z"/>
          <path class="cls-28" d="M506.1,385.3c5.8-9,17.7-11.6,26.6-5.8s11.6,17.7,5.8,26.6c-5.8,9-17.7,11.6-26.6,5.8s-11.6-17.7-5.8-26.6Z"/>
          <path class="cls-28" d="M520.6,370.7c4.3-6.8,13.3-8.7,20-4.4,6.8,4.3,8.7,13.3,4.4,20s-13.3,8.7-20,4.4c-6.8-4.3-8.7-13.3-4.4-20h0Z"/>
          <path class="cls-28" d="M541.8,376.4c2.3-3.6,7.2-4.7,10.8-2.4,3.6,2.3,4.7,7.2,2.4,10.8-2.3,3.6-7.2,4.7-10.8,2.4-3.6-2.3-4.7-7.2-2.4-10.8Z"/>
          <path class="cls-28" d="M530,353.4c4.5-7,13.7-9,20.6-4.5s9,13.7,4.5,20.6c-4.5,7-13.7,9-20.6,4.5s-9-13.7-4.5-20.6Z"/>
          <path class="cls-28" d="M496.6,339.4c2.6-4,8-5.2,12-2.6s5.2,8,2.6,12-8,5.2-12,2.6-5.2-8-2.6-12Z"/>
          <path class="cls-28" d="M521.1,328c2.7-4.2,8.2-5.4,12.4-2.7,4.2,2.7,5.4,8.2,2.7,12.4-2.7,4.2-8.2,5.4-12.4,2.7s-5.4-8.2-2.7-12.4Z"/>
          <path class="cls-28" d="M500.1,350c4.9-7.7,15.1-9.9,22.8-5,7.7,4.9,9.9,15.1,5,22.8-4.9,7.7-15.1,9.9-22.8,5-7.7-4.9-9.9-15.1-5-22.8Z"/>
          <path class="cls-28" d="M522.6,337.5c4.4-6.9,13.6-8.9,20.4-4.5,6.9,4.4,8.9,13.6,4.5,20.4-4.4,6.9-13.6,8.9-20.4,4.5s-8.9-13.6-4.5-20.4h0Z"/>
          <circle class="cls-28" cx="513.9" cy="333.5" r="14.8"/>
          <path class="cls-28" d="M480.5,365c3.3-5.1,10.1-6.6,15.2-3.4,5.1,3.3,6.6,10.1,3.4,15.2-3.3,5.1-10.1,6.6-15.2,3.4-5.1-3.3-6.6-10.1-3.4-15.2Z"/>
        </g>
        <g>
          <path class="cls-4" d="M533.9,383.2c3.4-5.3,10.5-6.9,15.8-3.5,5.3,3.4,6.8,10.5,3.5,15.8-3.4,5.3-10.5,6.9-15.8,3.5-5.3-3.4-6.9-10.5-3.5-15.8h0Z"/>
          <path class="cls-4" d="M516.7,354.5c3-4.6,9.1-6,13.8-3,4.6,3,6,9.1,3,13.8-3,4.6-9.1,6-13.8,3s-6-9.1-3-13.8Z"/>
          <path class="cls-4" d="M539.2,348.5c2.8-4.3,8.5-5.6,12.8-2.8s5.6,8.5,2.8,12.8-8.5,5.6-12.8,2.8-5.6-8.5-2.8-12.8h0Z"/>
          <path class="cls-4" d="M500.6,383.5c2.2-3.5,6.9-4.5,10.3-2.3s4.5,6.9,2.3,10.3-6.9,4.5-10.3,2.3-4.5-6.9-2.3-10.3Z"/>
          <path class="cls-4" d="M511.1,402.9c3.9-6.1,12.1-7.9,18.2-4s7.9,12.1,4,18.2c-3.9,6.1-12.1,7.9-18.2,4-6.1-3.9-7.9-12.1-4-18.2Z"/>
          <path class="cls-4" d="M491.7,351.2c3.2-5,9.8-6.4,14.8-3.2,5,3.2,6.4,9.8,3.2,14.8-3.2,5-9.8,6.4-14.8,3.2-5-3.2-6.4-9.8-3.2-14.8Z"/>
          <path class="cls-4" d="M524.6,322.3c2.5-4,7.8-5.1,11.8-2.6,4,2.5,5.1,7.8,2.6,11.8-2.5,4-7.8,5.1-11.8,2.6-4-2.5-5.1-7.8-2.6-11.8Z"/>
          <path class="cls-4" d="M516.7,376.9c2.4-3.8,7.5-4.9,11.3-2.5,3.8,2.4,4.9,7.5,2.5,11.3-2.4,3.8-7.5,4.9-11.3,2.5-3.8-2.4-4.9-7.5-2.5-11.3Z"/>
          <path class="cls-24" d="M513.2,407.6c2-3.1,6.2-4.1,9.4-2,3.1,2,4.1,6.2,2,9.4-2,3.1-6.2,4.1-9.4,2-3.1-2-4.1-6.2-2-9.4Z"/>
          <path class="cls-24" d="M535.8,386.4c1.7-2.6,5.2-3.4,7.9-1.7,2.6,1.7,3.4,5.2,1.7,7.9s-5.2,3.4-7.9,1.7c-2.6-1.7-3.4-5.2-1.7-7.9Z"/>
          <path class="cls-24" d="M517.8,378.8c1.3-2.1,4.1-2.7,6.2-1.4,2.1,1.3,2.7,4.1,1.4,6.2-1.3,2.1-4.1,2.7-6.2,1.4-2.1-1.3-2.7-4.1-1.4-6.2Z"/>
          <path class="cls-24" d="M501.4,385.9c1-1.5,3-2,4.6-1s2,3,1,4.6c-1,1.5-3,2-4.6,1-1.5-1-2-3-1-4.6Z"/>
          <path class="cls-24" d="M493,352.7c1.7-2.6,5.1-3.4,7.7-1.7,2.6,1.7,3.4,5.1,1.7,7.7-1.7,2.6-5.1,3.4-7.7,1.7-2.6-1.7-3.4-5.1-1.7-7.7Z"/>
          <path class="cls-24" d="M519.4,357.7c1.4-2.2,4.2-2.8,6.4-1.4,2.2,1.4,2.8,4.2,1.4,6.4s-4.2,2.8-6.4,1.4c-2.2-1.4-2.8-4.2-1.4-6.4Z"/>
          <path class="cls-24" d="M540.4,351c1.5-2.3,4.6-3,6.9-1.5,2.3,1.5,3,4.6,1.5,6.9s-4.6,3-6.9,1.5-3-4.6-1.5-6.9h0Z"/>
          <path class="cls-24" d="M526.4,325.2c1.2-1.8,3.6-2.4,5.4-1.2,1.8,1.2,2.4,3.6,1.2,5.4-1.2,1.8-3.6,2.4-5.4,1.2-1.8-1.2-2.4-3.6-1.2-5.4Z"/>
        </g>
        <g>
          <g>
            <path class="cls-30" d="M483.2,277.4c-7.5-.9-13.9-50.6-9.6-58.2s25.6-5.6,31,4.2c2.4,4.4-14.2,54.9-21.4,54.1Z"/>
            <path class="cls-10" d="M498.6,243.7c-2.3.2-5.2,2.1-6.8,3.8-1.6,1.6-6.1,8.2-7.9,12.6-2.4-4.6-6-8.5-10.3-11.4,1.7,12.8,4.9,25.3,8.3,28.1,1.3-.2,2.6-.5,3.9-.9,5.5-5.8,13.5-27.2,17-40.9-1.4,2.9-2.9,5.8-4.3,8.8h0Z"/>
            <path class="cls-25" d="M482.2,255c1.7-2.6,3.5-5,5.7-7.1,1.9-1.7,3.7-3.5,5.7-4.9,1.7-6.1,2.9-12.3,3.8-18.6-8.1,2.9-17.6.4-23.7-5.5,0,0-.1.1-.2.2-2,3.5-1.7,15.6-.1,27.9,3.1,2.5,6.2,5.2,8.8,8h0Z"/>
            <path class="cls-10" d="M496.1,219.9c-4.9,2.3-11.2,1.5-15.3-2.1,5.1-1.8,10.4-.4,15.3,2.1Z"/>
            <path class="cls-2" d="M476.3,223.4c2.3,8.4,2.8,17.3,1.3,25.9-1.1-4.2-2.3-8.5-2.8-12.9s-.2-8.9,1.5-13Z"/>
          </g>
          <g>
            <path class="cls-30" d="M464.5,313.2c-7.3-.6-15.3-48.7-11.4-56.3,3.9-7.6,24.7-6.3,30.3,3,2.5,4.2-11.9,53.9-18.9,53.3Z"/>
            <path class="cls-25" d="M476.6,261.2c-7.8,3.1-17.1,1-23.2-4.5,0,0-.1.1-.2.2-3.5,6.7,2.3,44.7,8.7,54.1,8-15.5,13.1-32.5,14.7-49.8Z"/>
            <path class="cls-10" d="M475.1,256.9c-4.7,2.5-10.8,1.8-14.9-1.5,4.9-2,10.1-.7,14.9,1.5Z"/>
            <path class="cls-2" d="M457.7,263.8c4,12.7,5.1,26.3,3.4,39.4-2-6.4-4-12.9-4.9-19.5-.9-6.7-.7-13.6,1.5-19.9h0Z"/>
          </g>
          <g>
            <path class="cls-30" d="M474.5,301.6c-6-4.3,12.1-49.6,19.4-54,7.3-4.4,24.5,7.4,24.4,18.2,0,4.9-38,40-43.7,35.9h0Z"/>
            <path class="cls-25" d="M511.7,263.4c-8.2-1.4-15.2-8-17.5-15.9,0,0-.2,0-.2.1-6.4,3.9-21.1,39.4-20.5,50.8,14.9-9.1,28-21,38.3-35Z"/>
            <path class="cls-10" d="M512.7,258.9c-5.3-.3-10.2-4-12-9,5.2.9,9,4.6,12,9Z"/>
            <path class="cls-2" d="M494.2,255.8c-3.1,12.9-9.2,25.1-17.5,35.5,1.6-6.5,3.2-13.1,5.9-19.3,2.6-6.2,6.4-12,11.6-16.2h0Z"/>
          </g>
          <g>
            <path class="cls-30" d="M486.7,313.3c-1.9-5.6,31.2-27.1,38.1-26.6s12.7,16.3,7.6,23.5c-2.3,3.2-43.9,8.6-45.7,3.2h0Z"/>
            <path class="cls-25" d="M529.2,305.4c-4.8-4.8-6.3-12.4-4.1-18.7,0,0-.1,0-.2,0-6.1-.4-32.5,16.1-37.4,24,14.1,1,28.4-.8,41.8-5.2h0Z"/>
            <path class="cls-10" d="M532,302.9c-3.3-2.7-4.9-7.4-3.7-11.6,3.1,3,3.8,7.3,3.7,11.6Z"/>
            <path class="cls-2" d="M521.2,292.2c-8.1,7.1-17.9,12.3-28.2,15.2,4.1-3.5,8.3-7.1,12.9-10,4.6-2.8,9.9-5,15.3-5.3h0Z"/>
          </g>
          <g>
            <path class="cls-30" d="M498.7,286c-3-5.1,25.3-32.8,32.1-33.6,6.9-.9,15.7,13.5,12.1,21.5-1.6,3.6-41.3,17.1-44.2,12.1Z"/>
            <path class="cls-25" d="M538.8,269.9c-5.7-3.7-8.6-10.9-7.8-17.5,0,0-.2,0-.2,0-6,.8-28.6,22.2-32,30.9,14-1.8,27.6-6.4,39.9-13.3h0Z"/>
            <path class="cls-10" d="M541.1,266.9c-3.8-2-6.2-6.3-5.9-10.6,3.6,2.4,5.2,6.4,5.9,10.6Z"/>
            <path class="cls-2" d="M528.4,258.6c-6.6,8.5-15.1,15.6-24.7,20.5,3.4-4.3,6.7-8.6,10.7-12.3,4-3.7,8.7-6.8,14-8.2h0Z"/>
          </g>
        </g>
      </g>
    </g>
  </g>
</svg>