<?xml version="1.0" encoding="UTF-8"?>
<svg id="Calque_1" data-name="Calque 1" xmlns="http://www.w3.org/2000/svg" version="1.1" viewBox="0 0 425.2 425.2">
  <defs>
    <style>
      .cls-1 {
        fill: none;
      }

      .cls-1, .cls-2, .cls-3, .cls-4, .cls-5, .cls-6 {
        stroke-width: 0px;
      }

      .cls-2 {
        fill: #e46565;
      }

      .cls-3 {
        fill: #fedf8b;
      }

      .cls-4 {
        fill: #228dc8;
      }

      .cls-5 {
        fill: #fedf8a;
      }

      .cls-6 {
        fill: #2c9388;
      }
    </style>
  </defs>
  <path class="cls-1" d="M404.93,212.18c0,62.83-.02,125.67.06,188.5,0,2.69-.42,3.52-3.37,3.52-125.8-.09-251.6-.09-377.4,0-2.79,0-3.22-.68-3.22-3.3.08-125.79.07-251.58,0-377.37,0-2.53.3-3.34,3.18-3.33,125.93.1,251.85.1,377.78.01,2.63,0,3.04.6,3.03,3.1-.09,62.96-.07,125.91-.07,188.87ZM69.78,241.22c-.88.79-1.72,1.48-2.49,2.25-9.19,9.18-18.31,18.44-27.6,27.53-2.04,1.99-2.24,3.08-.07,5.21,12.31,12.07,24.39,24.37,36.68,36.47,1.98,1.95,2.05,2.98.02,4.97-12.37,12.18-24.56,24.56-36.91,36.76-1.85,1.83-1.92,2.8-.03,4.66,9.37,9.18,18.67,18.43,27.79,27.86,2.18,2.25,3.26,1.8,5.18-.15,12.11-12.27,24.39-24.37,36.48-36.66,1.94-1.97,2.89-2.04,4.87-.02,12.17,12.38,24.56,24.55,36.72,36.95,2.06,2.1,3.03,1.83,4.91-.09,9.08-9.29,18.26-18.49,27.54-27.58,1.99-1.95,2.31-3.02.11-5.18-12.39-12.16-24.56-24.56-36.93-36.74-1.91-1.88-1.77-2.8.05-4.6,12.45-12.28,24.75-24.72,37.19-37.02,1.7-1.68,1.85-2.61.05-4.37-9.45-9.27-18.84-18.62-28.07-28.11-2.07-2.14-3.08-1.74-4.94.14-12.11,12.27-24.4,24.37-36.47,36.67-2.14,2.18-3.24,1.93-5.23-.09-12.1-12.28-24.33-24.43-36.53-36.61-.7-.7-1.43-1.35-2.35-2.21ZM134.29,70.95c0-8.62-.1-17.24.06-25.85.05-2.81-.54-3.86-3.65-3.82-12.86.19-25.73.2-38.59,0-3.3-.05-3.85,1.13-3.83,4.08.13,16.86-.02,33.72.13,50.57.03,3.32-.71,4.5-4.3,4.46-16.98-.2-33.97-.04-50.95-.14-2.77-.02-3.92.49-3.87,3.63.19,12.98.17,25.97,0,38.96-.04,2.94.93,3.47,3.62,3.45,17.23-.12,34.47,0,51.7-.12,2.87-.02,3.82.64,3.8,3.68-.15,17.11-.01,34.22-.13,51.32-.02,2.84.62,3.89,3.7,3.85,12.86-.17,25.73-.16,38.59,0,2.89.03,3.81-.69,3.78-3.7-.15-16.98.05-33.97-.17-50.95-.04-3.59,1.12-4.23,4.38-4.2,16.98.15,33.97,0,50.95.14,2.81.02,3.58-.75,3.55-3.56-.15-12.86-.17-25.73,0-38.59.04-3.17-.94-3.95-4-3.92-17.11.14-34.22,0-51.33.13-2.83.02-3.59-.77-3.53-3.57.18-8.61.07-17.23.07-25.85ZM318.32,146.04c26.1,0,52.2-.06,78.3.08,3.17.02,3.92-.9,3.88-3.96-.17-12.98-.17-25.97,0-38.96.04-2.95-.94-3.44-3.62-3.43-52.2.08-104.4.08-156.59,0-2.8,0-3.59.72-3.56,3.54.15,12.86.21,25.72-.03,38.58-.07,3.63,1.18,4.24,4.44,4.22,25.72-.12,51.45-.07,77.17-.07ZM318.84,281.2c-25.98,0-51.96.05-77.94-.06-2.99-.01-4.12.63-4.07,3.88.18,12.86.17,25.73,0,38.59-.04,3.06.77,4.03,3.94,4.02,51.96-.1,103.91-.1,155.87,0,3.3,0,3.87-1.14,3.84-4.1-.14-12.74-.17-25.48.01-38.21.05-3.23-.72-4.23-4.11-4.21-25.85.15-51.71.08-77.56.08ZM341.31,371.43c0-13.12-9.79-22.85-22.93-22.83-12.68.02-22.9,10.18-22.88,22.73.02,12.78,10.25,23.05,22.98,23.07,13.06.01,22.84-9.82,22.84-22.97ZM318.32,214.36c-12.76.03-22.84,10.05-22.83,22.71.01,12.62,10.5,23.14,23.07,23.1,13.7-.04,23.23-11.77,22.85-23.14-.44-13.26-9.68-22.7-23.09-22.67Z"/>
  <path class="cls-6" d="M69.78,241.22c.91.86,1.65,1.51,2.35,2.21,12.19,12.19,24.43,24.33,36.53,36.61,1.99,2.02,3.09,2.27,5.23.09,12.08-12.3,24.37-24.4,36.47-36.67,1.86-1.88,2.86-2.27,4.94-.14,9.23,9.5,18.61,18.84,28.07,28.11,1.8,1.76,1.65,2.69-.05,4.37-12.44,12.3-24.73,24.74-37.19,37.02-1.82,1.8-1.97,2.71-.05,4.6,12.37,12.19,24.54,24.58,36.93,36.74,2.2,2.16,1.88,3.23-.11,5.18-9.28,9.1-18.46,18.29-27.54,27.58-1.88,1.92-2.85,2.19-4.91.09-12.16-12.4-24.55-24.56-36.72-36.95-1.98-2.02-2.93-1.95-4.87.02-12.09,12.29-24.37,24.39-36.48,36.66-1.92,1.95-3,2.41-5.18.15-9.12-9.42-18.42-18.68-27.79-27.86-1.89-1.85-1.83-2.83.03-4.66,12.36-12.2,24.54-24.58,36.91-36.76,2.02-1.99,1.95-3.02-.02-4.97-12.28-12.1-24.37-24.39-36.68-36.47-2.17-2.13-1.96-3.22.07-5.21,9.29-9.09,18.41-18.34,27.6-27.53.77-.77,1.61-1.46,2.49-2.25Z"/>
  <path class="cls-2" d="M134.29,70.95c0,8.62.12,17.24-.07,25.85-.06,2.8.7,3.59,3.53,3.57,17.11-.13,34.22,0,51.33-.13,3.07-.03,4.05.75,4,3.92-.18,12.86-.16,25.72,0,38.59.03,2.81-.74,3.58-3.55,3.56-16.98-.13-33.97.02-50.95-.14-3.26-.03-4.43.61-4.38,4.2.21,16.98.02,33.97.17,50.95.03,3.01-.89,3.74-3.78,3.7-12.86-.15-25.73-.16-38.59,0-3.07.04-3.72-1-3.7-3.85.12-17.11-.02-34.22.13-51.32.03-3.04-.92-3.7-3.8-3.68-17.23.13-34.47,0-51.7.12-2.69.02-3.66-.52-3.62-3.45.17-12.99.18-25.98,0-38.96-.05-3.14,1.11-3.65,3.87-3.63,16.98.11,33.97-.06,50.95.14,3.59.04,4.33-1.14,4.3-4.46-.15-16.86,0-33.72-.13-50.57-.02-2.95.52-4.13,3.83-4.08,12.86.2,25.73.19,38.59,0,3.1-.05,3.7,1.01,3.65,3.82-.16,8.61-.06,17.23-.06,25.85Z"/>
  <path class="cls-4" d="M318.32,146.04c-25.72,0-51.45-.05-77.17.07-3.26.02-4.51-.59-4.44-4.22.24-12.86.18-25.72.03-38.58-.03-2.82.76-3.54,3.56-3.54,52.2.08,104.4.08,156.59,0,2.67,0,3.65.49,3.62,3.43-.17,12.98-.17,25.97,0,38.96.04,3.06-.71,3.97-3.88,3.96-26.1-.13-52.2-.08-78.3-.08Z"/>
  <path class="cls-3" d="M318.84,281.2c25.85,0,51.71.07,77.56-.08,3.39-.02,4.16.97,4.11,4.21-.18,12.74-.16,25.48-.01,38.21.03,2.95-.54,4.1-3.84,4.1-51.96-.1-103.91-.1-155.87,0-3.18,0-3.98-.96-3.94-4.02.16-12.86.17-25.73,0-38.59-.05-3.25,1.08-3.89,4.07-3.88,25.98.11,51.96.06,77.94.06Z"/>
  <path class="cls-5" d="M341.31,371.43c0,13.15-9.77,22.98-22.84,22.97-12.73-.01-22.96-10.28-22.98-23.07-.02-12.56,10.2-22.71,22.88-22.73,13.15-.02,22.93,9.72,22.93,22.83Z"/>
  <path class="cls-5" d="M318.32,214.36c13.41-.03,22.65,9.42,23.09,22.67.38,11.37-9.15,23.1-22.85,23.14-12.57.04-23.06-10.48-23.07-23.1-.01-12.66,10.06-22.68,22.83-22.71Z"/>
</svg>