<?xml version="1.0" encoding="utf-8"?>
<!-- Generator: Adobe Illustrator 25.0.1, SVG Export Plug-In . SVG Version: 6.00 Build 0)  -->
<svg version="1.1" id="Calque_1" xmlns="http://www.w3.org/2000/svg" xmlns:xlink="http://www.w3.org/1999/xlink" x="0px" y="0px"
	 viewBox="0 0 512 512" style="enable-background:new 0 0 512 512;" xml:space="preserve">
<style type="text/css">
	.st0{fill:#FD9727;}
	.st1{fill:#FF6D3A;}
	.st2{display:none;}
	.st3{display:inline;}
	.st4{fill:#F7BC14;stroke:#F7BC14;stroke-width:15;stroke-miterlimit:10;}
	.st5{fill:#F7BC14;stroke:#FED130;stroke-width:15;stroke-miterlimit:10;}
	.st6{fill:#FED130;}
	.st7{fill:#F7BC14;}
</style>
<g id="Capa_1">
	<g>
		<path class="st0" d="M63.5,118.8C75,106.3,86.9,95,100.3,84.6c1.6-1.2,3.8,0.3,3.3,2.1C96,114,83.2,140.9,63.2,161
			C62.2,147,62.2,132.9,63.5,118.8z"/>
		<path class="st0" d="M63.1,161c-11.5-13.9-21.5-28.3-30.4-43.9c-1.1-1.8-3.7-1.2-3.8,0.9c-1.6,31.8,10.6,69.1,40.1,84.1
			C66.1,188.6,64,174.8,63.1,161z"/>
		<path class="st0" d="M69,202.1c7.3-14.9,15.4-28.9,24.9-42.3c1.2-1.6,3.6-0.9,3.7,1.1c1.2,27.5-3.6,56.5-16.7,80.7
			C76.1,228.7,72,215.6,69,202.1z"/>
		<path class="st0" d="M80.9,241.6c-15-9.6-28.7-20.2-41.8-32c-1.5-1.3-3.9,0.1-3.4,2c7.9,30.4,30.5,61.6,62.7,67.1
			C91.9,266.8,85.8,254.4,80.9,241.6z"/>
		<path class="st0" d="M98.5,278.7c2.7-16.3,6.4-31.9,11.6-47.4c0.6-1.9,3.3-1.9,3.9-0.1c9.1,25.7,12.9,54.9,7.3,81.6
			C113,302.1,105.2,290.7,98.5,278.7z"/>
		<path class="st0" d="M121.3,313c-17-4.8-33.2-10.9-49.2-18.3c-1.9-0.9-3.7,1.2-2.7,2.9c16.4,26.8,47.1,50,79.5,46
			C139.2,334,129.8,323.9,121.3,313z"/>
		<path class="st0" d="M149,343.5c-2.3-16.4-3.3-32.4-2.8-48.9c0.1-2,2.6-2.8,3.7-1.2c16.3,22.2,28.6,49.1,31.5,76.4
			C170.1,361.9,159.2,353.2,149,343.5z"/>
		<path class="st0" d="M448.5,118.8C437,106.3,425.1,95,411.7,84.6c-1.6-1.2-3.8,0.3-3.3,2.1c7.5,27.3,20.3,54.2,40.3,74.2
			C449.8,147,449.8,132.9,448.5,118.8z"/>
		<path class="st0" d="M448.9,161c11.5-13.9,21.5-28.3,30.4-43.9c1-1.8,3.7-1.2,3.8,0.9c1.6,31.8-10.6,69.1-40.1,84.1
			C445.9,188.6,448,174.8,448.9,161z"/>
		<path class="st0" d="M443,202.1c-7.3-14.9-15.4-28.9-24.9-42.3c-1.2-1.6-3.6-0.9-3.7,1.1c-1.2,27.5,3.6,56.5,16.7,80.7
			C435.9,228.7,440,215.6,443,202.1z"/>
		<path class="st0" d="M431.1,241.6c15-9.6,28.7-20.2,41.8-32c1.5-1.3,3.9,0.1,3.4,2c-7.9,30.4-30.5,61.6-62.7,67.1
			C420.1,266.8,426.2,254.4,431.1,241.6z"/>
		<path class="st0" d="M413.5,278.7c-2.7-16.3-6.4-31.9-11.6-47.4c-0.6-1.9-3.3-1.9-3.9-0.1c-9.1,25.7-12.9,54.9-7.3,81.6
			C399,302.1,406.8,290.7,413.5,278.7z"/>
		<path class="st0" d="M390.7,313c17-4.8,33.2-10.9,49.2-18.3c1.9-0.9,3.7,1.2,2.7,2.9c-16.4,26.8-47.1,50-79.5,46
			C372.8,334,382.2,323.9,390.7,313z"/>
		<path class="st0" d="M363,343.5c2.3-16.4,3.3-32.4,2.8-48.9c-0.1-2-2.6-2.8-3.7-1.2c-16.3,22.2-28.6,49.1-31.5,76.4
			C341.9,361.9,352.8,353.2,363,343.5z"/>
	</g>
	<path class="st1" d="M455.1,119.4c0-0.2,0-0.3,0-0.4c-1.6-20.9-5.4-41.8-11.5-62.1c-1.1-3.6-4.9-5.7-8.5-4.6s-5.7,4.9-4.6,8.5
		c5.7,19.3,9.3,39,10.8,58.7c0,0.2,0,0.3,0,0.4c1.2,12.7,1.2,26.5,0.4,41l0,0c-0.8,12.6-2.8,26-5.8,40l0,0
		c-2.7,12.3-6.6,25.1-11.6,38.4l0,0l0,0c-4.4,11.6-10.2,23.8-17,36.2l0,0c-6.1,10.9-13.6,22.1-22.2,33.3l0,0l0,0
		c-7.6,9.9-16.8,20-27,29.8l0,0c-9.1,8.8-19.7,17.4-31.5,25.7l-0.1,0.1l-0.1,0.1c-19.8,15.2-29.7,19-40.4,23
		c-8.4,3.2-17,6.4-29.9,15.1c-13-8.6-21.6-11.9-29.9-15.1c-10.6-4-20.6-7.8-40.4-23l-0.1-0.1l-0.1-0.1
		c-11.7-8.3-22.4-16.9-31.5-25.7l0,0c-10.3-9.9-19.4-19.9-27-29.8l0,0l0,0c-8.6-11.2-16.2-22.4-22.2-33.3l0,0
		c-6.9-12.3-12.7-24.5-17-36.2l0,0l0,0c-5.1-13.3-9-26.2-11.6-38.4l0,0c-3-14-5-27.4-5.8-40l0,0c-0.9-14.5-0.8-28.3,0.4-41
		c0-0.2,0-0.3,0-0.4c1.3-19.6,5-39.4,10.7-58.7c1.1-3.6-1-7.5-4.6-8.5c-3.6-1.1-7.5,1-8.5,4.6c-6,20.4-9.9,41.3-11.5,62.1
		c0,0.2,0,0.3,0,0.4c-1.2,13.2-1.2,27.4-0.3,42.3l0,0c0.8,13.2,2.9,27.4,6.1,42.1l0,0c2.8,12.9,6.9,26.5,12.2,40.4l0,0
		c4.7,12.3,10.7,25,17.9,38l0,0c6.4,11.5,14.3,23.3,23.3,35l0,0l0,0c8.1,10.5,17.7,21,28.4,31.3l0,0c9.6,9.2,20.7,18.3,32.9,26.9
		c21.3,16.3,32.8,20.7,43.8,24.9c6.8,2.6,13.6,5.1,22.8,10.8c-7.1,5.4-15.3,12.3-25,20.9c-2.8,2.5-3.1,6.8-0.5,9.7
		c1.3,1.5,3.2,2.3,5.1,2.3c1.6,0,3.3-0.5,4.5-1.8c11.3-10.1,20.3-17.5,27.9-23.1c7.5,5.6,16.5,13,27.9,23.1c1.3,1.2,2.9,1.8,4.5,1.8
		c1.9,0,3.7-0.8,5.1-2.3c2.5-2.8,2.3-7.2-0.5-9.7c-9.8-8.7-17.9-15.5-25-20.9c9.2-5.7,16-8.3,22.8-10.8c11-4.2,22.5-8.5,43.8-24.9
		c12.3-8.6,23.3-17.7,32.9-26.9l0,0c10.7-10.3,20.3-20.9,28.4-31.3l0,0l0,0c9.1-11.7,17-23.5,23.3-35l0,0c7.3-13,13.2-25.7,17.9-38
		l0,0c5.3-13.9,9.4-27.5,12.2-40.4l0,0c3.2-14.6,5.2-28.8,6.1-42.1l0,0C456.4,146.9,456.3,132.6,455.1,119.4z"/>
	<g id="Calque_4" class="st2">
		<g class="st3">
			<path class="st4" d="M255.2,112.8v-22h-35.6l-18.5,97.8l21.8,2.8c0,0,8.9-16.6,32.2-18.5v-20c0,0-16.2,2.5-27.1,11.3
				c0-0.4,10.2-51.2,10.2-51.2L255.2,112.8z"/>
			<path class="st4" d="M255.2,281.7c0,0-50.7,2.8-58.3-52.9l24.4-2.2c0,0,1.7,32.7,33.9,36L255.2,281.7L255.2,281.7z"/>
			<polygon class="st5" points="314.1,90.8 314.1,112.9 255.2,112.8 255.2,90.8 			"/>
			<path class="st5" d="M255.2,153v19.9c0,0,46.8-3.6,42.9,49.4c0,0-1.6,40.5-42.9,40.4v19.1c0,0,44.9,5.4,64.1-42.5
				c0,0,16.6-42.9-15.2-71.9C304.1,167.2,285.4,148.3,255.2,153z"/>
		</g>
	</g>
</g>
<g>
	<g>
		<path class="st6" d="M142,286c-1.3,0-2.4-1.1-2.4-2.4v-27.8c0-1.3,1.1-2.4,2.4-2.4h37.9V142.9c0-1.2,0-6.8,0-12.7l-31.8,26.6
			c-0.8,0.6-1.8,1-2.8,1c-1.3,0-2.6-0.6-3.5-1.7l-15.7-20.9c-1.3-1.8-1.1-4.4,0.6-5.9l59.1-50.2c0.8-0.6,1.8-1,2.8-1h27.2
			c2.4,0,4.3,2,4.3,4.3v170.8h32.7c1.3,0,2.4,1.1,2.4,2.4v27.8c0,1.3-1.1,2.4-2.4,2.4L142,286L142,286z"/>
	</g>
	<path class="st7" d="M253.1,253.2h-32.7V82.5c0-2.4-2-4.3-4.3-4.3h-27.2c-1,0-2,0.4-2.8,1l-6.1,5.2v153c0,8.8,7.1,15.9,15.9,15.9
		h18.3V286h39c1.3,0,2.4-1.1,2.4-2.4v-27.8C255.6,254.3,254.4,253.2,253.1,253.2z"/>
</g>
<g id="_x30__2_">
	<path class="st7" d="M328,80.7c-43.4,0-65.4,34.3-65.4,101.1c0,25.1,0,101.7,65.4,101.7c43.4,0,65.4-34.4,65.4-101.4
		C393.4,115.1,371.4,80.7,328,80.7z M328,122.6c17.9,0,16.8,41.6,16.8,59.6c0,17.9,1.3,59.5-16.8,59.5c-18,0-16.8-41.4-16.8-59.5
		C311.2,164.2,309.9,122.6,328,122.6L328,122.6z"/>
	<path class="st6" d="M344.8,182.2c0,17.9,1.3,59.5-16.8,59.5v41.9c43.4,0,65.4-34.4,65.4-101.4c0-67.1-22-101.5-65.4-101.5v41.9
		C345.9,122.6,344.8,164.2,344.8,182.2z"/>
</g>
</svg>
