<?xml version="1.0" encoding="utf-8"?>
<!-- Generator: Adobe Illustrator 23.0.1, SVG Export Plug-In . SVG Version: 6.00 Build 0)  -->
<!DOCTYPE svg PUBLIC "-//W3C//DTD SVG 1.1//EN" "http://www.w3.org/Graphics/SVG/1.1/DTD/svg11.dtd" [
	<!ENTITY ns_extend "http://ns.adobe.com/Extensibility/1.0/">
	<!ENTITY ns_ai "http://ns.adobe.com/AdobeIllustrator/10.0/">
	<!ENTITY ns_graphs "http://ns.adobe.com/Graphs/1.0/">
	<!ENTITY ns_vars "http://ns.adobe.com/Variables/1.0/">
	<!ENTITY ns_imrep "http://ns.adobe.com/ImageReplacement/1.0/">
	<!ENTITY ns_sfw "http://ns.adobe.com/SaveForWeb/1.0/">
	<!ENTITY ns_custom "http://ns.adobe.com/GenericCustomNamespace/1.0/">
	<!ENTITY ns_adobe_xpath "http://ns.adobe.com/XPath/1.0/">
]>
<svg version="1.1" id="Capa_1" xmlns:x="&ns_extend;" xmlns:i="&ns_ai;" xmlns:graph="&ns_graphs;"
	 xmlns="http://www.w3.org/2000/svg" xmlns:xlink="http://www.w3.org/1999/xlink" x="0px" y="0px" viewBox="0 0 512 512"
	 style="enable-background:new 0 0 512 512;" xml:space="preserve">
<style type="text/css">
	.st0{fill:#F0C7AD;}
	.st1{fill:#E19D83;}
	.st2{fill:#7A7A93;}
	.st3{fill:#564544;}
</style>
<metadata>
	<sfw  xmlns="&ns_sfw;">
		<slices></slices>
		<sliceSourceBounds  bottomLeftOrigin="true" height="411.9" width="289.6" x="111.2" y="50.1"></sliceSourceBounds>
	</sfw>
</metadata>
<g>
	<path class="st0" d="M148.2,461.9h73.2c0,0,33-116.7,33-152.9c0,55.5,31.4,152.9,31.4,152.9h80.4c0,0,21.7-118.3,21.7-173.8
		c0-43.4-39.4-123.9-39.4-150.4c0-50.7,6.4-56.3,6.4-87.7H162.7c0,31.4,7.2,33.8,7.2,93.3c0,39.4-45.9,91.7-45.9,139.2
		C124.1,368.6,148.2,461.9,148.2,461.9z"/>
	<g>
		<path class="st1" d="M208.5,116c0,0,17.7,12.9,29.8,12.9c12.1,0,20.1-8,20.1-8s9.7,8,21.7,8c12.1,0,29.8-11.3,29.8-11.3l-4-2.4
			c0,0-17.7,8-25.7,8c-6.4,0-21.7-8.8-21.7-8.8s-11.3,8-20.1,8c-8.8,0-25.7-8-25.7-8L208.5,116z"/>
		<path class="st1" d="M210.9,95.9c0,0,15.3,8.8,27.4,8.8c12.1,0,20.1-8.8,20.1-8.8s9.7,8.8,21.7,8.8c12.1,0,27.4-9.7,27.4-9.7
			l-2.4-2.4c0,0-16.9,6.4-24.9,6.4c-8,0-21.7-8.8-21.7-8.8s-11.3,8-20.1,8c-8.8,0-24.9-4.8-24.9-4.8L210.9,95.9z"/>
	</g>
	<g>
		<path class="st2" d="M166.7,149.8c0,0,80.4,10.5,93.3,10.5c12.9,0,93.3-16.9,93.3-16.9l47.5,132.7l-12.9,104.6L260,387.9
			l-6.4-40.2l-7.2,40.2l-128.7-8L111.2,256L166.7,149.8z"/>
		<path class="st3" d="M151.4,168.3l105.4,12.1l105.4-22.5l-7.2-25.7l-98.1,24.1l-93.3-13.7L151.4,168.3z"/>
	</g>
	<g>
		<path class="st1" d="M174.7,461.9c0,0,8-8.8,12.1-8.8c4,0,10.5,8.8,10.5,8.8h6.4c0,0-10.5-12.9-16.9-12.9
			c-6.4,0-18.5,12.9-18.5,12.9H174.7z"/>
		<path class="st1" d="M315.5,461.9c0,0,7.2-6.4,10.5-6.4c4,0,12.1,6.4,12.1,6.4h7.2c0,0-14.5-10.5-19.3-10.5s-16.9,10.5-16.9,10.5
			H315.5z"/>
	</g>
</g>
</svg>
