<?xml version="1.0" encoding="UTF-8"?>
<svg xmlns="http://www.w3.org/2000/svg" version="1.1" viewBox="0 0 384 384">
  <defs>
    <style>
      .cls-1 {
        fill: none;
      }

      .cls-2 {
        fill: #05234a;
      }

      .cls-3 {
        fill: #e3eef1;
      }

      .cls-4 {
        fill: #112944;
      }

      .cls-5 {
        fill: #f9a801;
      }

      .cls-6 {
        fill: #012149;
      }

      .cls-7 {
        fill: #f73f40;
      }

      .cls-8 {
        fill: #fdaa02;
      }

      .cls-9 {
        fill: #fba903;
      }

      .cls-10 {
        fill: #fda901;
      }

      .cls-11 {
        fill: #fe3f3f;
      }

      .cls-12 {
        fill: #fd3c3c;
      }

      .cls-13 {
        fill: #fdfefe;
      }

      .cls-14 {
        fill: #122248;
      }
    </style>
  </defs>
  <!-- Generator: Adobe Illustrator 28.7.1, SVG Export Plug-In . SVG Version: 1.2.0 Build 142)  -->
  <g>
    <g id="Calque_1">
      <path class="cls-1" d="M338.2,383.9H0C0,257.1,0,130.3,0,3.4,0,.6.6,0,3.4,0c120.1,0,240.1,0,360.2,0-1,3.5-4,5.6-6.1,8.3-8.8,11.1-17.7,22.1-26.7,33-10.4,12.8-21,25.5-31.4,38.3-8.1,9.9-16,19.9-24.1,29.9-9.4,11.7-18.8,23.4-28.4,35-2.8,3.4-5,7.4-8.9,9.8-21.8-24.1-44.5-47.3-67.9-69.8,2.6-1.7,1.9-3.2,0-5.1-3-3.1-5.7-6.5-8.5-9.8.9-1.7,5.3-1.1,3.1-5.1-1.6-3-3.1-3.7-5.8-1.6-.7.5-1.5.8-2.3,1.1-.5-.5-1.1-1-1.6-1.5.7-.5,1.4-1.1,2.2-1.3,2.3-.8,2.5-1.9,1.5-4.1-1.3-3.1-2.7-3.6-5.4-1.8-1,.7-2.3.9-3.4,1.4-1.6-3.2-3.9-3.2-7-2-10.8,4-21.8,7.7-32.7,11.5-6,2.1-7,5.6-2.9,10.6-2.1,1.1-3.4,2.3-1.6,4.8.9,1.3-.2,2-1.1,2.7-4.2,3.6-8,7.6-11.3,12-11.3,14.8-17,31.2-13.8,50.1,2.3,13.3,8.8,24.6,17.3,34.8,1.4,1.6,1.7,2.4-.1,4.1-4.6,4.4-4.3,10.1.4,14.4,6.9,6.2,20.9,6.1,27.7-.3,4.4-4.1,4.5-9.6.2-13.9-3.8-3.8-8.9-5.8-14-5.1-5.2.7-7.8-1.6-10.3-5.2-1.5-2.1-3.2-4.2-4.6-6.4-14.8-22.3-14.1-45.7,2-67.1.6-.8.9-2.1,2.5-2.1-.2,1.3-.3,2.6-.5,3.8-1.2,9-1.1,17.9.8,26.8,4,19.1,15,33.4,30.9,44.3,1.1.8,2.8,1,2.1,3.3-1.5,4.9.9,8.5,4.8,11.1,6.6,4.5,17.5,4.5,24.2,0,7.1-4.7,7.1-12.9-.2-17.4-6.6-4.1-13.7-4.4-20.8-1.5-2,.8-3.4.6-5.1-.5-24.5-15.6-35.4-41.6-29.2-70.2.7-3.1,1.1-6.3,3.1-9.8,1.2,6,4.3,5.9,8.2,3.5,4.4,6.2,8.8,12.3,13.1,18.5,1.5,2.2,2.8,2.5,4.5.5.4-.4,1-.7,1.5-1,21.4,29.3,42.9,58.5,64.3,87.7,0,1.2-.9,2-1.6,2.8-5.3,6.4-10.5,12.9-15.8,19.3-6.9,8.4-13.9,16.8-20.9,25.2-1.5,0-2.9,0-4.4,0-.8-1-1.5.1-2.2.1-16,0-32.1,0-48.1,0-.9-.5-1.9,0-2.8,0-5.1-.3-5.1-.3-3.8,4.3,2.6,9.3,5.1,18.6,7.6,27.9-4.9,3-9.8,5.9-14.7,8.8-18.4,11-36.9,22.1-55.3,33.1-6.5,3.8-13,7.7-19.6,11.5-2,1.1-3.1,2.7-3.6,4.8-5,19.8,3.4,35.7,24.1,43.5,1.4.5,2.5.5,3.7-.7,2.8-3,5.7-5.9,8.5-8.9,7.7-7.6,15.5-15.1,23.2-22.8,13.9-13.7,27.8-27.5,41.7-41.2.4,1.2.8,2.3,1.2,3.5.9,3.2,3.1,4.4,6.4,3.6,19-4.3,38-8.7,57.1-12.8,3.6-.8,4-2,2.1-4.8.1-1-.2-1.9-.9-2.7-.3-1.3-.6-2.6-1-3.9-2.9-9-5.8-18-8.6-27,3.7-4.7,8.8-8,13.1-12,9.1-8.4,18.2-16.8,27.4-25.1,1.4-1.2,2.8-2.5,4.8-2.8.5.6,1,1.1,1.4,1.7,16.7,22.7,33.4,45.5,50.1,68.2,11.7,15.9,23.4,31.7,35.1,47.6,3.7,5.1,7.4,10.3,11.1,15.4,6.8,9.5,14.1,18.6,20.5,28.4h0Z"/>
      <path class="cls-1" d="M365.2,0c5.6,0,11.2,0,16.9,0,1.6,0,2.2.3,1.9,1.9-.1.5,0,1,0,1.5,0,125.7,0,251.4,0,377.2,0,2.9-.7,3.4-3.5,3.4-13.9-.2-27.7,0-41.6,0,6-5.8,9.6-12.9,11.3-21,3.4-16,.6-31.4-4.3-46.6-.2-.8-.4-1.7-.7-2.5-8.1-24.2-20.5-46.2-34.4-67.4-14.9-22.8-31.7-44.2-49.1-65.1,0-1.3,1-2,1.8-2.8,8.2-8.1,15.8-16.6,23.6-25,12.7-13.7,24.6-28,35.9-42.8,14.5-19.1,27.6-39,37-61.2,4.7-11.1,8-22.5,8.2-34.6,0-5.1-1.7-10-3-14.9h0Z"/>
      <path class="cls-3" d="M365.2,0c1.3,4.9,3.1,9.7,3,14.9-.2,12.1-3.6,23.5-8.2,34.6-9.4,22.2-22.5,42.2-37,61.2-11.3,14.8-23.2,29.2-35.9,42.8-7.8,8.4-15.4,16.9-23.6,25-.8.8-1.7,1.5-1.8,2.8-.5.3-1.1.5-1.6.9-12.8,12.8-25.8,25.6-39.1,37.9-.7.6-1.7,1.2-1.1,2.4-1.9.3-3.4,1.5-4.8,2.8-9.2,8.3-18.3,16.7-27.4,25.1-4.4,4-9.4,7.3-13.1,12-3.4,1.2-5.3,4.5-8.3,6.2-2.1-6.2-4-12.4-5.2-18.8,1.2-1.1,2.4-2.3,3-3.9,6.9-8.4,13.9-16.8,20.9-25.2,5.3-6.4,10.5-12.9,15.8-19.3.7-.9,1.6-1.6,1.6-2.8.5-.4,1.1-.6,1.4-1.1,11.1-13.6,22.1-27.2,33.2-40.9.5-.6,1.4-1.2,1-2.2,3.9-2.4,6.1-6.5,8.9-9.8,9.6-11.5,19-23.3,28.4-35,8-9.9,16-20,24.1-29.9,10.4-12.8,21-25.5,31.4-38.3,8.9-11,17.9-22,26.7-33,2.1-2.7,5-4.8,6.1-8.3,0,0,1.5,0,1.5,0ZM170.7,242.7c2.6,0,3.3-1.6,4.2-2.6,18.2-17.8,35.8-36.2,53.3-54.7,5.8-6.2,11.5-12.5,17.2-18.7,14-15.1,27.5-30.4,40.8-46.1,10.4-12.3,20.6-24.9,30.4-37.7,13.9-18.1,27-36.7,38.2-56.5,2.6-4.7,4.9-9.6,7.4-14.4-.3-.2-.6-.4-.9-.6-63.4,76.9-126.8,153.8-190.6,231.3h0Z"/>
      <path class="cls-9" d="M346,316.4c4.9,15.2,7.6,30.6,4.3,46.6-1.7,8.1-5.3,15.2-11.3,21h-.8c-6.3-9.8-13.7-18.9-20.5-28.4-3.7-5.2-7.4-10.3-11.1-15.4.3-1.2.5-2.4.8-3.6,2.2-12.2,10.1-19.5,22.5-20.9,5.4-.6,10.7.1,16,.8ZM312.9,342.1c0,1-.4,2.1,1.2,2.1,1.4,0,1.5-.8,1.7-1.9.3-1.8.6-3.7,1.2-5.5,3.3-10.7,10-15.1,21.1-13.9,1.4.1,2.7.5,4,.7,1.1.2,2.4.8,2.8-.8.4-1.7-1.1-1.7-2.1-1.9-17.7-4.2-27.5,4.9-29.9,21.1h0ZM318.5,351.8c0,1-.5,2,1.1,2.2,1.6.1,1.4-1,1.6-2,.7-3,1.1-6.1,2.1-9.1,3.8-11.3,10.6-14.4,21.6-10,.2,0,.5.2.7.3.9.5,1.6.6,2.2-.4.6-1.1,0-1.6-.9-2-7.2-3.6-16.4-4.9-22.6,3.9-3.6,5.1-5.1,11-5.9,17.1h0Z"/>
      <path class="cls-6" d="M346,316.4c-5.3-.7-10.6-1.4-16-.8-12.4,1.4-20.3,8.6-22.5,20.9-.2,1.2-.5,2.4-.8,3.6-11.7-15.9-23.5-31.7-35.1-47.6-16.7-22.7-33.4-45.5-50.1-68.2-.4-.6-1-1.1-1.4-1.7-.6-1.2.4-1.8,1.1-2.4,13.3-12.4,26.2-25.1,39.1-37.9.4-.4,1-.6,1.6-.9,17.4,20.9,34.2,42.3,49.1,65.1,13.9,21.2,26.3,43.2,34.4,67.4.3.8.5,1.7.7,2.5h0Z"/>
      <path class="cls-6" d="M238.1,154.5c.4,1.1-.5,1.6-1,2.2-11,13.6-22.1,27.2-33.2,40.9-.4.4-.9.7-1.4,1.1-21.4-29.2-42.9-58.5-64.3-87.7,10.5-9,21.1-17.8,32-26.2,23.4,22.5,46.1,45.8,67.9,69.8h0Z"/>
      <path class="cls-11" d="M119,92.9c-3.9,2.3-7,2.5-8.2-3.5-2,3.5-2.5,6.7-3.1,9.8-6.2,28.6,4.6,54.6,29.2,70.2,1.7,1.1,3,1.3,5.1.5,7.1-2.9,14.2-2.6,20.8,1.5,7.2,4.5,7.2,12.7.2,17.4-6.7,4.4-17.6,4.5-24.2,0-3.9-2.7-6.3-6.2-4.8-11.1.7-2.3-1-2.5-2.1-3.3-15.9-10.9-26.9-25.1-30.9-44.3-1.9-8.9-1.9-17.8-.8-26.8.2-1.2.3-2.5.5-3.8-1.6,0-1.9,1.3-2.5,2.1-16.1,21.5-16.8,44.8-2,67.1,1.4,2.2,3.1,4.2,4.6,6.4,2.5,3.6,5.1,6,10.3,5.2,5.1-.7,10.1,1.2,14,5.1,4.2,4.2,4.1,9.8-.2,13.9-6.8,6.4-20.7,6.6-27.7.3-4.7-4.2-5.1-9.9-.4-14.4,1.8-1.7,1.5-2.5.1-4.1-8.5-10.2-15-21.5-17.3-34.8-3.3-18.8,2.5-35.2,13.8-50.1,3.3-4.4,7.1-8.3,11.3-12,.8-.7,2-1.4,1.1-2.7-1.8-2.5-.5-3.7,1.6-4.8,14.5-6.2,28.6-13,42.7-20,1.1-.5,2.4-.7,3.4-1.4,2.7-1.8,4.1-1.3,5.4,1.8.9,2.3.8,3.3-1.5,4.1-.8.3-1.4.9-2.2,1.3-.7.2-1.5.2-2.2.5-12.8,6-25.5,12-38.2,18-1.9.9-2.8,2.8-1.9,4.7,1.1,2.2,2.8.6,4.2-.1,6.7-3.6,13.4-7.2,20.1-10.8,6.6-3.6,13.1-7.2,19.6-10.9.8-.4,1.7-.6,2.3-1.1,2.7-2.1,4.1-1.4,5.8,1.6,2.2,4.1-2.2,3.4-3.1,5.1-8,4.2-16,8.3-23.9,12.7-6.3,3.5-12.9,6.4-18.8,10.5h0Z"/>
      <path class="cls-2" d="M40.6,320.3c18.4-11,36.9-22.1,55.3-33.1,4.9-2.9,9.8-5.9,14.7-8.8,3,9.3,5.6,18.6,7.9,28.1-13.9,13.8-27.8,27.5-41.7,41.2-7.7,7.6-15.5,15.2-23.2,22.8-4.3-16.7-8.7-33.4-13-50.2h0ZM99.5,305.3c.7-1.8-.6-2.1-1.8-2.5-3.9-1.3-7.8-2.6-11.6-4-1.9-.7-2.6-.2-3.2,1.7-1.4,5-2.9,10-4.5,15-.4,1.4-.5,2.3,1.2,2.8,4.9,1.7,9.8,3.6,14.7,5.5,1.5.6,2.3.3,2.5-1.5.8-5.7,1.8-11.3,2.7-17ZM69,344.3c1.1-6.5,2.1-12.9,3.1-19.3.3-1.7-.7-2.1-2-2.5-3.9-1.3-7.8-2.5-11.6-4-1.7-.6-2.4-.4-2.9,1.3-1.5,5.1-3,10.2-4.5,15.4-.5,1.6-.2,2.4,1.5,3,5.4,1.9,10.7,3.9,16.4,6h0Z"/>
      <path class="cls-12" d="M166.5,268.7c3-1.8,4.9-5,8.3-6.2,2.9,9,5.8,18,8.6,27,.4,1.3.7,2.6,1,3.9-18.8,4.5-37.5,8.9-56.3,13.4-1.7.4-3,1-3.6-1.5-4.9-19.8-10-39.5-15-59.3,16,0,32.1,0,48.1,0-.1.3-.2.5-.3.8-1.1-.1-2.1-.1-2.3,1.4-.2.3-.3.5-.5.8h0c-.4,0-.8,0-1.1,0-7.2,4.4-14.4,9-21.6,13.4-1.5.9-1.1,1.9-.8,3.1,2.7,8.7,5.4,17.3,7.9,26,.7,2.3,1.6,2.8,3.6,1.4,8-5.5,16-11,24-16.5,3.3-.9,1.9-2.4.4-3.9,0-.5,0-1.1-.7-1.2h0v-2.8h0Z"/>
      <path class="cls-8" d="M40.6,320.3c4.3,16.7,8.7,33.4,13,50.2-2.8,3-5.8,5.9-8.5,8.9-1.1,1.2-2.2,1.3-3.7.7-20.6-7.8-29-23.6-24.1-43.5.5-2.2,1.6-3.7,3.6-4.8,6.6-3.7,13.1-7.6,19.6-11.5h0Z"/>
      <path class="cls-8" d="M119,92.9c5.9-4.1,12.5-7,18.8-10.5,7.9-4.4,16-8.5,23.9-12.7,2.8,3.3,5.5,6.7,8.5,9.8,1.8,1.9,2.5,3.4,0,5.1-10.9,8.5-21.5,17.3-32,26.2-.5.3-1.1.6-1.5,1-1.8,2-3.1,1.7-4.5-.5-4.3-6.2-8.7-12.3-13.1-18.5h0Z"/>
      <path class="cls-7" d="M118.5,306.5c-2.3-9.5-4.9-18.9-7.9-28.1-2.5-9.3-5.1-18.6-7.6-27.9-1.3-4.7-1.3-4.7,3.8-4.3,5.2,20.9,10.5,41.7,15.7,62.6.6,2.4,2.1,2,3.7,1.6,19.7-4.7,39.4-9.5,59.1-14.2,1.8,2.7,1.5,4-2.1,4.8-19.1,4.1-38.1,8.5-57.1,12.8-3.4.8-5.5-.4-6.4-3.6-.3-1.2-.8-2.3-1.2-3.5h0Z"/>
      <path class="cls-14" d="M185.3,296.1c-19.7,4.7-39.4,9.5-59.1,14.2-1.6.4-3.1.8-3.7-1.6-5.2-20.9-10.5-41.7-15.7-62.6.9,0,1.9-.6,2.8,0,5,19.8,10.1,39.5,15,59.3.6,2.5,1.9,1.9,3.6,1.5,18.8-4.5,37.5-8.9,56.3-13.4.7.8,1,1.6.9,2.7h0Z"/>
      <path class="cls-8" d="M150,56.8c-14.1,7-28.2,13.9-42.7,20-4.1-4.9-3.1-8.5,2.9-10.6,10.9-3.8,21.9-7.5,32.7-11.5,3.1-1.2,5.4-1.2,7,2h0Z"/>
      <path class="cls-10" d="M156.8,64.1c-6.5,3.6-13.1,7.3-19.6,10.9-6.7,3.7-13.4,7.2-20.1,10.8-1.3.7-3,2.3-4.2.1-1-1.9,0-3.8,1.9-4.7,12.7-6.1,25.5-12,38.2-18,.7-.3,1.4-.4,2.2-.5.5.5,1.1,1,1.6,1.4Z"/>
      <path class="cls-5" d="M157.3,246.9c.1-.3.2-.5.3-.8.7,0,1.4-1.1,2.2-.1.2,1.4.5,2.8,1.4,3.9,1.2,6.4,3.1,12.7,5.2,18.8v2.9c-4.9-3.9-7-9.3-8.2-15.2-.6-3.1-.7-6.3-1-9.5h0Z"/>
      <path class="cls-11" d="M161.2,249.9c-.9-1.2-1.2-2.5-1.4-3.9,1.5,0,2.9,0,4.4,0-.7,1.6-1.8,2.8-3,3.9Z"/>
      <path class="cls-13" d="M170.7,242.7c63.8-77.4,127.2-154.4,190.6-231.3.3.2.6.4.9.6-2.4,4.8-4.7,9.7-7.4,14.4-11.2,19.9-24.3,38.5-38.2,56.5-9.9,12.8-20,25.4-30.4,37.7-13.2,15.7-26.8,31-40.8,46.1-5.8,6.2-11.4,12.5-17.2,18.7-17.5,18.5-35.1,36.8-53.3,54.7-1,1-1.7,2.5-4.2,2.6h0Z"/>
      <path class="cls-4" d="M312.9,342.1c2.4-16.2,12.1-25.3,29.9-21.1,1,.2,2.5.2,2.1,1.9-.4,1.6-1.7,1-2.8.8-1.4-.2-2.7-.5-4-.7-11-1.2-17.8,3.2-21.1,13.9-.5,1.8-.9,3.6-1.2,5.5-.2,1.1-.2,2-1.7,1.9-1.6,0-1.3-1.2-1.2-2.1h0Z"/>
      <path class="cls-4" d="M318.5,351.8c.8-6.1,2.3-12,5.9-17.1,6.2-8.8,15.4-7.5,22.6-3.9.9.4,1.4,1,.9,2-.6,1-1.3.9-2.2.4-.2-.1-.4-.2-.7-.3-11-4.4-17.8-1.3-21.6,10-1,2.9-1.4,6-2.1,9.1-.2.9,0,2.1-1.6,2-1.6-.1-1.2-1.2-1.1-2.2h0Z"/>
      <path class="cls-5" d="M99.5,305.3c-.9,5.7-1.9,11.3-2.7,17-.3,1.8-1,2-2.5,1.5-4.9-1.9-9.8-3.7-14.7-5.5-1.7-.6-1.6-1.4-1.2-2.8,1.6-5,3.1-10,4.5-15,.5-1.9,1.2-2.4,3.2-1.7,3.8,1.5,7.7,2.8,11.6,4,1.3.4,2.5.8,1.8,2.5Z"/>
      <path class="cls-5" d="M69,344.3c-5.7-2.1-11-4.2-16.4-6-1.7-.6-2-1.5-1.5-3,1.6-5.1,3.1-10.2,4.5-15.4.5-1.8,1.3-2,2.9-1.3,3.8,1.5,7.7,2.7,11.6,4,1.2.4,2.3.8,2,2.5-1.1,6.4-2.1,12.7-3.1,19.3h0Z"/>
      <path class="cls-10" d="M166.7,276.6c-8,5.5-16,11-24,16.5-2,1.4-2.9.9-3.6-1.4-2.6-8.7-5.2-17.4-7.9-26-.4-1.3-.7-2.2.8-3.1,7.2-4.4,14.4-8.9,21.6-13.4.3-.2.7,0,1.1-.1.2,10.9,4,20.2,12.1,27.6h0Z"/>
      <path class="cls-4" d="M166.7,276.6c-8.1-7.4-11.9-16.7-12.1-27.6h0c.7,0,.5-.4.5-.8.1-1.5,1.2-1.5,2.3-1.4.3,3.2.4,6.4,1,9.5,1.1,5.9,3.3,11.3,8.2,15.2h0c-.2.6.2.9.7,1.1,1.4,1.5,2.8,3-.4,3.9h0Z"/>
      <path class="cls-5" d="M167.1,272.7c-.5-.2-.9-.5-.7-1.2.7.1.7.7.7,1.2Z"/>
      <path class="cls-10" d="M155,248.2c0,.4.2.8-.5.8.2-.3.3-.5.5-.8Z"/>
    </g>
  </g>
</svg>